{
  "gameAnimSafeType": {
    "maxCount": 20
  },
  "logSetting": {
    "sendEngineLogToServer": true
  },
  "dieData": {
    "$type": "ConfigCommonVisualDieData",
    "dieEndTime": 3,
    "dieEndMaxTime": 10
  },
  "hitData": {
    "$type": "ConfigCommonHitData",
    "minHitVX": 1,
    "maxHitVX": 1000,
    "minHitVY": 8,
    "maxHitVY": 1000,
    "gravity": 2,
    "hitRetreatFriction": 3,
    "airFrictionX": 0.5,
    "airFrictionY": 2,

    "dieRetreatRatio": 1.1,
    "dieRetreatLightRatio": 1.2,
    "dieRetreatHeavyRatio": 1.4,
    "dieRetreatAdd": 3.0,
    "dieRetreatHeavyAdd": 5.0,
    "dieRetreatAirXAdd": 0.0,
    "dieRetreatAirYAdd": 2.5
  },
  "collisionData": {
    "$type": "ConfigGlobalCollision",
    "highSpdThreshold": 35
  },
  "aiData": {
    "$type": "ConfigGlobalAI",
    "avatarMeleeSlotRadius": 2,
    "avoidanceUpdateInterval": 0.1,
    "avoidanceRadius": 2.0,
    "avoidanceForce": 50,
    "lod0": 0,
    "lod1": 30,
    "lod2": 50,
    "sensingIgnoreCampIDs": [5003, 5005],
    "publicCDs": {
      "meleeAttack_long": {
        "$type": "ConfigPublicAISkillCD",
        "name": "meleeAttack_long",
        "minInterval": 15.0
      },
      "rangedAttack_long": {
        "$type": "ConfigPublicAISkillCD",
        "name": "rangedAttack",
        "minInterval": 5.0
      },
      "RandomAction": {
        "$type": "ConfigPublicAISkillCD",
        "name": "RandomAction",
        "minInterval": 1.5
      },
      "Oceanid_rangedAttack": {
        "$type": "ConfigPublicAISkillCD",
        "name": "Oceanid_rangedAttack",
        "minInterval": 4.5
      },
      "Oceanid_meleeAttack": {
        "$type": "ConfigPublicAISkillCD",
        "name": "Oceanid_meleeAttack",
        "minInterval": 3
      },
      "Oceanid_meleeAttack_long": {
        "$type": "ConfigPublicAISkillCD",
        "name": "Oceanid_meleeAttack_long",
        "minInterval": 10
      },
      "Mimik_FruitSkill": {
        "$type": "ConfigPublicAISkillCD",
        "name": "Mimik_FruitSkill",
        "minInterval": 10
      },
      "Shaman_CreatePillar": {
        "$type": "ConfigPublicAISkillCD",
        "name": "Shaman_CreatePillar",
        "minInterval": 5.0
      },
      "Drake_JumpAtk": {
        "$type": "ConfigPublicAISkillCD",
        "name": "Drake_JumpAtk",
        "minInterval": 15.0
      },
      "Drake_SlapGround": {
        "$type": "ConfigPublicAISkillCD",
        "name": "Drake_SlapGround",
        "minInterval": 10.0
      },
      "Drake_CrushAtk": {
        "$type": "ConfigPublicAISkillCD",
        "name": "Drake_CrushAtk",
        "minInterval": 15.0
      },
      "Invoker_RangeAtk": {
        "$type": "ConfigPublicAISkillCD",
        "name": "Invoker_RangeAtk",
        "minInterval": 5.0
      },
      "Invoker_ChargeAtk": {
        "$type": "ConfigPublicAISkillCD",
        "name": "Invoker_ChargeAtk",
        "minInterval": 10.0
      },
      "Brute_MeleeAtk": {
        "$type": "ConfigPublicAISkillCD",
        "name": "Brute_MeleeAtk",
        "minInterval": 10
      },
      "Brute_RangeAtk": {
        "$type": "ConfigPublicAISkillCD",
        "name": "Brute_RangeAtk",
        "minInterval": 15
      },
      "Shaman_Electric_ActivateTotem": {
        "$type": "ConfigPublicAISkillCD",
        "name": "Shaman_Electric_ActivateTotem",
        "minInterval": 10.0
      },
      "Samurai_Ningyo_MeleeAtk": {
        "$type": "ConfigPublicAISkillCD",
        "name": "Samurai_Ningyo_MeleeAtk",
        "minInterval": 10.0
      },
      "Samurai_Ningyo_RangeAtk": {
        "$type": "ConfigPublicAISkillCD",
        "name": "Samurai_Ningyo_RangeAtk",
        "minInterval": 10.0
      },
      "Samurai_Ningyo_ChargeAtk": {
        "$type": "ConfigPublicAISkillCD",
        "name": "Samurai_Ningyo_ChargeAtk",
        "minInterval": 15
      },
      "Samurai_Samurai_Provoke": {
        "$type": "ConfigPublicAISkillCD",
        "name": "Samurai_Samurai_Provoke",
        "minInterval": 15
      },
      "Samurai_Kairagi_PowerAttack": {
        "$type": "ConfigPublicAISkillCD",
        "name": "Samurai_Kairagi_PowerAttack",
        "minInterval": 5
      },
      "Perpetual_Enigma_MeleeAttack": {
        "$type": "ConfigPublicAISkillCD",
        "name": "Perpetual_Enigma_MeleeAttack",
        "minInterval": 8
      },
      "Perpetual_Enigma_RangeAttack": {
        "$type": "ConfigPublicAISkillCD",
        "name": "Perpetual_Enigma_RangeAttack",
        "minInterval": 5
      },
      "ForlornVessel_Skill": {
        "$type": "ConfigPublicAISkillCD",
        "name": "ForlornVessel_Skill",
        "minInterval": 6.0
      },
      "Fungus_MeleeAttack": {
        "$type": "ConfigPublicAISkillCD",
        "name": "Fungus_MeleeAttack",
        "minInterval": 5.0
      },
      "Fungus_RangedAttack": {
        "$type": "ConfigPublicAISkillCD",
        "name": "Fungus_RangedAttack",
        "minInterval": 3.0
      },
      "Eremite_ComboAttack": {
        "$type": "ConfigPublicAISkillCD",
        "name": "Eremite_ComboAttack",
        "minInterval": 5.0
      }
    },
    "defaultWeatherNeuronMapping": {
      "Rain": ["WEATHER_BAD"],
      "Storm": ["WEATHER_BAD"]
    },
    "useServerPathfinding": true
  },
  "moveData": {
    "noGroundStayInPlace": false,
    "syncInterval": {
      "lod0": {
        "defaultValue": 0.1,
        "specificValue": {
          "EnvAnimal": 0.5
        }
      },
      "lod1": {
        "defaultValue": 0.2,
        "specificValue": {
          "EnvAnimal": 1.0
        }
      },
      "lod2": {
        "defaultValue": -1
      }
    }
  },
  "elementBladeData": {
    "Fire": {
      "colorA": "FF790000",
      "colorB": "FFE6A500"
    },
    "Water": {
      "colorA": "297BFF00",
      "colorB": "D0EFFF00"
    },
    "Wind": {
      "colorA": "39877400",
      "colorB": "87FBDE00"
    },
    "Ice": {
      "colorA": "6599FF00",
      "colorB": "EBF1FF00"
    },
    "Electric": {
      "colorA": "3714FB00",
      "colorB": "F9EBFF00"
    }
  },
  "fireGrassAirflowData": {
    "$type": "ConfigFireGrassAirflowField",
    "enable": false,
    "gadgetId": 40200008,
    "triggerNum": 3,
    "height": 10,
    "up": true,
    "velocity": 10,
    "heightSpeed": -1,
    "antiGravityRatio": 0.6
  },
  "miscs": {
    "airFlowAcc": -1.8,
    "paimonGadgetID": 90000003,
    "cureEffect": "Eff_AvatarCommon_Heal",
    "gadgetUICameraLookCfgPath": "TEST/TEST_Chest_CutSence",
    "gadgetUICutSenceCfgPath": "TEST/TEST_Chest_CutSence",
    "weaponAnimCurvePath": "Data/ScriptData/Gadget/WeaponAnim",
    "avatarFocus": {
      "ps4": {
        "cameraHorMoveSpeed": 1.8,
        "cameraVerMoveSpeed": 4.5,
        "cameraHorStickyRatio": 0.5,
        "cameraVerStickyRatio": 0.4,
        "autoFocusHorSpeed": 30,
        "autoFocusVerSpeed": 30,
        "autoFocusRangeCoef": 2.5,
        "gyroHorMoveSpeed": 12,
        "gyroVerMoveSpeed": 0.4
      },
      "ps5": {
        "cameraHorMoveSpeed": 1.8,
        "cameraVerMoveSpeed": 4.5,
        "cameraHorStickyRatio": 0.5,
        "cameraVerStickyRatio": 0.4,
        "autoFocusHorSpeed": 30,
        "autoFocusVerSpeed": 30,
        "autoFocusRangeCoef": 2.5,
        "gyroHorMoveSpeed": 12,
        "gyroVerMoveSpeed": 0.4
      },
      "other": {
        "cameraHorMoveSpeed": 1.6,
        "cameraVerMoveSpeed": 4,
        "cameraHorStickyRatio": 0.6,
        "cameraVerStickyRatio": 0.5,
        "autoFocusHorSpeed": 30,
        "autoFocusVerSpeed": 30,
        "autoFocusRangeCoef": 2.5,
        "gyroHorMoveSpeed": 16,
        "gyroVerMoveSpeed": 0.3
      },
      "pc": {
        "cameraHorMoveSpeed": 0.9,
        "cameraVerMoveSpeed": 1.5,
        "cameraHorStickyRatio": 0.6,
        "cameraVerStickyRatio": 0.5,
        "autoFocusHorSpeed": 30,
        "autoFocusVerSpeed": 30,
        "autoFocusRangeCoef": 2.5,
        "gyroHorMoveSpeed": 16,
        "gyroVerMoveSpeed": 0.3
      }
    }
  },
  "lockTarget": {
    "lockWeightOutCameraParam": 0,
    "lockWeightRelockParam": 1.2,
    "clearLockTargetOutCombat": 2,
    "clearLockTargetInCombat": 3,
    "forceLockTargetInCombat": 0
  },
  "defaultAbilities": {
    "monterEliteAbilityName": "MonsterEliteAbility",
    "nonHumanoidMoveAbilities": ["Unique_AbilityCrash"],
    "levelDefaultAbilities": [
      "AI_LeaveCombat_Reset",
      "LevelAbility_Combat_Watcher",
      "LevelAbility_Combat_Achievement_Watcher_1",
      "LevelAbility_Combat_Achievement_Watcher_2",
      "LevelAbility_Combat_Achievement_Watcher_3",
      "LevelAbility_Combat_Activity_Watcher_1"
    ],
    "levelElementAbilities": [
      "SceneAbility_ElectricWaterArea",
      "SceneAbility_ElectricWaterArea_Clear",
      "SceneAbility_WaterArea",
      "SceneAbility_Rain",
      "SceneAbility_BlackMudArea",
      "ElementAbility_Burning",
      "ElementAbility_Wet",
      "ElementAbility_Ice",
      "ElementAbility_Steam",
      "ElementAbility_Explode",
      "ElementAbility_Melt",
      "ElementAbility_Freeze",
      "ElementAbility_Frozen",
      "ElementAbility_Electric",
      "ElementAbility_Rock",
      "ElementAbility_Wind",
      "ElementAbility_StickElectric",
      "ElementAbility_Fire",
      "ElementAbility_Superconductor",
      "ElementAbility_Swirl_Fire",
      "ElementAbility_Swirl_Electric",
      "ElementAbility_Swirl_Water",
      "ElementAbility_Swirl_Ice",
      "ElementAbility_StickWater",
      "ElementAbility_Crystallize_Water",
      "ElementAbility_Crystallize_Ice",
      "ElementAbility_Crystallize_Fire",
      "ElementAbility_Crystallize_Electric",
      "ElementAbility_Petrifaction",
      "ElementAbility_DeadTime",
      "ElementAbility_Frozen_Broken",
      "ElementAbility_StickGrass",
      "ElementAbility_Burning_Fuel",
      "ElementAbility_Overdose_DropBall",
      "ElementAbility_Overdose_ApplyModifier",
      "ElementAbility_OverGrow",
      "ElementAbility_OverGrow_Mushroom_Fire",
      "ElementAbility_OverGrow_Mushroom_Electric"
    ],
    "evaluateGlobalValueAbilities": [
      "ElementAbility_OverGrow_Mushroom",
      "ElementAbility_OverGrow_Alter_Mushroom",
      "Element_OverGrow_Electric_Bullet_Material",
      "Element_OverGrow_Electric_Bullet_LifeOver"
    ],
    "levelItemAbilities": [
      "Item_Food_RecoverHP",
      "Item_Food_RecoverInstantHP",
      "Item_Food_MoveSpeed"
    ],
    "levelSBuffAbilities": [
      "Item_Food_Attack",
      "Item_Food_Defence",
      "Item_Food_MaxHP",
      "ReHP_Ins&Con",
      "Atk_Team",
      "Def_Team",
      "Elec_Team",
      "Fire_Team",
      "Water_Team",
      "revive_buff",
      "Critical_Team",
      "Stamina_Fly_Team",
      "Stamina_Climb_Team",
      "Stamina_Sprint_Team",
      "Stamina_Swim_Team",
      "Stamina_Fly_lv3_1",
      "Stamina_Fly_lv3_2",
      "Stamina_Fly_lv3_3",
      "Stamina_Climb_lv3_1",
      "Stamina_Climb_lv3_2",
      "Stamina_Climb_lv3_3",
      "MoveSpeed_lv2_1",
      "Def_Element_lv2_1",
      "Element_Def_Team",
      "Element_Atk_Team",
      "Atk_Dungeon",
      "Atk_FeatureTag_Dungeon",
      "Atk_WeaponType_Dungeon",
      "Def_Dungeon",
      "Support_Dungeon",
      "Stamina_Sprint_Dungeon",
      "MoveSpeed_Dungeon",
      "ReHP_Ins&Con_Dungeon",
      "Suport_ResetCDWhenSkillHit_Dungeon",
      "Atk_HitHeadBox_Dungeon",
      "ClimateAbility_Cold",
      "ClimateAbility_TatariRegion",
      "Dulins_Blood_Buff",
      "Anti_Cold_Food_Buff",
      "SceneObj_Gear_ElemForce_SuccessBuff",
      "SceneObj_Toys_SeekerSeelie",
      "Vehicle_Skiff_Normal_ServerBuff_Handler",
      "Electric_Fairy_Skill_Team_Part_1",
      "Electric_Fairy_Skill_Team_Part_2",
      "ClimateAbility_HotMonster",
      "ClimateAbility_ColdMonster",
      "ClimateAbility_SeiraiStorm",
      "ClimateAbility_TsurumiMist",
      "SceneObj_MichiaeMatsuri_SBuff_Energy"
    ],
    "dungeonAbilities": [],
    "defaultTeamAbilities": [],
    "defaultMPLevelAbilities": [
      "ElementAbility_BurningTileAttackManager",
      "SceneAbility_Thunder",
      "SceneAbility_Thunder_New"
    ],
    "defaultAvatarAbilities": [
      "Avatar_DefaultAbility_VisionReplaceDieInvincible",
      "Avatar_DefaultAbility_AvartarInShaderChange",
      "Avatar_SprintBS_Invincible",
      "Avatar_Freeze_Duration_Reducer",
      "Avatar_Attack_ReviveEnergy",
      "Avatar_Component_Initializer",
      "Avatar_HDMesh_Controller",
      "Avatar_Trampoline_Jump_Controller"
    ]
  },
  "elemReactDamage": {
    "Burning": {
      // "Grass": 0.5,
    },
    "Stream": {
      // "Water": 0.5,
      // "Fire": 0.5,
      // "Ice": 0.5,
    },
    "Explode": {},
    "GrassGrowing": {},
    "Shock": {
      // "Water":0.5,
    },
    "Freeze": {
      // "Water":0.5,
    },
    "Melt": {
      // "Fire":0.5,
      // "Ice": 0.5,
    }
  },
  "elemAmplifyDamage": {
    "Stream": {
      "Water": 1.0,
      "Fire": 0.5
    },
    "Melt": {
      "Fire": 1.0,
      "Ice": 0.5
    }
  },
  //overdose
  "elementReactionCoefficients": {
    "coefficientOverdoseGrass": 1.25,
    "coefficientOverdoseElectric": 1.15
  },
  "elemPrority": [
    "Electric",
    "Fire",
    "Wind",
    "Ice",
    "Frozen",
    "Water",
    "Wood",
    "Overdose",
    "Grass",
    "Rock",
    "None"
  ],
  "shakeOff": {
    "reduceDurability": 8,
    "interval": 0.12,
    "shakeLifeTime": 0.2,
    "shakeValue": 0.03
    /*"shakePeriod" : 0.03,
		"shakeSmoothRatio" : 1,
		"shakeAlongAngle" : 0,
		"shakeRotAngle" : 0,
		"shakeNoiseRatio" : 0,
		"shakeDirRatio" : 0,
		"shakeZRatio" : 1,*/
  },
  "elementShield": {
    "row": [
      "None",
      "Fire",
      "Water",
      "Grass",
      "Ice",
      "Electric",
      "Wind",
      "Rock"
    ],
    "shieldDamageRatiosMap": {
      //None
      "None": {
        "elementType": "None",
        "damageRatio": [1, 1, 1, 1, 1, 1, 1, 1],
        "restraint": [0, 0, 0, 0, 0, 0, 0, 0]
      },
      //Fire
      "Fire": {
        "elementType": "Fire",
        "damageRatio": [1, 0, 1, 1, 1, 1, 1, 1],
        "restraint": [1, 1, 0, 1, 0, 0, 1, 1]
      },
      //Water
      "Water": {
        "elementType": "Water",
        "damageRatio": [1, 1, 0, 1, 1, 1, 1, 1],
        "restraint": [1, 0, 1, 1, 0, 0, 1, 1]
      },
      //Grass
      "Grass": {
        "elementType": "Grass",
        "damageRatio": [1, 1, 1, 0, 1, 1, 1, 1],
        "restraint": [1, 0, 0, 1, 1, 0, 1, 1]
      },
      //Ice
      "Ice": {
        "elementType": "Ice",
        "damageRatio": [1, 1, 1, 1, 0, 1, 1, 1],
        "restraint": [1, 0, 0, 1, 1, 1, 1, 1]
      },
      //Frozen
      "Frozen": {
        "elementType": "Frozen",
        "damageRatio": [1, 1, 1, 1, 0, 1, 1, 1],
        "restraint": [1, 0, 1, 1, 1, 1, 1, 1]
      },
      //Electric
      "Electric": {
        "elementType": "Electric",
        "damageRatio": [1, 1, 1, 1, 1, 0, 1, 1],
        "restraint": [1, 0, 0, 1, 1, 1, 1, 1]
      },
      //Wind
      "Wind": {
        "elementType": "Wind",
        "damageRatio": [1, 1, 1, 1, 1, 1, 0, 1],
        "restraint": [1, 1, 1, 1, 1, 1, 1, 1]
      },
      //Rock
      "Rock": {
        "elementType": "Rock",
        "damageRatio": [1, 1, 1, 1, 1, 1, 1, 0],
        "restraint": [1, 1, 1, 1, 1, 1, 1, 1]
      },
      //AntiFire
      "AntiFire": {
        "elementType": "AntiFire",
        "damageRatio": [0, 0, 0, 0, 0, 0, 0, 0],
        "restraint": [1, 1, 1, 1, 1, 1, 1, 1]
      }
    }
  },
  "eliteShield": {
    "row": [
      "None",
      "Fire",
      "Water",
      "Grass",
      "Ice",
      "Electric",
      "Wind",
      "Rock"
    ],
    "shieldDamageRatiosMap": {
      //default
      "default": {
        "type": "default",
        "damageRatio": [1, 1, 1, 1, 1, 1, 1, 1]
      },
      //xingqiu
      "xingqiu": {
        "type": "default",
        "damageRatio": [1, 1, 1, 1, 1, 1, 1, 1],
        "damageSufferRatio": [0.5, 0.5, 0.5, 0.5, 0.5, 0.5, 0.5, 0.5]
      },
      //Shield_Half,减半盾
      "Shield_Half": {
        "type": "default",
        "damageRatio": [0.5, 0.5, 0.5, 0.5, 0.5, 0.5, 0.5, 0.5]
      },
      //Fire
      "Avatar_Fire": {
        "type": "default",
        "damageRatio": [1, 0.4, 1, 1, 1, 1, 1, 1]
      },
      //Water
      "Avatar_Water": {
        "type": "default",
        "damageRatio": [1, 1, 0.4, 1, 1, 1, 1, 1]
      },
      //Grass
      "Avatar_Grass": {
        "type": "default",
        "damageRatio": [1, 1, 1, 0.4, 1, 1, 1, 1]
      },
      //Ice
      "Avatar_Ice": {
        "type": "default",
        "damageRatio": [1, 1, 1, 1, 0.4, 1, 1, 1]
      },
      //Frozen
      "Avatar_Frozen": {
        "type": "default",
        "damageRatio": [1, 1, 1, 1, 0.4, 1, 1, 1]
      },
      //Electric
      "Avatar_Electric": {
        "type": "default",
        "damageRatio": [1, 1, 1, 1, 1, 0.4, 1, 1]
      },
      //Wind
      "Avatar_Wind": {
        "type": "default",
        "damageRatio": [1, 1, 1, 1, 1, 1, 0.4, 1]
      },
      //Rock
      "Avatar_Rock": {
        "type": "default",
        "damageRatio": [0.667, 0.667, 0.667, 0.667, 0.667, 0.667, 0.667, 0.667]
      },
      //Water
      "Element_Water": {
        "type": "default",
        "damageRatio": [1, 1, 0.4, 1, 1, 1, 1, 1]
      },
      //Ice
      "Element_Ice": {
        "type": "default",
        "damageRatio": [1, 1, 1, 1, 0.4, 1, 1, 1]
      },
      //Electric
      "Element_Electric": {
        "type": "default",
        "damageRatio": [1, 1, 1, 1, 1, 0.4, 1, 1]
      },
      //Fire
      "Element_Fire": {
        "type": "default",
        "damageRatio": [1, 0.4, 1, 1, 1, 1, 1, 1]
      },
      //Rock
      "Element_Rock": {
        "type": "default",
        "damageRatio": [0.667, 0.667, 0.667, 0.667, 0.667, 0.667, 0.667, 0.667]
      }
    }
  },
  "globalSwitch": {
    "enableMultiPlayer": true,
    "enableAnimatorInterleave": true,
    "enableMixinModifierDetachCallback": true,
    "enablePacketProcessTimeLimit": true,
    "enableForceSyncPostion": true,
    "maxForceDistance": 5.0
  },
  "elemUI": {
    "showIconEntityTypes": ["Monster", "Gadget", "Partner"],
    "showReactionEntityTypes": ["Avatar", "Monster", "Partner"],
    "iconRecoverTime": 0.5,
    "iconDisappearTime": 2.0,
    "iconDisappearRound": 2,
    "iconShowDistance": 24,
    "overrideElemPath": {
      "Burning": "ART/UI/Menus/Widget/InLevel/Billboard/EffElemReaction/Eff_KeepBurning",
      "Frozen": "ART/UI/Menus/Widget/InLevel/Billboard/EffElemReaction/Eff_KeepFrozen",
      "Overdose": "ART/UI/Menus/Widget/InLevel/Billboard/EffElemReaction/Eff_KeepOverdose"
    },
    "reactionElemPath": {
      "Burning": "ART/UI/Menus/Widget/InLevel/Billboard/EffElemReaction/Burning",
      "Explode": "ART/UI/Menus/Widget/InLevel/Billboard/EffElemReaction/Explode",
      "Freeze": "ART/UI/Menus/Widget/InLevel/Billboard/EffElemReaction/Freeze",
      "Melt": "ART/UI/Menus/Widget/InLevel/Billboard/EffElemReaction/Melt",
      "Shock": "ART/UI/Menus/Widget/InLevel/Billboard/EffElemReaction/Shock",
      "Stream": "ART/UI/Menus/Widget/InLevel/Billboard/EffElemReaction/Stream",
      "Superconductor": "ART/UI/Menus/Widget/InLevel/Billboard/EffElemReaction/Superconductor",
      "SwirlElectric": "ART/UI/Menus/Widget/InLevel/Billboard/EffElemReaction/SwirlElectric",
      "SwirlFire": "ART/UI/Menus/Widget/InLevel/Billboard/EffElemReaction/SwirlFire",
      "SwirlIce": "ART/UI/Menus/Widget/InLevel/Billboard/EffElemReaction/SwirlIce",
      "SwirlWater": "ART/UI/Menus/Widget/InLevel/Billboard/EffElemReaction/SwirlWater",
      "CrystallizeFire": "ART/UI/Menus/Widget/InLevel/Billboard/EffElemReaction/CrystallizeFire",
      "CrystallizeWater": "ART/UI/Menus/Widget/InLevel/Billboard/EffElemReaction/CrystallizeWater",
      "CrystallizeElectric": "ART/UI/Menus/Widget/InLevel/Billboard/EffElemReaction/CrystallizeElectric",
      "CrystallizeIce": "ART/UI/Menus/Widget/InLevel/Billboard/EffElemReaction/CrystallizeIce",
      "Overgrow": "ART/UI/Menus/Widget/InLevel/Billboard/EffElemReaction/Overgrow",
      "Overdose": "ART/UI/Menus/Widget/InLevel/Billboard/EffElemReaction/Overdose"
      // "OverdoseElectric": "ART/UI/Menus/Widget/InLevel/Billboard/EffElemReaction/Overdose",//临时用一下
      // "OverdoseGrass": "ART/UI/Menus/Widget/InLevel/Billboard/EffElemReaction/Overdose",//临时用一下
    }
  },
  "rejectElementReaction": {
    "ElementFreeze": ["Stream", "Wet", "Shock", "SwirlWater", "Fire"],
    "ElementFrozen": ["Stream", "Wet", "Shock", "SwirlWater", "Fire"]
  },
  "gadgetCreationLimits": [
    {
      "tag": "Rock",
      "gadgetIDs": [
        41005004, //岩主角
        41027000, //凝光
        41030002, //钟离
        41038001, //阿贝多
        41057003 //荒泷一斗
      ],
      "maxValue": 3
    },
    {
      "tag": "Klee_Mine",
      "gadgetIDs": [41029007],
      "maxValue": 8
    },
    {
      "tag": "Aloy_Mine",
      "gadgetIDs": [41062021],
      "maxValue": 6
    },
    //八重神子塔的数量限制
    {
      "tag": "Yae_FoxTower",
      "gadgetIDs": [41058008],
      "maxValue": 3
    },
    //多莉大招的数量限制
    {
      "tag": "Dori_ElementalBurst",
      "gadgetIDs": [41068001],
      "maxValue": 1
    },
    {
      "tag": "CrystalSeed",
      "gadgetIDs": [70900344, 70900345, 70900346, 70900347],
      "maxValue": 3
    },
    {
      "tag": "HideSeek_GuideGadget",
      "gadgetIDs": [
        44000106 //捉迷藏引导
      ],
      "maxValue": 9
    },
    //蔓生反应创生物数量上限
    {
      "tag": "OvergrowMushRoomSeed",
      "gadgetIDs": [70900396, 70900442],
      "maxValue": 5
    },
    //草原核数量上限
    {
      "tag": "OvergrowSeed",
      "gadgetIDs": [70900397, 70900443],
      "maxValue": 5
    },
    {
      "tag": "Monster_Drake_Primo_Rock_ScaleGadget",
      "gadgetIDs": [42605019, 42605020, 42605021, 42605022],
      "maxValue": 15
    }
  ],
  "MushroomConfigIDList": [70900397, 70900443],
  "overgrowEnvironmentLimit": {
    "modifierList": [
      "WaterAreaWaterModifier",
      "LightRainModifier",
      "HeavyRainModifier"
    ],
    "cd": 1
  },
  "lampOffset": [
    {
      "x": 0,
      "y": 0.3,
      "z": 1.5
    },
    {
      "x": 1.2,
      "y": 0.1,
      "z": 1.3
    },
    {
      "x": -1.2,
      "y": 0,
      "z": 1.3
    },
    {
      "x": 0.8,
      "y": 0.2,
      "z": 2.4
    },
    {
      "x": -0.8,
      "y": 0,
      "z": 2.4
    },
    {
      "x": 1.9,
      "y": 0.1,
      "z": 2.0
    },
    {
      "x": -1.9,
      "y": 0,
      "z": 2.0
    },
    {
      "x": 0,
      "y": 0.3,
      "z": 3.0
    },
    {
      "x": 0.9,
      "y": 0,
      "z": 3.6
    },
    {
      "x": -0.9,
      "y": 0.4,
      "z": 3.6
    },
    {
      "x": 1.8,
      "y": 0.2,
      "z": 3.0
    },
    {
      "x": -1.8,
      "y": 0.1,
      "z": 3.0
    }
  ],
  "globalInteraction": {
    "talkEnableAngle": 180.0,
    "headCtrlEnableAngle": 95,
    "headCtrlDisableAngle": 135
  },
  "tempComponentBudget": {
    "268496896": 4.5, //MoleMole.HumanoidMoveFSM,0x1000F000
    "16801792": 1.5, //MoleMole.LCAIBeta,0x01006000
    "69654": 1.2, //MoleMole.VCPlatformMove,0x00011016
    "94208": 0.8, //MoleMole.VCCameraCharacterAmbientSensors,0x00017000
    "8192": 0.7, //MoleMole.VCAnimatorEvent,0x00002000
    "268599301": 0.7, //MoleMole.LevelSceneWaterPlugin,0x10028005
    "268554240": 0.6, //MoleMole.LevelSceneColliderChangePlugin,0x1001D000
    "268517376": 0.6, //MoleMole.LevelChangeAvatarPlugin,0x10014000
    "16818176": 0.6, //MoleMole.LCAvatarAutoPickup,0x0100A000
    "16805888": 0.6, //MoleMole.LCAIManager,0x01007000
    "69635": 0.5, //MoleMole.VCFollowMove,0x00011003
    "16928768": 0.5, //MoleMole.LCSelectPickup,0x01025000
    "106496": 0.4, //MoleMole.VCCharacterRendering,0x0001A000
    "268443649": 0.3, //MoleMole.MPActorAbilityPlugin,0x10002001
    "49153": 0.3, //MoleMole.VCAvatarEquipController,0x0000C001
    "73729": 0.3, //MoleMole.VCAvatarPerform,0x00012001
    "65542": 0.3, //MoleMole.VCAvatarModel,0x00010006
    "268599299": 0.3, //MoleMole.LevelSceneGrassPlugin,0x10028003
    "20480": 0.3, //MoleMole.VCAvatarFocus,0x00005000
    "53252": 0.3, //MoleMole.VCAvatarHeadController,0x0000D004
    "268582912": 0.3, //MoleMole.LevelSceneIcePlugin,0x10024000
    "16826374": 0.2, //MoleMole.LCMonsterCombat,0x0100C006
    "16826370": 0.2, //MoleMole.LCGadgetCombat,0x0100C002
    "268455951": 0.2, //MoleMole.AudioAvatarMovePlugin,0x1000500F
    "268455949": 0.2, //MoleMole.AudioWeatherPlugin,0x1000500D
    "16834561": 0.2, //MoleMole.LCBaseInter,0x0100E001
    "268550144": 0.2, //MoleMole.LevelSceneAirflowFieldPlugin,0x1001C000
    "65537": 0.2, //MoleMole.VCEquipModel,0x00010001
    "53255": 0.2, //MoleMole.VCMonsterHeadController,0x0000D007
    "86016": 0.2, //MoleMole.VCBillboard,0x00015000
    "268705793": 0.2, //MoleMole.VCCombatBillboardPlugin,0x10042001
    "16826371": 0.2, //MoleMole.LCAvatarCombat,0x0100C003
    "268623872": 0.2, //MoleMole.LevelSceneSurfacePlugin,0x1002E000
    "268472321": 0.2, //MoleMole.HumanoidMoveEffectPlugin,0x10009001
    "268685312": 0.1, //MoleMole.ShaderLerpPlugin,0x1003D000
    "268455957": 0.1, //MoleMole.AudioMonsterMovePlugin,0x10005015
    "77829": 0.1, //MoleMole.VCGroupAutoPickable,0x00013005
    "268455945": 0.1, //MoleMole.AudioPatrollerPlugin,0x10005009
    "16785408": 0.1, //MoleMole.LCAbilityElement,0x01002000
    "49154": 0.1, //MoleMole.VCMonsterEquipController,0x0000C002
    "268476418": 0.1, //MoleMole.HumanoidMoveSyncPlugin,0x1000A002
    "81923": 0.1, //MoleMole.VCEquipSetDitherValue,0x00014003
    "81925": 0.1, //MoleMole.VCMonsterSetDitherValue,0x00014005
    "16826376": 0.1, //MoleMole.LCScenePropCombat,0x0100C008
    "268476417": 0.1, //MoleMole.AnimatorMoveSyncPlugin,0x1000A001
    "229376": 0.1, //MoleMole.VCSyncAnimator,0x00038000
    "268455944": 0.1, //MoleMole.AudioMusicStatePlugin,0x10005008
    "268681216": 0.1, //MoleMole.PushColliderPlugin,0x1003C000
    "268484608": 0.1, //MoleMole.CollisionPlugin,0x1000C000
    "16957440": 0.1, //MoleMole.LCTimer,0x0102C000
    "69661": 0.1, //MoleMole.VCWindmillMove,0x0001101D
    "268455958": 0.1, //MoleMole.AudioNpcMovePlugin,0x10005016
    "40964": 0.1, //MoleMole.VCAvatarCombat,0x0000A004
    "81920": 0.1, //MoleMole.VCBaseSetDitherValue,0x00014000
    "131072": 0.1, //MoleMole.VCFaceAnimation,0x00020000
    "77826": 0.1, //MoleMole.VCAutoPickable,0x00013002
    "69634": 0.1, //MoleMole.VCBulletMove,0x00011002
    "16838657": 0.1, //MoleMole.LCRadarHint,0x0100F001
    "16871425": 0.1, //MoleMole.LCEquip,0x01017001
    "268451840": 0.1, //MoleMole.AimWalkPlugin,0x10004000
    "16859137": 0.1, //MoleMole.LCAirflowField,0x01014001
    "40966": 0.1, //MoleMole.VCMonsterCombat,0x0000A006
    "16830466": 0.1, //MoleMole.LCMonsterEquipController,0x0100D002
    "268562432": 0.1, //MoleMole.LevelSceneDebugPlugin,0x1001F000
    "16797698": 0.1, //MoleMole.LCActorTrigger,0x01005002
    "268455961": 0.1, //MoleMole.AudioTeamVoiceStreamPlugin,0x10005019
    "53256": 0.1, //MoleMole.VCNpcHeadController,0x0000D008
    "57347": 0.1, //MoleMole.VCMonsterAIController,0x0000E003
    "16875520": 0.1, //MoleMole.LCLevel,0x01018000
    "16859141": 0.1, //MoleMole.LCRiseField,0x01014005
    "16904192": 0.1, //MoleMole.LCPose,0x0101F000
    "200704": 0.1, //MoleMole.VCPartController,0x00031000
    "57346": 0.1, //MoleMole.VCLocalInputController,0x0000E002
    "268599297": 0.1, //MoleMole.LevelSceneBushPlugin,0x10028001
    "45056": 0.1, //MoleMole.VCBaseEmotion,0x0000B000
    "77827": 0.1, //MoleMole.VCNormalPickable,0x00013003
    "16945152": 0.1 //MoleMole.LCTalent,0x01029000
  },
  "abilityStateTriggerAbilities": {
    "ElementPetrifaction": "ElementAbility_Petrifaction",
    "ElementDeadTime": "ElementAbility_DeadTime"
  },
  "elementDecrateGroup": {
    "default": [
      {
        "elem1": "Water",
        "elem2": "Fire",
        "ratio": 2
      },
      {
        "elem1": "Ice",
        "elem2": "Fire",
        "ratio": 0.5
      },
      {
        "elem1": "Frozen",
        "elem2": "Fire",
        "ratio": 0.5
      },

      {
        "elem1": "Wind",
        "elem2": "Fire",
        "ratio": 0.5
      },
      {
        "elem1": "Wind",
        "elem2": "Water",
        "ratio": 0.5
      },
      {
        "elem1": "Wind",
        "elem2": "Electric",
        "ratio": 0.5
      },
      {
        "elem1": "Wind",
        "elem2": "Ice",
        "ratio": 0.5
      },
      {
        "elem1": "Wind",
        "elem2": "Frozen",
        "ratio": 0.5
      },

      {
        "elem1": "Rock",
        "elem2": "Fire",
        "ratio": 0.5
      },
      {
        "elem1": "Rock",
        "elem2": "Water",
        "ratio": 0.5
      },
      {
        "elem1": "Rock",
        "elem2": "Electric",
        "ratio": 0.5
      },
      {
        "elem1": "Rock",
        "elem2": "Ice",
        "ratio": 0.5
      },
      {
        "elem1": "Rock",
        "elem2": "Frozen",
        "ratio": 0.5
      },
      {
        "elem1": "Grass",
        "elem2": "Water",
        "ratio": 2
      },
      {
        "elem1": "Overdose",
        "elem2": "Water",
        "ratio": 2
      }
    ],
    "Monster_SingleElement_Method_Water": [
      {
        "elem1": "Water",
        "elem2": "Rock",
        "ratio": 20
      },
      {
        "elem1": "Water",
        "elem2": "Fire",
        "ratio": 20
      },
      {
        "elem1": "Water",
        "elem2": "Electric",
        "ratio": 0.5
      },
      {
        "elem1": "Water",
        "elem2": "Wind",
        "ratio": 20
      },
      {
        "elem1": "Water",
        "elem2": "Grass",
        "ratio": 20
      },
      {
        "elem1": "Water",
        "elem2": "Ice",
        "ratio": 20
      },
      {
        "elem1": "Water",
        "elem2": "Frozen",
        "ratio": 20
      }
    ],
    "Monster_SingleElement_Method_Ice": [
      {
        "elem1": "Ice",
        "elem2": "Rock",
        "ratio": 10
      },
      {
        "elem1": "Ice",
        "elem2": "Fire",
        "ratio": 0.5
      },
      {
        "elem1": "Ice",
        "elem2": "Water",
        "ratio": 10
      },
      {
        "elem1": "Ice",
        "elem2": "Wind",
        "ratio": 10
      },
      {
        "elem1": "Ice",
        "elem2": "Grass",
        "ratio": 10
      },
      {
        "elem1": "Ice",
        "elem2": "Electric",
        "ratio": 10
      }
    ],
    "Monster_SingleElement_Method_Frozen": [
      {
        "elem1": "Frozen",
        "elem2": "Rock",
        "ratio": 10
      },
      {
        "elem1": "Frozen",
        "elem2": "Fire",
        "ratio": 0.5
      },
      {
        "elem1": "Frozen",
        "elem2": "Wind",
        "ratio": 10
      },
      {
        "elem1": "Frozen",
        "elem2": "Grass",
        "ratio": 10
      },
      {
        "elem1": "Frozen",
        "elem2": "Electric",
        "ratio": 10
      }
    ],
    "Monster_SingleElement_Method_Electric": [
      {
        "elem1": "Electric",
        "elem2": "Rock",
        "ratio": 10
      },
      {
        "elem1": "Electric",
        "elem2": "Ice",
        "ratio": 0.5
      },
      {
        "elem1": "Electric",
        "elem2": "Water",
        "ratio": 10
      },
      {
        "elem1": "Electric",
        "elem2": "Wind",
        "ratio": 10
      },
      {
        "elem1": "Electric",
        "elem2": "Frozen",
        "ratio": 0.5
      },
      {
        "elem1": "Electric",
        "elem2": "Grass",
        "ratio": 10
      },
      {
        "elem1": "Electric",
        "elem2": "Fire",
        "ratio": 10
      }
    ],
    "Monster_SingleElement_Method_Fire": [
      {
        "elem1": "Fire",
        "elem2": "Rock",
        "ratio": 10
      },
      {
        "elem1": "Fire",
        "elem2": "Ice",
        "ratio": 10
      },
      {
        "elem1": "Fire",
        "elem2": "Electric",
        "ratio": 10
      },
      {
        "elem1": "Fire",
        "elem2": "Wind",
        "ratio": 10
      },
      {
        "elem1": "Fire",
        "elem2": "Frozen",
        "ratio": 10
      },
      {
        "elem1": "Fire",
        "elem2": "Grass",
        "ratio": 10
      },
      {
        "elem1": "Fire",
        "elem2": "Water",
        "ratio": 0.5
      }
    ],
    "Animal_Boar_03_OnlyFireUseful": [
      {
        "elem1": "Ice",
        "elem2": "Electric",
        "ratio": 999
      },
      {
        "elem1": "Ice",
        "elem2": "Rock",
        "ratio": 999
      },
      {
        "elem1": "Ice",
        "elem2": "Grass",
        "ratio": 999
      },
      {
        "elem1": "Ice",
        "elem2": "Water",
        "ratio": 999
      },
      {
        "elem1": "Ice",
        "elem2": "Wind",
        "ratio": 999
      },
      {
        "elem1": "Ice",
        "elem2": "Frozen",
        "ratio": 999
      }
    ],
    "ThreeStateGrass": [
      {
        "elem1": "Electric",
        "elem2": "Grass",
        "ratio": 0.01
      }
    ]
  },
  "sliceFrameWatch": {
    "amortizedTickMassiveEntityBudget": 0.2,
    "sharedSliceFrameGameSystemTime": 4,
    "resourcesManagerAssetJobMaxTime": 2,
    "resourcesManagerInstantiateMaxTime": 2,
    "resourcesManagerUnloadMinTime": 1,
    "resourcesManagerUnloadMaxTime": 2,
    "resourcesManagerInstantiateJobTime": 0.5,
    "levelAppearDisappearTimeMSDefault": 1.0,
    "levelAppearDisappearWRRWeight": 2,
    "InitComponentCommonSlicingTimeDefault": 1.0,
    "removeEntityTimeMSDefault": 1.0,
    "removeEnityWRRWeight": 1,
    "sectrWRRWeightDefault": 3,
    "timerManagerTimeMS": 1.0,
    "UseLegacyGenericObjectPool": false,
    "significanceTaskThreadLOD": 0,
    "bundleDowloadUseOldWay": true
  },
  "ik": {
    "remoteMoveIK": {
      "pc": true,
      "editor": true
    },
    "remoteClimbIK": {
      "pc": true,
      "editor": true
    }
  },
  "avatarEquipSizeDatas": {
    //BODY_BOY 少男
    "1": [
      {
        "equipType": "SwordOneHand",
        "putAwaySize": 1,
        "takeOutSize": 1.1
      },
      {
        "equipType": "Claymore",
        "putAwaySize": 1,
        "takeOutSize": 1
      },
      {
        "equipType": "Pole",
        "putAwaySize": 1,
        "takeOutSize": 1
      },
      {
        "equipType": "Bow",
        "putAwaySize": 1,
        "takeOutSize": 1
      },
      {
        "equipType": "Catalyst",
        "putAwaySize": 0.6,
        "takeOutSize": 0.65
      }
    ],
    //BODY_GIRL 少女
    "2": [
      {
        "equipType": "SwordOneHand",
        "putAwaySize": 1,
        "takeOutSize": 1.05
      },
      {
        "equipType": "Catalyst",
        "putAwaySize": 0.55,
        "takeOutSize": 0.6
      },
      {
        "equipType": "Bow",
        "putAwaySize": 1,
        "takeOutSize": 1
      },
      {
        "equipType": "Pole",
        "putAwaySize": 0.9,
        "takeOutSize": 0.9
      },
      {
        "equipType": "Claymore",
        "putAwaySize": 0.96,
        "takeOutSize": 0.96
      }
    ],
    //BODY_LADY 成女
    "3": [
      {
        "equipType": "SwordOneHand",
        "putAwaySize": 1.15,
        "takeOutSize": 1.15
      },
      {
        "equipType": "Catalyst",
        "putAwaySize": 0.6,
        "takeOutSize": 0.75
      },
      {
        "equipType": "Claymore",
        "putAwaySize": 1,
        "takeOutSize": 1
      },
      {
        "equipType": "Pole",
        "putAwaySize": 0.95,
        "takeOutSize": 0.95
      },
      {
        "equipType": "Bow",
        "putAwaySize": 1,
        "takeOutSize": 1.1
      }
    ],
    //BODY_MALE 成男
    "4": [
      {
        "equipType": "SwordOneHand",
        "putAwaySize": 1.25,
        "takeOutSize": 1.25
      },
      {
        "equipType": "Claymore",
        "putAwaySize": 1,
        "takeOutSize": 1.1
      },
      {
        "equipType": "Pole",
        "putAwaySize": 1.2,
        "takeOutSize": 1.2
      },
      {
        "equipType": "Bow",
        "putAwaySize": 1,
        "takeOutSize": 1.1
      },
      {
        "equipType": "Catalyst",
        "putAwaySize": 0.6,
        "takeOutSize": 0.75
      }
    ],
    //BODY_LOLI 萝莉
    "5": [
      {
        "equipType": "Catalyst",
        "putAwaySize": 0.5,
        "takeOutSize": 0.55
      },
      {
        "equipType": "SwordOneHand",
        "putAwaySize": 0.8,
        "takeOutSize": 0.95
      },
      {
        "equipType": "Bow",
        "putAwaySize": 0.8,
        "takeOutSize": 0.9
      },
      {
        "equipType": "Claymore",
        "putAwaySize": 0.8,
        "takeOutSize": 0.8
      },
      {
        "equipType": "Pole",
        "putAwaySize": 0.95,
        "takeOutSize": 0.95
      }
    ]
  },
  "manekinEquipSizeDatas": {
    //BODY_BOY 少男
    "1": [
      {
        "equipType": "SwordOneHand",
        "putAwaySize": 1,
        "takeOutSize": 1.15
      },
      {
        "equipType": "Claymore",
        "putAwaySize": 1,
        "takeOutSize": 0.95
      },
      {
        "equipType": "Pole",
        "putAwaySize": 1,
        "takeOutSize": 1
      },
      {
        "equipType": "Bow",
        "putAwaySize": 1,
        "takeOutSize": 1
      },
      {
        "equipType": "Catalyst",
        "putAwaySize": 0.55,
        "takeOutSize": 0.6
      }
    ],
    //BODY_GIRL 少女
    "2": [
      {
        "equipType": "SwordOneHand",
        "putAwaySize": 1.15,
        "takeOutSize": 1.15
      },
      {
        "equipType": "Catalyst",
        "putAwaySize": 0.6,
        "takeOutSize": 0.6
      },
      {
        "equipType": "Bow",
        "putAwaySize": 1,
        "takeOutSize": 1
      },
      {
        "equipType": "Pole",
        "putAwaySize": 0.9,
        "takeOutSize": 1
      },
      {
        "equipType": "Claymore",
        "putAwaySize": 0.9,
        "takeOutSize": 0.9
      }
    ],
    //BODY_LADY 成女
    "3": [
      {
        "equipType": "SwordOneHand",
        "putAwaySize": 1.15,
        "takeOutSize": 1.15
      },
      {
        "equipType": "Catalyst",
        "putAwaySize": 0.6,
        "takeOutSize": 0.75
      },
      {
        "equipType": "Claymore",
        "putAwaySize": 1,
        "takeOutSize": 1
      },
      {
        "equipType": "Pole",
        "putAwaySize": 1,
        "takeOutSize": 1
      },
      {
        "equipType": "Bow",
        "putAwaySize": 1.1,
        "takeOutSize": 1.1
      }
    ],
    //BODY_MALE 成男
    "4": [
      {
        "equipType": "SwordOneHand",
        "putAwaySize": 1.25,
        "takeOutSize": 1.25
      },
      {
        "equipType": "Claymore",
        "putAwaySize": 1,
        "takeOutSize": 1
      },
      {
        "equipType": "Pole",
        "putAwaySize": 1.2,
        "takeOutSize": 1.2
      },
      {
        "equipType": "Bow",
        "putAwaySize": 1.1,
        "takeOutSize": 1.1
      },
      {
        "equipType": "Catalyst",
        "putAwaySize": 0.6,
        "takeOutSize": 0.75
      }
    ],
    //BODY_LOLI 萝莉
    "5": [
      {
        "equipType": "Catalyst",
        "putAwaySize": 0.65,
        "takeOutSize": 0.55
      },
      {
        "equipType": "SwordOneHand",
        "putAwaySize": 0.8,
        "takeOutSize": 0.95
      },
      {
        "equipType": "Bow",
        "putAwaySize": 0.8,
        "takeOutSize": 0.9
      },
      {
        "equipType": "Claymore",
        "putAwaySize": 0.9,
        "takeOutSize": 0.9
      },
      {
        "equipType": "Pole",
        "putAwaySize": 1.2,
        "takeOutSize": 1.2
      }
    ]
  },
  "tdPlay": {
    "attackSpeed_C": 0.1,
    "towerDatas": {
      "Fire": {
        "towerType": "Fire",
        "damagePerLevel": 0,
        "damage_A_PerStack": 0.5,
        "damage_B_PerStack": 1.5,
        "attackSpeed_A": 0.1,
        "attackSpeed_B": 0.25,
        "attackRange_A": 0.25,
        "attackRange_B": 0.5,
        "elemMasteryPerLevel": 50,
        "elemMasteryPerPerStack": 100
      },
      "Water": {
        "towerType": "Water",
        "damagePerLevel": 0,
        "damage_A_PerStack": 0.75,
        "damage_B_PerStack": 1.5,
        "attackSpeed_A": 0.1,
        "attackSpeed_B": 0.25,
        "attackRange_A": 0,
        "attackRange_B": 0,
        "elemMasteryPerLevel": 50,
        "elemMasteryPerPerStack": 100
      },
      "Ice": {
        "towerType": "Ice",
        "damagePerLevel": 0,
        "damage_A_PerStack": 0.75,
        "damage_B_PerStack": 1.5,
        "attackSpeed_A": 0.1,
        "attackSpeed_B": 0.25,
        "attackRange_A": 0.4,
        "attackRange_B": 0.7,
        "elemMasteryPerLevel": 50,
        "elemMasteryPerPerStack": 100
      },
      "Wind": {
        "towerType": "Wind",
        "damagePerLevel": 0,
        "damage_A_PerStack": 0.75,
        "damage_B_PerStack": 1.5,
        "attackSpeed_A": 0.1,
        "attackSpeed_B": 0.25,
        "attackRange_A": 0,
        "attackRange_B": 0,
        "elemMasteryPerLevel": 50,
        "elemMasteryPerPerStack": 100
      },
      "Electric": {
        "towerType": "Electric",
        "damagePerLevel": 0,
        "damage_A_PerStack": 0.5,
        "damage_B_PerStack": 1.5,
        "attackSpeed_A": 0.1,
        "attackSpeed_B": 0.25,
        "attackRange_A": 0.4,
        "attackRange_B": 0.7,
        "elemMasteryPerLevel": 50,
        "elemMasteryPerPerStack": 100
      },
      "Simple": {
        "towerType": "Simple",
        "damagePerLevel": 0,
        "damage_A_PerStack": 0.5,
        "damage_B_PerStack": 1.5,
        "attackSpeed_A": 0.1,
        "attackSpeed_B": 0.25,
        "attackRange_A": 0.4,
        "attackRange_B": 0.7,
        "elemMasteryPerLevel": 50
      },
      "Mine": {
        "towerType": "Mine",
        "damagePerLevel": 0,
        "damage_A_PerStack": 0,
        "damage_B_PerStack": 0,
        "attackSpeed_A": 0,
        "attackSpeed_B": 0,
        "attackRange_A": 0,
        "attackRange_B": 0,
        "elemMasteryPerLevel": 50
      }
    }
  },
  "elementConvertToChargeBarValueMixinItemGroup": {
    "default": [
      {
        "elementType": "None",
        "ratio": 1
      }
    ],
    "RoleElectricBomb": [
      {
        "elementType": "Electric",
        "ratio": 0.4
      }
    ],
    //2.2活动 挖掘桩
    "ElectricDigger": [
      {
        "elementType": "Electric",
        "ratio": 10
      }
    ],
    "Monster_Hound_Planelurker_DarkHoundGadget": [
      {
        "elementType": "Rock",
        "ratio": 1
      }
    ],
    "Monster_Shougun_Mitakenarukami_SakuraBall": [
      {
        "elementType": "Electric",
        "ratio": 1
      }
    ]
  },
  "chargeBarMixinGlobalValueKey": "_CHARGEBAR_VALUE",
  "battleFervorFormula": {
    "battleFervorMinValue": 0,
    "battleFervorMaxValue": 100,
    "battleFervorBaseValue": 0,
    "lerpInterval": 0.5,
    "lerpCoefficient": 0.3,
    "groups": [
      // 基础情绪因子组
      {
        "$type": "ConfigBattleFervorGroup",
        "weight": 1.0,
        "factors": [
          // 玩家侧
          {
            "$type": "ConfigBattleFervorFactor_ByTrigger",
            "factorMinValue": 0,
            "factorMaxValue": 60,
            "factorInitValue": 0,
            "triggers": [
              // 随时间衰减
              {
                "$type": "ConfigBattleFervorUpateTrigger_ByTick",
                "predicates": [
                  {
                    "$type": "ConfigBattleFervorUpdatePredicate_FactorRange",
                    "min": 0,
                    "max": 10
                  }
                ],
                "deltaValue": -1.0
              },
              {
                "$type": "ConfigBattleFervorUpateTrigger_ByTick",
                "predicates": [
                  {
                    "$type": "ConfigBattleFervorUpdatePredicate_FactorRange",
                    "min": 10,
                    "max": 35
                  }
                ],
                "deltaValue": -2.5
              },
              {
                "$type": "ConfigBattleFervorUpateTrigger_ByTick",
                "predicates": [
                  {
                    "$type": "ConfigBattleFervorUpdatePredicate_FactorRange",
                    "min": 35,
                    "max": 60
                  }
                ],
                "deltaValue": -5.0
              },
              // 普攻
              {
                "$type": "ConfigBattleFervorUpdateTrigger_ByAttackTag",
                "predicates": [
                  {
                    "$type": "ConfigBattleFervorUpdatePredicate_LocalAvatarInBattle"
                  }
                ],
                "attackTags": [
                  "NormalAttack_01",
                  "NormalAttack_02",
                  "NormalAttack_03",
                  "NormalAttack_04",
                  "NormalAttack_05",
                  "NormalAttack_06"
                ],
                "cd": 0.5,
                "deltaValue": 1.0
              },
              // 重击
              {
                "$type": "ConfigBattleFervorUpdateTrigger_ByAttackTag",
                "predicates": [
                  {
                    "$type": "ConfigBattleFervorUpdatePredicate_LocalAvatarInBattle"
                  }
                ],
                "attackTags": ["ExtraAttack"],
                "cd": 0.5,
                "deltaValue": 1.5
              },
              // 下落攻击
              {
                "$type": "ConfigBattleFervorUpdateTrigger_ByAttackTag",
                "predicates": [
                  {
                    "$type": "ConfigBattleFervorUpdatePredicate_LocalAvatarInBattle"
                  }
                ],
                "attackTags": ["FallingAttack"],
                "cd": 1,
                "deltaValue": 3.0
              },
              // 元素战技
              {
                "$type": "ConfigBattleFervorUpdateTrigger_ByElementArt",
                "predicates": [
                  {
                    "$type": "ConfigBattleFervorUpdatePredicate_LocalAvatarInBattle"
                  }
                ],
                "cd": 3.0,
                "deltaValue": 5.0
              },
              // 元素爆发
              {
                "$type": "ConfigBattleFervorUpdateTrigger_ByElementBurst",
                "predicates": [
                  {
                    "$type": "ConfigBattleFervorUpdatePredicate_LocalAvatarInBattle"
                  }
                ],
                "cd": 5.0,
                "deltaValue": 15.0
              }
            ]
          },
          // 怪物侧
          {
            "$type": "ConfigBattleFervorFactor_ByMonster",
            "factorMinValue": 0,
            "factorMaxValue": 40,
            "factorInitValue": 0,
            "triggers": [
              // combatBGMLevel = 1
              {
                "$type": "ConfigBattleFervorUpdateTrigger_ByMonster",
                "predicates": [
                  {
                    "$type": "ConfigBattleFervorUpdatePredicate_LocalAvatarInBattle"
                  }
                ],
                "combatBGMLevel": 1,
                "deltaValue": 2
              },
              // combatBGMLevel = 2
              {
                "$type": "ConfigBattleFervorUpdateTrigger_ByMonster",
                "predicates": [
                  {
                    "$type": "ConfigBattleFervorUpdatePredicate_LocalAvatarInBattle"
                  }
                ],
                "combatBGMLevel": 2,
                "deltaValue": 6
              },
              // combatBGMLevel = 3
              {
                "$type": "ConfigBattleFervorUpdateTrigger_ByMonster",
                "predicates": [
                  {
                    "$type": "ConfigBattleFervorUpdatePredicate_LocalAvatarInBattle"
                  }
                ],
                "combatBGMLevel": 3,
                "deltaValue": 8
              },
              // combatBGMLevel = 4
              {
                "$type": "ConfigBattleFervorUpdateTrigger_ByMonster",
                "predicates": [
                  {
                    "$type": "ConfigBattleFervorUpdatePredicate_LocalAvatarInBattle"
                  }
                ],
                "combatBGMLevel": 4,
                "deltaValue": 10
              },
              // combatBGMLevel = 5
              {
                "$type": "ConfigBattleFervorUpdateTrigger_ByMonster",
                "predicates": [
                  {
                    "$type": "ConfigBattleFervorUpdatePredicate_LocalAvatarInBattle"
                  }
                ],
                "combatBGMLevel": 5,
                "deltaValue": 12
              },
              // combatBGMLevel = 6
              {
                "$type": "ConfigBattleFervorUpdateTrigger_ByMonster",
                "predicates": [
                  {
                    "$type": "ConfigBattleFervorUpdatePredicate_LocalAvatarInBattle"
                  }
                ],
                "combatBGMLevel": 6,
                "deltaValue": 15
              },
              // combatBGMLevel = 7
              {
                "$type": "ConfigBattleFervorUpdateTrigger_ByMonster",
                "predicates": [
                  {
                    "$type": "ConfigBattleFervorUpdatePredicate_LocalAvatarInBattle"
                  }
                ],
                "combatBGMLevel": 7,
                "deltaValue": 25
              },
              // combatBGMLevel = 8
              {
                "$type": "ConfigBattleFervorUpdateTrigger_ByMonster",
                "predicates": [
                  {
                    "$type": "ConfigBattleFervorUpdatePredicate_LocalAvatarInBattle"
                  }
                ],
                "combatBGMLevel": 8,
                "deltaValue": 40
              },
              // combatBGMLevel = 9
              {
                "$type": "ConfigBattleFervorUpdateTrigger_ByMonster",
                "predicates": [
                  {
                    "$type": "ConfigBattleFervorUpdatePredicate_LocalAvatarInBattle"
                  }
                ],
                "combatBGMLevel": 9,
                "deltaValue": 40
              }
            ]
          }
        ]
      }
    ]
  },
  "combatTemplate": {
    "default": {
      "property": {
        "HP": 100,
        "attack": 0,
        "defense": 0,
        "isLockHP": true,
        "isGhostToEnemy": true,
        "isGhostToAllied": true,
        "canTriggerBullet": true
      },
      "beHit": {
        "hitBloodEffect": "",
        "hitAutoRedirect": false,
        "muteAllHit": false,
        "muteAllHitEffect": false,
        "muteAllHitText": true
      },
      "combatLock": {
        "denyLockOn": true
      }
    },

    "canBeLockOn": {
      "property": {
        "HP": 100,
        "attack": 0,
        "defense": 0,
        "isLockHP": true,
        "isGhostToEnemy": false,
        "isGhostToAllied": true,
        "canTriggerBullet": true
      },
      "beHit": {
        "hitBloodEffect": "",
        "hitAutoRedirect": false,
        "muteAllHit": false,
        "muteAllHitEffect": false,
        "muteAllHitText": true
      },
      "combatLock": {
        "denyLockOn": false,
        "lockType": "Gadget_Lv1"
      }
    },

    "canBeAttacked": {
      "property": {
        "HP": 100,
        "attack": 0,
        "defense": 0,
        "isLockHP": true,
        "isGhostToEnemy": false,
        "isGhostToAllied": true,
        "canTriggerBullet": true
      },
      "beHit": {
        "hitBloodEffect": "",
        "hitAutoRedirect": false,
        "muteAllHit": false,
        "muteAllHitEffect": false,
        "muteAllHitText": true
      },
      "combatLock": {
        "denyLockOn": true,
        "lockType": "Gadget_Lv1"
      }
    }
  },
  "mixinCheckModifierWhiteList": {
    "abilityList": [
      "SceneObj_Area_Common_Property_Prop_BlowingStone_01",
      "SceneObj_Area_Hd_Property_Ani_Prop_DreamPlatform_01",
      "SceneObj_LostParadise_Common_Property_Ani_Prop_CloudPlatform_02",
      "SceneObj_Area_Hd_Property_Ani_Prop_DreamPlatform_02",
      "SceneObj_Area_Hd_Property_Ani_Prop_DreamPlatform_DownHill_01",
      "SceneObj_Area_Hd_Property_Ani_Prop_DreamPlatform_DownHill_02",
      "SceneObj_Area_Common_Property_Ani_Prop_Boat_Part_SuperJump"
    ],
    "modifierList": ["UNIQUE_SuperJump_Conroller"]
  },

  "combatAntiCheatAttackTagWhiteList": [
    "BurningDamage",
    "ShockDamage",
    "Self_Swirl_WaterDamage",
    "Self_Swirl_IceDamage",
    "Self_Swirl_ElectricDamage",
    "Self_Swirl_FireDamage"
  ],
  "footprintZones": {
    "Glow": [
      {
        "surfaceType": "Grass",
        "defaultConfig": {
          "all": {
            "effect": "Eff_Chacter_Light_Footprint",
            "deformation": ""
          }
        }
      }
    ],
    "Spore": [
      {
        "surfaceType": "Grass",
        "defaultConfig": {
          "pc": {
            "effect": "Eff_SceneObj_Xm_Common_SporeTouch_01",
            "deformation": ""
          },
          "ps4": {
            "effect": "Eff_SceneObj_Xm_Common_SporeTouch_01",
            "deformation": ""
          }
        }
      }
    ]
  },
  "globalValueList": [
    {
      "key": "_COLLISION_POINT_SYNC_KEY",
      "isVector": true
    },
    {
      "key": "COLLISION_POINT_TRIGGER_ID_1"
    },
    {
      "key": "COLLISION_POINT_TRIGGER_ID_2"
    }
  ],
  "attacktagToElementreactionDictionary": {
    "BurningDamage": "Burning",
    "ShockDamage": "Shock",
    "ExplodeDamage": "Explode",
    "SuperconductorDamage": "Superconductor",
    "FrozenBrokenDamage": "FrozenBroken",
    "Swirl_FireDamage": "SwirlFire",
    "Self_Swirl_FireDamage": "SwirlFire",
    "Swirl_ElectricDamage": "SwirlElectric",
    "Self_Swirl_ElectricDamage": "SwirlElectric",
    "Swirl_WaterDamage": "SwirlWater",
    "Self_Swirl_WaterDamage": "SwirlWater",
    "Swirl_IceDamage": "SwirlIce",
    "Self_Swirl_IceDamage": "SwirlIce",
    "OverGrowDamage": "Overgrow",
    "OverGrow_Alter_Damage": "Overgrow",
    "OverGrow_Fire_Damage": "OvergrowMushroomFire",
    "OverGrow_Electric_Damage": "OvergrowMushroomElectric"
  }
}
