[
  {
    "furnitureId": 368101,
    "avatarId": 10000047,
    "npcId": 9047,
    "talkIds": [6904702, 6904703, 6904704],
    "headIcon": "",
    "frontIcon": "",
    "sideIcon": "",
    "showNameTextMapHash": 394414042,
    "descTextMapHash": 4201145610
  },
  {
    "furnitureId": 368102,
    "avatarId": 10000048,
    "npcId": 9048,
    "talkIds": [6904802, 6904803, 6904804],
    "headIcon": "",
    "frontIcon": "",
    "sideIcon": "",
    "showNameTextMapHash": 3150030818,
    "descTextMapHash": 2916802378
  },
  {
    "furnitureId": 368103,
    "avatarId": 10000051,
    "npcId": 9051,
    "talkIds": [6905102, 6905103, 6905104],
    "headIcon": "",
    "frontIcon": "",
    "sideIcon": "",
    "showNameTextMapHash": 3065222362,
    "descTextMapHash": 343588186
  },
  {
    "furnitureId": 368104,
    "avatarId": 10000003,
    "npcId": 9003,
    "talkIds": [6900302, 6900303, 6900304],
    "headIcon": "",
    "frontIcon": "",
    "sideIcon": "",
    "showNameTextMapHash": 3250264826,
    "descTextMapHash": 1591558698
  },
  {
    "furnitureId": 368105,
    "avatarId": 10000006,
    "npcId": 9006,
    "talkIds": [6900602, 6900603, 6900604],
    "headIcon": "",
    "frontIcon": "",
    "sideIcon": "",
    "showNameTextMapHash": 398011170,
    "descTextMapHash": 2300805946
  },
  {
    "furnitureId": 368106,
    "avatarId": 10000014,
    "npcId": 9014,
    "talkIds": [6901402, 6901403, 6901404],
    "headIcon": "",
    "frontIcon": "",
    "sideIcon": "",
    "showNameTextMapHash": 3620019322,
    "descTextMapHash": 530206354
  },
  {
    "furnitureId": 368107,
    "avatarId": 10000015,
    "npcId": 9015,
    "talkIds": [6901502, 6901503, 6901504],
    "headIcon": "",
    "frontIcon": "",
    "sideIcon": "",
    "showNameTextMapHash": 889457706,
    "descTextMapHash": 80302186
  },
  {
    "furnitureId": 368108,
    "avatarId": 10000016,
    "npcId": 9016,
    "talkIds": [6901602, 6901603, 6901604],
    "headIcon": "",
    "frontIcon": "",
    "sideIcon": "",
    "showNameTextMapHash": 1544663858,
    "descTextMapHash": 726503986
  },
  {
    "furnitureId": 368109,
    "avatarId": 10000020,
    "npcId": 9020,
    "talkIds": [6902002, 6902003, 6902004],
    "headIcon": "",
    "frontIcon": "",
    "sideIcon": "",
    "showNameTextMapHash": 1739622226,
    "descTextMapHash": 2416672970
  },
  {
    "furnitureId": 368110,
    "avatarId": 10000021,
    "npcId": 9021,
    "talkIds": [6902102, 6902103, 6902104],
    "headIcon": "",
    "frontIcon": "",
    "sideIcon": "",
    "showNameTextMapHash": 930706226,
    "descTextMapHash": 1929957354
  },
  {
    "furnitureId": 368111,
    "avatarId": 10000022,
    "npcId": 9022,
    "talkIds": [6902202, 6902203, 6902204],
    "headIcon": "",
    "frontIcon": "",
    "sideIcon": "",
    "showNameTextMapHash": 1943528722,
    "descTextMapHash": 3494559018
  },
  {
    "furnitureId": 368112,
    "avatarId": 10000023,
    "npcId": 9023,
    "talkIds": [6902302, 6902303, 6902304],
    "headIcon": "",
    "frontIcon": "",
    "sideIcon": "",
    "showNameTextMapHash": 665534778,
    "descTextMapHash": 4183753858
  },
  {
    "furnitureId": 368113,
    "avatarId": 10000024,
    "npcId": 9024,
    "talkIds": [6902402, 6902403, 6902404],
    "headIcon": "",
    "frontIcon": "",
    "sideIcon": "",
    "showNameTextMapHash": 1473309618,
    "descTextMapHash": 2329977586
  },
  {
    "furnitureId": 368114,
    "avatarId": 10000025,
    "npcId": 9025,
    "talkIds": [6902502, 6902503, 6902504],
    "headIcon": "",
    "frontIcon": "",
    "sideIcon": "",
    "showNameTextMapHash": 4249924554,
    "descTextMapHash": 691942634
  },
  {
    "furnitureId": 368115,
    "avatarId": 10000026,
    "npcId": 9026,
    "talkIds": [6902602, 6902603, 6902604],
    "headIcon": "",
    "frontIcon": "",
    "sideIcon": "",
    "showNameTextMapHash": 3325969954,
    "descTextMapHash": 3500876298
  },
  {
    "furnitureId": 368116,
    "avatarId": 10000027,
    "npcId": 9027,
    "talkIds": [6902702, 6902703, 6902704],
    "headIcon": "",
    "frontIcon": "",
    "sideIcon": "",
    "showNameTextMapHash": 3613932858,
    "descTextMapHash": 858488634
  },
  {
    "furnitureId": 368117,
    "avatarId": 10000029,
    "npcId": 9029,
    "talkIds": [6902902, 6902903, 6902904],
    "headIcon": "",
    "frontIcon": "",
    "sideIcon": "",
    "showNameTextMapHash": 2816559186,
    "descTextMapHash": 2813433970
  },
  {
    "furnitureId": 368118,
    "avatarId": 10000030,
    "npcId": 9030,
    "talkIds": [6903002, 6903003, 6903004],
    "headIcon": "",
    "frontIcon": "",
    "sideIcon": "",
    "showNameTextMapHash": 1043767274,
    "descTextMapHash": 3748058498
  },
  {
    "furnitureId": 368119,
    "avatarId": 10000031,
    "npcId": 9031,
    "talkIds": [6903102, 6903103, 6903104],
    "headIcon": "",
    "frontIcon": "",
    "sideIcon": "",
    "showNameTextMapHash": 1058476826,
    "descTextMapHash": 3767631122
  },
  {
    "furnitureId": 368120,
    "avatarId": 10000032,
    "npcId": 9032,
    "talkIds": [6903202, 6903203, 6903204],
    "headIcon": "",
    "frontIcon": "",
    "sideIcon": "",
    "showNameTextMapHash": 2538458826,
    "descTextMapHash": 2529118762
  },
  {
    "furnitureId": 368121,
    "avatarId": 10000033,
    "npcId": 9033,
    "talkIds": [6903302, 6903303, 6903304],
    "headIcon": "",
    "frontIcon": "",
    "sideIcon": "",
    "showNameTextMapHash": 154139194,
    "descTextMapHash": 1598618890
  },
  {
    "furnitureId": 368122,
    "avatarId": 10000034,
    "npcId": 9034,
    "talkIds": [6903402, 6903403, 6903404],
    "headIcon": "",
    "frontIcon": "",
    "sideIcon": "",
    "showNameTextMapHash": 1142451730,
    "descTextMapHash": 1263670018
  },
  {
    "furnitureId": 368123,
    "avatarId": 10000035,
    "npcId": 9035,
    "talkIds": [6903502, 6903503, 6903504],
    "headIcon": "",
    "frontIcon": "",
    "sideIcon": "",
    "showNameTextMapHash": 3159875210,
    "descTextMapHash": 1693001818
  },
  {
    "furnitureId": 368124,
    "avatarId": 10000036,
    "npcId": 9036,
    "talkIds": [6903602, 6903603, 6903604],
    "headIcon": "",
    "frontIcon": "",
    "sideIcon": "",
    "showNameTextMapHash": 1179969786,
    "descTextMapHash": 3070734138
  },
  {
    "furnitureId": 368125,
    "avatarId": 10000037,
    "npcId": 9037,
    "talkIds": [6903702, 6903703, 6903704],
    "headIcon": "",
    "frontIcon": "",
    "sideIcon": "",
    "showNameTextMapHash": 1905905994,
    "descTextMapHash": 2868509538
  },
  {
    "furnitureId": 368126,
    "avatarId": 10000038,
    "npcId": 9038,
    "talkIds": [6903802, 6903803, 6903804],
    "headIcon": "",
    "frontIcon": "",
    "sideIcon": "",
    "showNameTextMapHash": 3758465626,
    "descTextMapHash": 1979235386
  },
  {
    "furnitureId": 368127,
    "avatarId": 10000039,
    "npcId": 9039,
    "talkIds": [6903902, 6903903, 6903904],
    "headIcon": "",
    "frontIcon": "",
    "sideIcon": "",
    "showNameTextMapHash": 95993914,
    "descTextMapHash": 1078316570
  },
  {
    "furnitureId": 368128,
    "avatarId": 10000041,
    "npcId": 9041,
    "talkIds": [6904102, 6904103, 6904104],
    "headIcon": "",
    "frontIcon": "",
    "sideIcon": "",
    "showNameTextMapHash": 3470488842,
    "descTextMapHash": 1019072826
  },
  {
    "furnitureId": 368129,
    "avatarId": 10000042,
    "npcId": 9042,
    "talkIds": [6904202, 6904203, 6904204],
    "headIcon": "",
    "frontIcon": "",
    "sideIcon": "",
    "showNameTextMapHash": 4215937578,
    "descTextMapHash": 819624482
  },
  {
    "furnitureId": 368130,
    "avatarId": 10000043,
    "npcId": 9043,
    "talkIds": [6904302, 6904303, 6904304],
    "headIcon": "",
    "frontIcon": "",
    "sideIcon": "",
    "showNameTextMapHash": 5792482,
    "descTextMapHash": 921896570
  },
  {
    "furnitureId": 368131,
    "avatarId": 10000044,
    "npcId": 9044,
    "talkIds": [6904402, 6904403, 6904404],
    "headIcon": "",
    "frontIcon": "",
    "sideIcon": "",
    "showNameTextMapHash": 2899961186,
    "descTextMapHash": 2594130090
  },
  {
    "furnitureId": 368132,
    "avatarId": 10000045,
    "npcId": 9045,
    "talkIds": [6904502, 6904503, 6904504],
    "headIcon": "",
    "frontIcon": "",
    "sideIcon": "",
    "showNameTextMapHash": 3220336610,
    "descTextMapHash": 3463380114
  },
  {
    "furnitureId": 368133,
    "avatarId": 10000046,
    "npcId": 9046,
    "talkIds": [6904602, 6904603, 6904604],
    "headIcon": "",
    "frontIcon": "",
    "sideIcon": "",
    "showNameTextMapHash": 1050052850,
    "descTextMapHash": 768945018
  },
  {
    "furnitureId": 368134,
    "npcId": 9900,
    "talkIds": [],
    "isNPC": true,
    "headIcon": "UI_AvatarIcon_Side_Paimon",
    "frontIcon": "UI_AvatarIcon_Paimon",
    "sideIcon": "UI_AvatarIcon_Side_Paimon",
    "quality": "QUALITY_ORANGE",
    "showNameTextMapHash": 93920314,
    "descTextMapHash": 2038432562
  },
  {
    "furnitureId": 368135,
    "avatarId": 10000049,
    "npcId": 9049,
    "talkIds": [6904907, 6904908, 6904909],
    "headIcon": "",
    "frontIcon": "",
    "sideIcon": "",
    "showNameTextMapHash": 1550890770,
    "descTextMapHash": 251121242
  },
  {
    "furnitureId": 368136,
    "avatarId": 10000053,
    "npcId": 9053,
    "talkIds": [6905307, 6905308, 6905309],
    "headIcon": "",
    "frontIcon": "",
    "sideIcon": "",
    "showNameTextMapHash": 3070013538,
    "descTextMapHash": 2838050458
  },
  {
    "furnitureId": 368137,
    "avatarId": 10000002,
    "npcId": 9002,
    "talkIds": [6900207, 6900208, 6900209],
    "headIcon": "",
    "frontIcon": "",
    "sideIcon": "",
    "showNameTextMapHash": 2406170818,
    "descTextMapHash": 3110920978
  },
  {
    "furnitureId": 368138,
    "avatarId": 10000052,
    "npcId": 9052,
    "talkIds": [6905208, 6905209, 6905210],
    "headIcon": "",
    "frontIcon": "",
    "sideIcon": "",
    "showNameTextMapHash": 10530602,
    "descTextMapHash": 390796642
  },
  {
    "furnitureId": 368139,
    "avatarId": 10000054,
    "npcId": 9054,
    "talkIds": [6905407, 6905408, 6905409],
    "headIcon": "",
    "frontIcon": "",
    "sideIcon": "",
    "showNameTextMapHash": 2835940738,
    "descTextMapHash": 2267242570
  },
  {
    "furnitureId": 368140,
    "avatarId": 10000056,
    "npcId": 9056,
    "talkIds": [6905607, 6905608, 6905609],
    "headIcon": "",
    "frontIcon": "",
    "sideIcon": "",
    "showNameTextMapHash": 932714434,
    "descTextMapHash": 1760243458
  },
  {
    "furnitureId": 368141,
    "avatarId": 10000062,
    "npcId": 9062,
    "talkIds": [6906207, 6906208, 6906209],
    "headIcon": "",
    "frontIcon": "",
    "sideIcon": "",
    "showNameTextMapHash": 2295556594,
    "descTextMapHash": 1615445970
  },
  {
    "furnitureId": 368142,
    "avatarId": 10000050,
    "npcId": 9050,
    "talkIds": [6905009, 6905010, 6905011],
    "headIcon": "",
    "frontIcon": "",
    "sideIcon": "",
    "showNameTextMapHash": 2409263898,
    "descTextMapHash": 2978278274
  },
  {
    "furnitureId": 368143,
    "avatarId": 10000055,
    "npcId": 9055,
    "talkIds": [6905509, 6905510, 6905511],
    "headIcon": "",
    "frontIcon": "",
    "sideIcon": "",
    "showNameTextMapHash": 2234330074,
    "descTextMapHash": 1039340970
  },
  {
    "furnitureId": 368144,
    "avatarId": 10000057,
    "npcId": 9057,
    "talkIds": [6905709, 6905710, 6905711],
    "headIcon": "",
    "frontIcon": "",
    "sideIcon": "",
    "showNameTextMapHash": 3203142882,
    "descTextMapHash": 3288556322
  },
  {
    "furnitureId": 368145,
    "avatarId": 10000063,
    "npcId": 9063,
    "talkIds": [6906309, 6906310, 6906311],
    "headIcon": "",
    "frontIcon": "",
    "sideIcon": "",
    "showNameTextMapHash": 1954470762,
    "descTextMapHash": 2492766370
  },
  {
    "furnitureId": 368146,
    "avatarId": 10000064,
    "npcId": 9064,
    "talkIds": [6906409, 6906410, 6906411],
    "headIcon": "",
    "frontIcon": "",
    "sideIcon": "",
    "showNameTextMapHash": 1525557658,
    "descTextMapHash": 3822761602
  },
  {
    "furnitureId": 368147,
    "avatarId": 10000058,
    "npcId": 9058,
    "talkIds": [6905809, 6905810, 6905811],
    "headIcon": "",
    "frontIcon": "",
    "sideIcon": "",
    "showNameTextMapHash": 2921602826,
    "descTextMapHash": 2627682930
  },
  {
    "furnitureId": 368148,
    "avatarId": 10000066,
    "npcId": 9066,
    "talkIds": [6906609, 6906610, 6906611],
    "headIcon": "",
    "frontIcon": "",
    "sideIcon": "",
    "showNameTextMapHash": 258209466,
    "descTextMapHash": 4281777378
  },
  {
    "furnitureId": 368149,
    "avatarId": 10000060,
    "npcId": 9008,
    "talkIds": [6900809, 6900810, 6900811],
    "headIcon": "",
    "frontIcon": "",
    "sideIcon": "",
    "showNameTextMapHash": 1413218978,
    "descTextMapHash": 3515134034
  },
  {
    "furnitureId": 368150,
    "avatarId": 10000065,
    "npcId": 9009,
    "talkIds": [6900909, 6900910, 6900911],
    "headIcon": "",
    "frontIcon": "",
    "sideIcon": "",
    "showNameTextMapHash": 1151295338,
    "descTextMapHash": 1411660626
  },
  {
    "furnitureId": 368151,
    "avatarId": 10000059,
    "npcId": 9059,
    "talkIds": [6905909, 6905910, 6905911],
    "headIcon": "",
    "frontIcon": "",
    "sideIcon": "",
    "showNameTextMapHash": 2086255178,
    "descTextMapHash": 522922346
  },
  {
    "furnitureId": 368152,
    "avatarId": 10000069,
    "npcId": 9069,
    "talkIds": [6906907, 6906908, 6906909],
    "headIcon": "",
    "frontIcon": "",
    "sideIcon": "",
    "showNameTextMapHash": 380219434,
    "descTextMapHash": 106155898
  },
  {
    "furnitureId": 368153,
    "avatarId": 10000067,
    "npcId": 9067,
    "talkIds": [6906707, 6906708, 6906709],
    "headIcon": "",
    "frontIcon": "",
    "sideIcon": "",
    "showNameTextMapHash": 4080791818,
    "descTextMapHash": 1375466890
  },
  {
    "furnitureId": 368154,
    "avatarId": 10000068,
    "npcId": 9068,
    "talkIds": [6906807, 6906808, 6906809],
    "headIcon": "",
    "frontIcon": "",
    "sideIcon": "",
    "showNameTextMapHash": 1579832426,
    "descTextMapHash": 496689226
  },
  {
    "furnitureId": 368155,
    "avatarId": 10000070,
    "npcId": 9070,
    "talkIds": [6907007, 6907008, 6907009],
    "headIcon": "",
    "frontIcon": "",
    "sideIcon": "",
    "showNameTextMapHash": 2542546962,
    "descTextMapHash": 264094474
  },
  {
    "furnitureId": 368156,
    "avatarId": 10000071,
    "npcId": 9071,
    "talkIds": [6907107, 6907108, 6907109],
    "headIcon": "",
    "frontIcon": "",
    "sideIcon": "",
    "showNameTextMapHash": 882523074,
    "descTextMapHash": 1110272690
  },
  {
    "furnitureId": 368157,
    "avatarId": 10000072,
    "npcId": 9072,
    "talkIds": [6907207, 6907208, 6907209],
    "headIcon": "",
    "frontIcon": "",
    "sideIcon": "",
    "showNameTextMapHash": 2246581234,
    "descTextMapHash": 2367318370
  },
  {
    "furnitureId": 368158,
    "avatarId": 10000073,
    "npcId": 9073,
    "talkIds": [6907309, 6907310, 6907311],
    "headIcon": "",
    "frontIcon": "",
    "sideIcon": "",
    "showNameTextMapHash": 3853143706,
    "descTextMapHash": 2990039154
  },
  {
    "furnitureId": 368159,
    "avatarId": 10000074,
    "npcId": 9074,
    "talkIds": [6907409, 6907410, 6907411],
    "headIcon": "",
    "frontIcon": "",
    "sideIcon": "",
    "showNameTextMapHash": 3571022146,
    "descTextMapHash": 4214720666
  }
]
