{
  "$type": "ConfigMonster",
  "common": {
    "effectAttachShape": {
      "$type": "ConfigEffectAttachSkinnedMesh",
      "mesh": "EffectMesh"
    },
    "mass": 90.0,
    "height": 1.35,
    "modelHeight": 1.7,
    "viewSize": 1.5,
    "affectedByWorld": true,
    "checkInSurface": true,
    "clearAnimatorOnSetLightDeactive": true,
    "clearAIOnSetLightDeactive": true
  },
  "equipController": {
    "attachPoints": {
      "fruit01": "fruit01",
      "fruit02": "fruit02",
      "fruit03": "fruit03"
    },
    "sheathPoint": ""
  },
  "partControl": {
    "parts": [
      {
        "$type": "ConfigControlPart",
        "partRootName": "Fruit01",
        "angularSpeed": 3600.0,
        "forwardBy": "EntityForward",
        "rotateBy": "WorldXZ",
        "doOnUnEabled": "Stay",
        "limitHorizontal": 360.0,
        "limitVertical": 0.0
      },
      {
        "$type": "ConfigControlPart",
        "partRootName": "Fruit02",
        "angularSpeed": 3600.0,
        "forwardBy": "EntityForward",
        "rotateBy": "WorldXZ",
        "doOnUnEabled": "Stay",
        "limitHorizontal": 360.0,
        "limitVertical": 0.0
      },
      {
        "$type": "ConfigControlPart",
        "partRootName": "Fruit03",
        "angularSpeed": 3600.0,
        "forwardBy": "EntityForward",
        "rotateBy": "WorldXZ",
        "doOnUnEabled": "Stay",
        "limitHorizontal": 360.0,
        "limitVertical": 0.0
      }
    ]
  },
  "move": {
    "$type": "ConfigAnimatorMove",
    "monsterSizeType": "StrongHumanoidType"
  },
  "model": {
    "bornEffect": "Eff_Monster_Mimik_DigOutAttack_Warning"
  },
  "specialPoint": {
    "elementDrop": "Chest",
    "bulletAim": "Chest"
  },
  "billboard": {
    "$type": "ConfigCombatBillboard",
    "offsetType": "Normal",
    "offset": {
      "x": 0.0,
      "y": 1.5,
      "z": 0.0
    },
    "showHPBar": true,
    "radiusOffset": 0.2,
    "size": "Normal"
  },
  "combat": {
    "property": {
      "weight": 60, //weightLevel = 2
      "endureType": "Monster_Minion"
    },
    "combatLock": {
      "denyLockOn": false,
      "lockType": "Avatar&Monster_Lv4"
    },
    "beHit": {
      "hitBloodEffect": "",
      "muteAllHit": false,
      "muteAllHitEffect": false,
      "muteAllHitText": false,
      "ignoreMinHitVY": true,
      "hitAutoRedirect": true
    },
    "die": {
      "hasAnimatorDie": true,
      "dieDisappearEffect": "Eff_Death_Common",
      "dieDisappearEffectDelay": 0.0,
      "dieEndTime": 1.0,
      "dieForceDisappearTime": 1.0,
      "dieShaderData": "MonsterDie",
      "muteHitBox": true,
      "dieDenyLockOn": true,
      "dieIsGhostToEnemy": true,
      "dieIgnoreTriggerBullet": true,
      "muteBillboard": true,
      "mutePushCollider": true
    },
    "animEvents": {
      "DigOutAtk": {
        "attackPattern": {
          "$type": "ConfigAttackCircle",
          "duration": 0.0,
          "triggerType": "TriggerNoRepeat",
          "height": 3.0,
          "fanAngle": 360.0,
          "radius": 2.0,
          "born": {
            "$type": "ConfigBornBySelf",
            "offset": {
              "x": 0.0,
              "y": 0.0,
              "z": 0.0
            }
          }
        },
        "attackInfo": {
          "attackProperty": {
            "damagePercentage": 3.0,
            "elementType": "Ice",
            "strikeType": "Blunt",
            "elementDurability": 50,
            "enBreak": 200.0
          },
          "hitPattern": {
            "onHitEffectName": "default",
            "hitImpulseType": "LV5",
            "reboundRatio": 0,
            "hitHaltTime": 0,
            "hitHaltTimeScale": 0.01,
            "muteHitText": false
          },
          "forceCameraShake": true,
          "cameraShake": {
            "shakeType": "CustomVector",
            "shakeRange": 0.12,
            "shakeTime": 0.15,
            "shakeDistance": 25.0,
            "shakeDir": {
              "x": 0,
              "y": -1,
              "z": 0
            }
          }
        }
      },
      "Atk01": {
        "attackPattern": {
          "$type": "ConfigAttackBox",
          "triggerType": "TriggerNoRepeat",
          "size": {
            "x": 1.6,
            "y": 2.0,
            "z": 4.5
          },
          "born": {
            "$type": "ConfigBornByTarget",
            "offset": {
              "x": 0,
              "y": 0,
              "z": 2.0
            }
          }
        },
        "attackInfo": {
          "attackProperty": {
            "damagePercentage": 1.0,
            "strikeType": "Default",
            "elementType": "Ice",
            "elementDurability": 50,
            "enBreak": 75.0
          },
          "hitPattern": {
            "hitImpulseType": "LV3",
            "reboundRatio": 0,
            "hitHaltTime": 0.0,
            "hitHaltTimeScale": 0.05,
            "muteHitText": false
          },
          "forceCameraShake": true,
          "cameraShake": {
            "shakeType": "CustomVector",
            "shakeRange": 0.04,
            "shakeTime": 0.09,
            "shakeDistance": 7.5,
            "shakeDir": {
              "x": 0,
              "y": 1,
              "z": 0
            }
          }
        }
      },
      "Atk02": {
        "attackPattern": {
          "$type": "ConfigAttackCircle",
          "duration": 0.0,
          "triggerType": "TriggerNoRepeat",
          "height": 2.0,
          "fanAngle": 360.0,
          "radius": 5.0,
          "born": {
            "$type": "ConfigBornBySelf",
            "offset": {
              "x": 0.0,
              "y": 0.0,
              "z": 0.0
            }
          }
        },
        "attackInfo": {
          "attackProperty": {
            "damagePercentage": 0.5,
            "elementType": "Ice",
            "strikeType": "Blunt",
            "elementDurability": 50,
            "enBreak": 200.0
          },
          "hitPattern": {
            "onHitEffectName": "default",
            "hitImpulseType": "LV4",
            "reboundRatio": 0,
            "hitHaltTime": 0,
            "hitHaltTimeScale": 0.01,
            "muteHitText": false
          },
          "forceCameraShake": true,
          "cameraShake": {
            "shakeType": "CustomVector",
            "shakeRange": 0.12,
            "shakeTime": 0.15,
            "shakeDistance": 25.0,
            "shakeDir": {
              "x": 0,
              "y": -1,
              "z": 0
            }
          }
        }
      }
    }
  },
  "inputKeys": [
    {
      "keyID": 101,
      "inputKeyCode": 257
    },
    {
      "keyID": 201,
      "inputKeyCode": 258
    },
    {
      "keyID": 202,
      "inputKeyCode": 259
    },
    {
      "keyID": 301,
      "inputKeyCode": 260
    },
    {
      "keyID": 311,
      "inputKeyCode": 261
    },
    {
      "keyID": 312,
      "inputKeyCode": 262
    },
    {
      "keyID": 401,
      "inputKeyCode": 263
    },
    {
      "keyID": 402,
      "inputKeyCode": 264
    },
    {
      "keyID": 601,
      "inputKeyCode": 265
    },
    {
      "keyID": 501,
      "inputKeyCode": 266
    }
  ],
  "stateLayers": {
    "defaultLayer": {
      "$type": "ConfigNormalStateLayer",
      "stateIDs": {
        //////////////////////////////////////////////////
        //	Idle & Move states
        //////////////////////////////////////////////////
        "Born": {
          "$type": "ConfigMonsterStateIDInfo",
          "animatorStates": {
            "Born": [""]
          },
          "addEndure": 1.0,
          "combatMove": true,
          "canDoSkill": true,
          "canSyncMove": true,
          "cullingModelAlwaysAnimate": true,
          "resetAnimatorTriggerOnExit": ["DoSkill"]
        },
        "NormalIdle": {
          "$type": "ConfigMonsterStateIDInfo",
          "animatorStates": {
            "Standby": []
          },
          "addEndure": 1.0,
          "combatMove": true,
          "canDoSkill": true,
          "canSyncMove": true,
          "canSteer": true,
          // "autoSteer": true,
          "resetAnimatorTriggerOnExit": ["DoSkill"]
        },
        // "Turn" :
        // {
        // 	"$type": "ConfigMonsterStateIDInfo",
        // 	"animatorStates":
        // 	{
        // 		"TurnLeft": [],
        // 		"TurnRight": [],
        // 	},
        // 	"addEndure": 1.0,
        // 	"combatMove": true,
        // 	"canDoSkill" : true,
        // 	"canSteer" : true,
        // 	"autoSteer" : false,
        // 	"canSyncMove" : true,
        // 	"resetAnimatorTriggerOnExit" : ["DoSkill"],
        // },
        "DigMove": {
          "$type": "ConfigMonsterStateIDInfo",
          "animatorStates": {
            "DigInClose": [
              "Monster_Mimik_DigInClose",
              "Monster_Mimik_DigInEffect",
              "Monster_Mimik_UnderGround_DigIn",
              "Audio_Monster_Mimik_Ice_DiginChase"
            ], //, "Monster_Mimik_DigInClose"],
            "DigInFar": [
              "Monster_Mimik_DigInFar",
              "Monster_Mimik_DigInEffect",
              "Monster_Mimik_UnderGround_DigIn",
              "Audio_Monster_Mimik_Ice_DiginChase"
            ],
            "DigInBack": [
              "Monster_Mimik_DigInBack",
              "Monster_Mimik_DigInEffect",
              "Monster_Mimik_UnderGround_DigIn",
              "Audio_Monster_Mimik_Ice_DiginChase"
            ],
            "DigInChase": [
              "Monster_Mimik_DigInChase",
              "Monster_Mimik_DigInEffect",
              "Monster_Mimik_UnderGround_DigIn",
              "Audio_Monster_Mimik_Ice_DiginChase"
            ]
          },
          "addEndure": 0.05,
          "combatMove": true,
          "canDoSkill": false,
          "canSteer": true,
          "canSyncMove": true,
          "cullingModelAlwaysAnimate": true,
          "resetAnimatorTriggerOnExit": ["DoSkill", "DigInFarTrigger"]
        },
        "DigMoveRandom": {
          "$type": "ConfigMonsterStateIDInfo",
          "animatorStates": {
            "DigInRandom_01": [
              "Monster_Mimik_DigInRandom",
              "Monster_Mimik_DigInEffect",
              "Monster_Mimik_UnderGround_DigIn",
              "Audio_Monster_Mimik_Ice_DiginChase"
            ],
            "DigInRandom_02": [
              "Monster_Mimik_DigInRandom",
              "Monster_Mimik_DigInEffect",
              "Monster_Mimik_UnderGround_DigIn",
              "Audio_Monster_Mimik_Ice_DiginChase"
            ]
          },
          "addEndure": 0.05,
          "combatMove": true,
          "canDoSkill": false,
          "canSteer": true,
          "canSyncMove": true,
          "cullingModelAlwaysAnimate": true
          // "resetAnimatorTriggerOnExit" : ["DoSkill"],\
        },
        "DigOut_BS": {
          "$type": "ConfigMonsterStateIDInfo",
          "animatorStates": {
            "DigOut_BS": [""]
          },
          "addEndure": 0.05,
          "combatMove": true,
          "canDoSkill": false,
          "canSteer": true,
          "canSyncMove": true,
          "cullingModelAlwaysAnimate": true,
          "resetAnimatorTriggerOnExit": ["DoSkill"]
        },
        "DigOut": {
          "$type": "ConfigMonsterStateIDInfo",
          "animatorStates": {
            "DigOut_Wait": ["Monster_Mimik_DigOut_Wait"],
            "DigOut": [
              "Monster_Mimik_DigOutEffect",
              "Monster_Mimik_UnderGround_DigOut",
              "Audio_Monster_Mimik_Ice_DigOut"
            ],
            "DigOutAttack": [
              "Monster_Mimik_DigOutAttack",
              "Monster_Mimik_UnderGround_DigOut",
              "Audio_Monster_Mimik_Ice_DigOut"
            ],
            "Born_AS": [
              "Monster_Mimik_DigOutAttack",
              "Monster_Mimik_UnderGround_DigOut",
              "Audio_Monster_Mimik_Ice_DigOut"
            ]
          },
          "addEndure": 0.05,
          "combatMove": true,
          "canDoSkill": false,
          "canSteer": true,
          "canSyncMove": true,
          "cullingModelAlwaysAnimate": true,
          "resetAnimatorTriggerOnExit": ["DoSkill"]
        },
        "DigOut_EndDelay": {
          "$type": "ConfigMonsterStateIDInfo",
          "animatorStates": {
            "DigOut_EndDelay": []
          },
          "addEndure": 1.0,
          "combatMove": true,
          "canDoSkill": false,
          "canSteer": true,
          "canSyncMove": true,
          "cullingModelAlwaysAnimate": true,
          "resetAnimatorTriggerOnExit": ["DoSkill"]
        },
        "FruitReborn": {
          "$type": "ConfigMonsterStateIDInfo",
          "animatorStates": {
            "FruitReborn_BS": [
              "Monster_Mimik_DigInEffect",
              "Monster_Mimik_UnderGround_DigIn",
              "Audio_Monster_Mimik_Ice_FruitReborn_BS"
            ],
            "FruitReborn_Act": [""],
            "FruitReborn_AS": [
              "Monster_Mimik_Ice_FruitReborn_AS",
              "Monster_Mimik_UnderGround_DigOut",
              "Audio_Monster_Mimik_Ice_FruitReborn_AS"
            ]
          },
          "addEndure": 0.05,
          "combatMove": true,
          "canDoSkill": false,
          "canSteer": true,
          "canSyncMove": true,
          "cullingModelAlwaysAnimate": true,
          "resetAnimatorTriggerOnExit": ["DoSkill"]
        },
        //////////////////////////////////////////////////
        //	Hit & Die states
        //////////////////////////////////////////////////
        "BeHit": {
          "$type": "ConfigMonsterStateIDInfo",
          "animatorStates": {
            "Hit_H": [""]
          },
          "canDoSkill": true,
          "addEndure": 1.0,
          "combatMove": true,
          "resetAnimatorTriggerOnEnter": ["BeHit", "DigInFarTrigger"],
          "resetAnimatorTriggerOnExit": ["DoSkill", "InterruptTrigger"]
        },
        "BeHitThrow": {
          "$type": "ConfigMonsterStateIDInfo",
          "animatorStates": {
            "HitThrow": ["Monster_Mimik_HitThrow"],
            "HitThrowDrop": [],
            "HitThrowToGround": [
              "Monster_Mimik_HitThrowToGround",
              "Audio_Monster_Mimik_Ice_HitGround"
            ]
          },
          "addEndure": 0.05,
          "combatMove": true,
          "resetAnimatorTriggerOnEnter": ["BeHit", "HitAir2HitDrop"],
          "resetAnimatorTriggerOnExit": ["DoSkill", "InterruptTrigger"]
        },
        "Struggle": {
          "$type": "ConfigMonsterStateIDInfo",
          "animatorStates": {
            "Struggle": []
          },
          "combatMove": true,
          "resetAnimatorTriggerOnEnter": ["BeHit", "HitAir2HitDrop"],
          "resetAnimatorTriggerOnExit": ["DoSkill", "InterruptTrigger"]
        },
        "Die": {
          "$type": "ConfigMonsterStateIDInfo",
          "animatorStates": {
            "Die1": ["Audio_Monster_Mimik_Ice_Die"],
            "Die2": ["Audio_Monster_Mimik_Ice_Die"],
            "FallingDie": [""],
            "SwimDie": ["Audio_Monster_Mimik_Ice_Die"],
            "AirDie": ["Audio_Monster_Mimik_Ice_Die"]
          },
          "cullingModelAlwaysAnimate": true
        },
        //////////////////////////////////////////////////
        //	Alert states
        //////////////////////////////////////////////////
        "Life_Warning": {
          "$type": "ConfigMonsterStateIDInfo",
          "animatorStates": {
            "Alert": [""],
            "Warning": ["Audio_Monster_Mimik_Ice_DigOut"]
          },
          "canSteer": true,
          "combatMove": true,
          "addEndure": 0.0,
          "cullingModelAlwaysAnimate": true,
          "resetAnimatorTriggerOnExit": ["BeHit", "DoSkill"]
        },
        //////////////////////////////////////////////////
        //	Attack states
        //////////////////////////////////////////////////
        "Attack01Close_BS": {
          "$type": "ConfigMonsterStateIDInfo",
          "animatorStates": {
            "Attack01Close_BS": [
              "Monster_Mimik_Ice_Attack01Close_BS",
              "Audio_Monster_Mimik_Ice_MeleeAtk_01_BS"
            ]
          },
          "addEndure": 0.75,
          "combatMove": true,
          "resetAnimatorTriggerOnEnter": ["InterruptTrigger"],
          "resetAnimatorTriggerOnExit": ["BeHit", "DoSkill"]
        },
        "Attack01Close": {
          "$type": "ConfigMonsterStateIDInfo",
          "animatorStates": {
            "Attack01Close": [
              "Monster_Mimik_Ice_Attack01Close",
              "Audio_Monster_Mimik_Ice_MeleeAtk_01"
            ]
          },
          "addEndure": 0.75,
          "combatMove": true,
          "resetAnimatorTriggerOnEnter": ["InterruptTrigger"],
          "resetAnimatorTriggerOnExit": ["BeHit", "DoSkill"]
        },
        "Attack01_BS": {
          "$type": "ConfigMonsterStateIDInfo",
          "animatorStates": {
            "Attack01_01_BS": [
              "Monster_Mimik_Ice_Attack01_BS",
              "Audio_Monster_Mimik_Ice_MeleeAtk_01_BS"
            ],
            "Attack01_02_BS": [
              "Monster_Mimik_Ice_Attack01_BS",
              "Audio_Monster_Mimik_Ice_MeleeAtk_01_BS"
            ],
            "Attack01_03_BS": [
              "Monster_Mimik_Ice_Attack01_BS",
              "Audio_Monster_Mimik_Ice_MeleeAtk_01_BS"
            ]
          },
          "addEndure": 0.75,
          "combatMove": true,
          "resetAnimatorTriggerOnEnter": ["InterruptTrigger"],
          "resetAnimatorTriggerOnExit": ["BeHit", "DoSkill"]
        },
        "Attack01": {
          "$type": "ConfigMonsterStateIDInfo",
          "animatorStates": {
            "Attack01_01": [
              "Monster_Mimik_Ice_Attack01",
              "Audio_Monster_Mimik_Ice_MeleeAtk_01"
            ],
            "Attack01_02": [
              "Monster_Mimik_Ice_Attack01",
              "Audio_Monster_Mimik_Ice_MeleeAtk_01"
            ],
            "Attack01_03": [
              "Monster_Mimik_Ice_Attack01",
              "Audio_Monster_Mimik_Ice_MeleeAtk_01"
            ]
          },
          "addEndure": 0.75,
          "combatMove": true,
          "resetAnimatorTriggerOnEnter": ["DigInFarTrigger"],
          "resetAnimatorTriggerOnExit": ["BeHit", "DoSkill"]
        },
        "RevengeAttack_BS": {
          "$type": "ConfigMonsterStateIDInfo",
          "animatorStates": {
            "RevengeAttack_BS": [
              "Monster_Mimik_Ice_Attack02_BS",
              "Audio_Monster_Mimik_Ice_RevengeAtk_BS"
            ]
          },
          "addEndure": 0.75,
          "combatMove": true,
          "resetAnimatorTriggerOnExit": ["BeHit", "DoSkill"]
        },
        "RevengeAttack": {
          "$type": "ConfigMonsterStateIDInfo",
          "animatorStates": {
            "RevengeAttack": [
              "Monster_Mimik_Ice_Attack02",
              "Audio_Monster_Mimik_Ice_RevengeAtk"
            ]
          },
          "addEndure": 0.75,
          "combatMove": true,
          "resetAnimatorTriggerOnExit": ["BeHit", "DoSkill"]
        },
        //////////////////////////////////////////////////
        //	Fruit Attack states
        //////////////////////////////////////////////////
        "AbsorbFruit": {
          "$type": "ConfigMonsterStateIDInfo",
          "animatorStates": {
            "AbsorbFruit_BS": [
              "Monster_Mimik_Ice_AbsorbFruit_BS",
              "Audio_Monster_Mimik_Ice_AbsorbFruit_BS"
            ],
            "AbsorbFruit_AS": [
              "Monster_Mimik_Ice_AbsorbFruit_AS",
              "Audio_Monster_Mimik_Ice_AbsorbFruit_AS"
            ]
          },
          "addEndure": 0.05,
          "combatMove": true,
          "resetAnimatorTriggerOnExit": ["BeHit", "DoSkill"]
        },
        "AbsorbFruit_Loop": {
          "$type": "ConfigMonsterStateIDInfo",
          "animatorStates": {
            "AbsorbFruit_Loop": []
          },
          "addEndure": 0.05,
          "combatMove": true,
          "resetAnimatorTriggerOnExit": ["BeHit", "DoSkill"]
        },
        "ForwardShoot01": {
          "$type": "ConfigMonsterStateIDInfo",
          "animatorStates": {
            "ForwardShoot01_BS": ["Audio_Monster_Mimik_Ice_ForwardShoot_01_BS"],
            "ForwardShoot01_Shoot": ["Monster_Mimik_Ice_ForwardShoot01"],
            "ForwardShoot01_AS": ["Audio_Monster_Mimik_Ice_ForwardShoot_01_AS"]
          },
          "addEndure": 0.05,
          "combatMove": true,
          "resetAnimatorTriggerOnExit": ["BeHit", "DoSkill"]
        },
        //////////////////////////////////////////////////
        //	Down states
        //////////////////////////////////////////////////
        "Down": {
          "$type": "ConfigMonsterStateIDInfo",
          "animatorStates": {
            "Down_BS": [
              "Monster_Mimik_Ice_AbsorbFruit_Break",
              "Audio_Monster_Mimik_Ice_Down_BS"
            ],
            "Down_Loop": [],
            "Down_AS": ["Audio_Monster_Mimik_Ice_Down_AS"]
          },
          "addEndure": 10.0,
          "combatMove": true,
          "canDoSkill": true,
          "canSyncMove": true,
          "resetAnimatorTriggerOnExit": ["DoSkill"]
        },
        //////////////////////////////////////////////////
        //	ReturnToBorn states
        //////////////////////////////////////////////////
        "ReturnToBorn": {
          "$type": "ConfigMonsterStateIDInfo",
          "animatorStates": {
            "ReturnToBorn": [
              "Monster_Mimik_Ice_ReturnToBorn",
              "Monster_Mimik_UnderGround_DigIn"
            ],
            "ReturnToBorn_AS_Wait": ["Monster_Mimik_DigOut_Wait"],
            "ReturnToBorn_AS": [
              "Monster_Mimik_DigOutEffect",
              "Monster_Mimik_UnderGround_DigOut",
              "Audio_Monster_Mimik_Ice_DigOut"
            ]
          },
          "combatMove": true,
          "cullingModelAlwaysAnimate": true,
          "resetAnimatorTriggerOnExit": ["BeHit", "DoSkill"]
        }
      }
    }
  },
  "abilities": [
    //////////////////////////////////////////////////
    //	Steer abilities
    //////////////////////////////////////////////////
    {
      "abilityID": "SteerAttack",
      "abilityName": "Monster_Mimik_SteerAttack"
    },
    //////////////////////////////////////////////////
    //	FruitPartControl abilities
    //////////////////////////////////////////////////
    {
      "abilityID": "FruitPartControl",
      "abilityName": "Monster_Mimik_FruitPartControl"
    },
    //////////////////////////////////////////////////
    //	FruitManagement abilities
    //////////////////////////////////////////////////
    {
      "abilityID": "FruitManager",
      "abilityName": "Monster_Mimik_Ice_FruitManager"
    },
    {
      "abilityID": "Add3Fruit_Common",
      "abilityName": "Monster_Mimik_Add3Fruit"
    },
    {
      "abilityID": "ReduceFruit",
      "abilityName": "Monster_Mimik_ReduceFruit"
    },
    {
      "abilityID": "ClearFruit",
      "abilityName": "Monster_Mimik_ClearFruit"
    },
    {
      "abilityID": "Ice_FruitReborn_Effect",
      "abilityName": "Monster_Mimik_Ice_FruitReborn_Effect"
    },
    {
      "abilityID": "FruitReborn_TriggerShaderEffect01_Common",
      "abilityName": "Monster_Mimik_FruitReborn_TriggerShaderEffect01"
    },
    //////////////////////////////////////////////////
    //	Fruit abilities
    //////////////////////////////////////////////////
    {
      "abilityID": "Ice_AbsorbFruit_DoFruitMoveEffect",
      "abilityName": "Mimik_Ice_AbsorbFruit_DoFruitMoveEffect"
    },
    {
      "abilityID": "AbsorbFruitState",
      "abilityName": "Monster_Mimik_Ice_AbsorbFruitState"
    },
    {
      "abilityID": "Ice_AbsorbFruit",
      "abilityName": "Monster_Mimik_Ice_AbsorbFruit"
    },
    {
      "abilityID": "Ice_Fruit_Effect",
      "abilityName": "Monster_Mimik_Ice_Fruit_Effect"
    },
    {
      "abilityID": "Ice_DownManager",
      "abilityName": "Monster_Mimik_Ice_DownManager"
    },
    {
      "abilityID": "Ice_ForwardShoot01",
      "abilityName": "Monster_Mimik_Ice_ForwardShoot01"
    },
    {
      "abilityID": "Ice_ElementState_On",
      "abilityName": "Monster_Mimik_Ice_ElementState_On"
    },
    {
      "abilityID": "Ice_ElementState_Off",
      "abilityName": "Monster_Mimik_Ice_ElementState_Off"
    },
    //////////////////////////////////////////////////
    //	DigMove abilities
    //////////////////////////////////////////////////
    {
      "abilityID": "Underground",
      "abilityName": "Monster_Mimik_Underground"
    },
    {
      "abilityID": "RemoveUnderground",
      "abilityName": "Monster_Mimik_RemoveUnderground"
    },
    //deleted for borneffect change 20200610
    // {
    // 	"abilityID": "DigOut_Alert",
    // 	"abilityName": "Monster_Mimik_DigOut_Alert",
    // },
    {
      "abilityID": "DigInFarTrigger",
      "abilityName": "Monster_Mimik_DigInFarTrigger"
    },
    {
      "abilityID": "GetDigOutPosClose",
      "abilityName": "Monster_Mimik_GetDigOutPosClose"
    },
    {
      "abilityID": "GetDigOutPosFar",
      "abilityName": "Monster_Mimik_GetDigOutPosFar"
    },
    {
      "abilityID": "GetDigOutPosBack",
      "abilityName": "Monster_Mimik_GetDigOutPosBack"
    },
    {
      "abilityID": "GetDigOutPosChase",
      "abilityName": "Monster_Mimik_GetDigOutPosChase"
    },
    {
      "abilityID": "GetDigOutPosRandom",
      "abilityName": "Monster_Mimik_GetDigOutPosRandom"
    },
    {
      "abilityID": "BlinkToDigOutPos",
      "abilityName": "Monster_Mimik_BlinkToDigOutPos"
    },
    //////////////////////////////////////////////////
    //	Retreat abilities
    //////////////////////////////////////////////////
    {
      "abilityID": "Retreat",
      "abilityName": "Monster_Mimik_Retreat"
    },
    {
      "abilityID": "ResetRetreatCD",
      "abilityName": "Monster_Mimik_ResetRetreatCD"
    },
    //////////////////////////////////////////////////
    //	Other abilities
    //////////////////////////////////////////////////
    {
      "abilityID": "RevengeAttackCDManager",
      "abilityName": "Monster_Mimik_RevengeAttackCDManager"
    },
    {
      "abilityID": "RevengeAttack",
      "abilityName": "Monster_Mimik_RevengeAttack"
    },
    {
      "abilityID": "Attack01_BS",
      "abilityName": "Mimik_Attack01_BS"
    },
    {
      "abilityID": "Attack01Close_BS",
      "abilityName": "Mimik_Attack01Close_BS"
    },
    {
      "abilityID": "Attack01",
      "abilityName": "Mimik_Attack01"
    },
    {
      "abilityID": "Attack01Close",
      "abilityName": "Mimik_Attack01Close"
    },
    {
      "abilityID": "Attack01_TriggerShaderEffect",
      "abilityName": "Monster_Mimik_Attack01_TriggerShaderEffect"
    },
    {
      "abilityID": "ShaderEffect_InterruptTrigger",
      "abilityName": "Monster_Mimik_ShaderEffect_InterruptTrigger"
    },
    {
      "abilityID": "ReturnToBornManager",
      "abilityName": "Monster_Mimik_ReturnToBornManager"
    },
    {
      "abilityID": "DamageManager",
      "abilityName": "Monster_Mimik_DamageManager"
    },
    {
      "abilityID": "Ice_SkillSet",
      "abilityName": "Monster_Mimik_Ice_SkillSet"
    }
  ],
  "initialPoses": {
    "Default": {
      "initialPoseID": 0
    }
    // "Sacrifice":
    // {
    // 	"initialPoseID" : 9013,
    // 	"initialPoseParams":
    // 	{
    // 		"boolParams":
    // 		{
    // 			"Sacrifice": "true",
    // 		},
    // 	},
    // },
  },
  "aibeta": {
    "enable": true,
    "skillGCD": 0.5,
    "skillSetting": {
      "skillEliteSet": {
        "1": [201, 202, 301, 312],
        "101": [211, 212, 302]
      }
    },
    "neurons": {
      "DefaultSetting": ["HIT"]
    },
    "sensing": {
      "settings": {
        "DefaultSetting": {
          "viewRange": 30.0,
          "feelRange": 25.0
        },
        "Sacrifice": {
          "viewRange": 10.0,
          "feelRange": 5.0
        }
      }
    },
    "defendArea": {
      "defendRange": 40.0
    },
    "threat": {
      "clearThreatTargetDistance": 30.0,
      "clearThreatTimerByDistance": 1.5,
      "clearThreatEdgeDistance": 7.5,
      "viewThreatGrow": 35.0,
      "feelThreatGrow": 100.0,
      "threatDecreaseSpeed": 10.0
    },
    "returnToBornTactic": {
      "enable": true,
      "defaultSetting": {
        "speedLevel": 0,
        "fadeoutBeginTime": 1.0,
        "fadeoutEndTime": 4.5
      }
    },
    "followScriptedPathTactic": {
      "enable": false,
      "defaultSetting": {
        "turnSpeedOverrideWalk": 0.5,
        "turnSpeedOverrideRun": 0.5
      }
    },
    "wanderTactic": {
      "enable": false,
      "condition": {
        "pose": [100, 300]
      },
      "defaultSetting": {
        "speedLevel": 1,
        "turnSpeedOverride": 0.2,
        "cdMin": 0.0,
        "cdMax": 0.0,
        "distanceFromBorn": 25.0,
        "distanceFromCurrentMin": 7.5,
        "distanceFromCurrentMax": 10.0
      }
    },
    "skillGroupCDConfigs": [
      {
        //Melee
        "skillGroupCDID": 1,
        "skillGroupCDTime": 0.0
      },
      {
        //Ranged
        "skillGroupCDID": 2,
        "skillGroupCDTime": 10.0
      }
    ],
    "skills": {
      //////////////////////////////////////////////////
      //	Alert Skills
      //////////////////////////////////////////////////
      "102": {
        //å…¥æˆ˜æ”»å‡»
        "name": "OnAlert",
        "stateIDs": ["Life_Warning"],
        "skillType": "OnAlert",
        "skillQueryingTime": 3,
        "triggerGCD": false,
        "ignoreGCD": true,
        "faceTarget": false
      },
      //////////////////////////////////////////////////
      //	Attack Skills 201 ~ 299
      //////////////////////////////////////////////////
      "201": {
        //å‰æ–¹æ”»å‡»è¿?
        "priority": 5,
        "cd": 2.0,
        "cdUpperRange": 0.0,
        "initialCD": 0.0,
        "skillGroupCDID": 1, //Melee Attack GroupCD
        "triggerGCD": false,
        "ignoreGCD": true,
        "flagTargetReachable": "11",
        "combatSkillType": "RangedAttack",
        "name": "Attack01",
        "stateIDs": ["Attack01", "Attack01_BS"],
        "castCondition": {
          "pickRangeMin": 8.5,
          "pickRangeMax": 15.0,
          "castRangeMin": 8.5,
          "castRangeMax": 15.0,
          "pose": [2101, 2201, 2301]
        }
      },
      "211": {
        //å‰æ–¹æ”»å‡»è¿?
        "priority": 5,
        "cd": 5.0,
        "cdUpperRange": 5.0,
        "initialCD": 5.0,
        "initialCDUpperRange": 5.0,
        "skillGroupCDID": 1, //Melee Attack GroupCD
        "triggerGCD": false,
        "ignoreGCD": true,
        "flagTargetReachable": "11",
        "combatSkillType": "RangedAttack",
        "name": "Attack01",
        "stateIDs": ["Attack01", "Attack01_BS"],
        "castCondition": {
          "pickRangeMin": 8.5,
          "pickRangeMax": 15.0,
          "castRangeMin": 8.5,
          "castRangeMax": 15.0,
          "pose": [2101, 2201, 2301]
        }
      },
      "202": {
        //å‰æ–¹æ”»å‡»è¿?
        "priority": 5,
        "cd": 2.0,
        "cdUpperRange": 0.0,
        "initialCD": 0.0,
        "skillGroupCDID": 1, //Melee Attack GroupCD
        "triggerGCD": false,
        "ignoreGCD": true,
        "flagTargetReachable": "11",
        "flagSelfInZone": "11",
        "combatSkillType": "MeleeAttack",
        "name": "Attack01_Close",
        "stateIDs": ["Attack01Close_BS", "Attack01Close"],
        "castCondition": {
          "pickRangeMin": 0.0,
          "pickRangeMax": 8.5,
          "castRangeMin": 0.0,
          "castRangeMax": 8.5,
          "pose": [1101, 1201, 1301, 2101, 2201, 2301]
        }
      },
      "212": {
        //å‰æ–¹æ”»å‡»è¿?
        "priority": 5,
        "cd": 5.0,
        "cdUpperRange": 5.0,
        "initialCD": 5.0,
        "initialCDUpperRange": 5.0,
        "skillGroupCDID": 1, //Melee Attack GroupCD
        "triggerGCD": false,
        "ignoreGCD": true,
        "flagTargetReachable": "11",
        "flagSelfInZone": "11",
        "combatSkillType": "MeleeAttack",
        "name": "Attack01_Close",
        "stateIDs": ["Attack01Close_BS", "Attack01Close"],
        "castCondition": {
          "pickRangeMin": 0.0,
          "pickRangeMax": 8.5,
          "castRangeMin": 0.0,
          "castRangeMax": 8.5,
          "pose": [1101, 1201, 1301, 2101, 2201, 2301]
        }
      },
      "203": {
        //å¶ç‰‡æ”»å‡»
        "priority": 1,
        "cd": 3.0,
        "cdUpperRange": 0.0,
        "initialCD": 3.0,
        "skillGroupCDID": 1, //Melee Attack GroupCD
        "flagTargetReachable": "11",
        "flagSelfInZone": "11",
        "combatSkillType": "Unclassified",
        "name": "Attack02",
        "stateIDs": [
          "RevengeAttack_BS",
          "RevengeAttack",
          "DigMove",
          "DigOut",
          "DigOut_BS",
          "DigOut_EndDelay"
        ],
        "castCondition": {
          "pickRangeMin": 0.0,
          "pickRangeMax": 5.0,
          "castRangeMin": 0.0,
          "castRangeMax": 5.0,
          "pose": [1101, 1201, 1301]
        }
      },
      //////////////////////////////////////////////////
      //	FruitSkill Skills 301 ~ 399
      //////////////////////////////////////////////////
      "301": {
        "priority": 1,
        "cd": 10.0,
        "initialCD": 10.0,
        "skillGroupCDID": 2, //Ranged Attack GroupCD
        "flagTargetReachable": "11",
        "flagSelfOnTemplateCollider": "11",
        "flagSelfInZone": "11",
        "combatSkillType": "RangedAttack",
        "publicCDGroup": "Mimik_FruitSkill",
        "name": "FruitSkill_ForwardShoot01",
        "stateIDs": [
          "RevengeAttack_BS",
          "RevengeAttack",
          "DigMove",
          "DigOut",
          "AbsorbFruit",
          "AbsorbFruit_Loop",
          "ForwardShoot01",
          "Down"
        ],
        "castCondition": {
          "pickRangeMin": 6.0,
          "pickRangeMax": 30.0,
          "castRangeMin": 0.0,
          "castRangeMax": 30.0,
          "pose": [1101, 1201, 1301, 2101, 2201, 2301, 3101, 3201, 3301]
        }
      },
      "302": {
        "priority": 1,
        "cd": 10.0,
        "cdUpperRange": 10.0,
        "initialCD": 10.0,
        "skillGroupCDID": 2, //Ranged Attack GroupCD
        "flagTargetReachable": "11",
        "flagSelfOnTemplateCollider": "11",
        "flagSelfInZone": "11",
        "combatSkillType": "RangedAttack",
        "publicCDGroup": "Mimik_FruitSkill",
        "name": "FruitSkill_ForwardShoot01",
        "stateIDs": [
          "DigMove",
          "DigOut",
          "AbsorbFruit",
          "AbsorbFruit_Loop",
          "ForwardShoot01",
          "Down"
        ],
        "castCondition": {
          "pickRangeMin": 0.0,
          "pickRangeMax": 3.0,
          "castRangeMin": 0.0,
          "castRangeMax": 30.0,
          "pose": [1101, 1201, 1301, 2101, 2201, 2301, 3101, 3201, 3301]
        }
      },
      "312": {
        //å‰æ–¹è¿žå°„
        "priority": 1,
        "cd": 10.0,
        "initialCD": 10.0,
        "skillGroupCDID": 2, //Ranged Attack GroupCD
        "flagTargetReachable": "11",
        "flagSelfOnTemplateCollider": "11",
        "flagSelfInZone": "11",
        "combatSkillType": "RangedAttack",
        "publicCDGroup": "Mimik_FruitSkill",
        "name": "FruitSkill_ForwardShoot01",
        "stateIDs": [
          "RevengeAttack_BS",
          "RevengeAttack",
          "DigMove",
          "DigOut",
          "DigOut_BS",
          "AbsorbFruit",
          "AbsorbFruit_Loop",
          "ForwardShoot01",
          "Down"
        ],
        "castCondition": {
          "pickRangeMin": 0.0,
          "pickRangeMax": 6.0,
          "castRangeMin": 0.0,
          "castRangeMax": 30.0,
          "pose": [1101, 1201, 1301, 2101, 2201, 2301]
        }
      },
      //////////////////////////////////////////////////
      //	Revenge Skills 401 ~ 499
      //////////////////////////////////////////////////
      // "401":
      // {
      // 	//æ—‹è½¬åå‡»
      // 	"priority": 1,
      // 	"cd": 3.0,
      // 	"cdUpperRange": 3.0,
      // 	"initialCD": 4.0,
      // 	"skillGroupCDID": 1,//Melee Attack GroupCD
      // 	"combatSkillType": "Unclassified",
      // 	"name": "RevengeAttack01",
      // 	"stateIDs": ["RevengeAttack_BS", "RevengeAttack", "DigMove", "DigOut", "DigOut_BS"],
      // 	"castCondition":
      // 	{
      // 		"pickRangeMin": 0.0,
      // 		"pickRangeMax": 3.0,
      // 		"castRangeMin": 0.0,
      // 		"castRangeMax": 3.0,
      // 		"maxTargetAngleY": 180,
      // 		"pose": [1101, 1201, 1301],
      // 	},
      // },
      // "402":
      // {
      // 	//é’»åœ°åå‡»
      // 	"priority": 1,
      // 	"cd": 3.0,
      // 	"initialCD": 4.0,
      // 	"combatSkillType": "Unclassified",
      // 	"name": "DigMoveFar",
      // 	"stateIDs": ["DigMove", "DigOut", "DigOut_BS"],
      // 	"triggerGCD": false,
      // 	"ignoreGCD": true,
      // 	"castCondition":
      // 	{
      // 		"pickRangeMin": 3.0,
      // 		"pickRangeMax": 50.0,
      // 		"castRangeMin": 0.0,
      // 		"castRangeMax": 50.0,
      // 		"pose": [1101, 1201, 1301],
      // 	},
      // },
      //////////////////////////////////////////////////
      //	Dig Skills 501 ~ 599
      //////////////////////////////////////////////////
      "501": {
        //éšæœºé’»åœ°
        "flagTargetReachable": "11",
        "flagTargetInZone": "10",
        "cd": 0.0,
        "initialCD": 0.0,
        "combatSkillType": "Unclassified",
        "name": "DigMoveClose",
        "stateIDs": ["DigMove", "DigMoveRandom", "DigOut", "DigOut_EndDelay"],
        "triggerGCD": false,
        "ignoreGCD": true,
        "castCondition": {
          "pickRangeMin": 0.0,
          "pickRangeMax": 50.0,
          "castRangeMin": 0.0,
          "castRangeMax": 50.0,
          "pose": [3101, 3201, 3301]
        }
      },
      "502": {
        //è¿œç¦»é’»åœ°
        "cd": 15.0,
        "initialCD": 3.0,
        "combatSkillType": "Unclassified",
        "flagSelfInZone": "11",
        "name": "DigMoveFar",
        "stateIDs": ["DigMove", "DigOut", "DigOut_EndDelay", "DigOut_BS"],
        "triggerGCD": false,
        "ignoreGCD": true,
        "castCondition": {
          "pickRangeMin": 0.0,
          "pickRangeMax": 50.0,
          "castRangeMin": 0.0,
          "castRangeMax": 50.0,
          "pose": [1101, 1201, 1301]
        }
      },
      // "503":
      // {
      // 	//å›žå½’é˜²å¾¡åŒºé’»åœ?
      // 	"cd": 0.0,
      // 	"initialCD": 0.0,
      // 	"combatSkillType": "Unclassified",
      // 	"name": "DigMoveBack",
      // 	"stateIDs": ["DigMove", "DigOut", "DigOut_EndDelay", "DigOut_BS"],
      // 	"flagSelfInZone": "01",
      // 	"flagTargetInZone": "11",
      // 	"flagTargetReachable": "11",
      // 	"triggerGCD": false,
      // 	"ignoreGCD": true,
      // 	"castCondition":
      // 	{
      // 		"pickRangeMin": 0.0,
      // 		"pickRangeMax": 50.0,
      // 		"castRangeMin": 0.0,
      // 		"castRangeMax": 50.0,
      // 		"pose": [1101, 1201, 1301, 2101, 2201, 2301, 3101, 3201, 3301],
      // 	},
      // },
      //////////////////////////////////////////////////
      //	FruitReborn Skills 601 ~ 699
      //////////////////////////////////////////////////
      "601": {
        "cd": 0.0,
        "initialCD": 0.0,
        "combatSkillType": "Unclassified",
        "flagSelfInZone": "11",
        "flagTargetReachable": "11",
        "name": "FruitReborn",
        "stateIDs": ["FruitReborn"],
        "triggerGCD": false,
        "ignoreGCD": true,
        "castCondition": {
          "pose": [2001]
        }
      }
    }
  },
  "audio": {
    "$type": "ConfigMonsterAudio",
    "animAudio": {
      "onTransitionOut": [
        {
          "currentStateName": "ForwardShoot01_Shoot",
          "audioEvent": {
            "text": "Stop_sfx_monster_mimik_ice_forwardShoot_01_shoot"
          },
          "otherStateNames": [],
          "usage": "Any"
        },
        {
          "currentStateName": "AbsorbFruit_Loop",
          "audioEvent": {
            "text": "Stop_sfx_monster_mimik_ice_absorbFruit"
          },
          "otherStateNames": [],
          "usage": "Any"
        },
        {
          "currentStateName": "Down_Loop",
          "audioEvent": {
            "text": "Stop_sfx_monster_mimik_ice_down_lp"
          },
          "otherStateNames": [],
          "usage": "Any"
        }
      ],
      "onTransitionIn": [
        {
          "currentStateName": "ForwardShoot01_Shoot",
          "audioEvent": {
            "text": "Play_sfx_monster_mimik_ice_forwardShoot_01_shoot"
          },
          "otherStateNames": [],
          "usage": "Any"
        },
        {
          "currentStateName": "AbsorbFruit_Loop",
          "audioEvent": {
            "text": "Play_sfx_monster_mimik_ice_absorbFruit"
          },
          "otherStateNames": [],
          "usage": "Any"
        },
        {
          "currentStateName": "Down_Loop",
          "audioEvent": {
            "text": "Play_sfx_monster_mimik_ice_down_lp"
          },
          "otherStateNames": [],
          "usage": "Any"
        }
      ]
    },
    "disableEvent": {
      "text": ""
    },
    "destroyEvent": {
      "text": ""
    }
  }
}
