{
  "$type": "ConfigMonster",
  "common": {
    "mass": 10000.0,
    "height": 3,
    "affectedByWorld": true,
    "checkInSurface": true,
    "scale": 1.2,
    "viewSize": 1,
    "clearAnimatorOnSetLightDeactive": true,
    "clearAIOnSetLightDeactive": true,
    "effectAttachShape": {
      "$type": "ConfigEffectAttachSkinnedMesh",
      "mesh": "Body",
      "normalOffset": 0,
      "scaleX": 1,
      "scaleY": 1,
      "scaleZ": 1
    }
  },
  "dither": {
    "showDitherDuration": 2.0,
    "normalBetweenCamera": {
      "detectDitherRange": 0.0
    }
  },
  "model": {
    "canBakeMesh": false
  },
  "billboard": {
    "$type": "ConfigCombatBillboard",
    "offset": {
      "x": 0,
      "y": 1.5,
      "z": 0
    },
    "radiusOffset": 1.0,
    "enableSelfAdapt": true,
    "showHPBar": true,
    "size": "Big"
  },
  "move": {
    "$type": "ConfigAnimatorMove",
    "positionModifyState": "None",
    "destroyRockWhenInit": true
  },
  "combat": {
    "property": {
      "endureType": "Monster_Boss_Other",
      "weight": 300 //weightLevel = 3
    },
    "combatLock": {
      "denyLockOn": false,
      "lockType": "Avatar&Monster_Lv4"
    },
    "beHit": {
      "hitBloodEffect": "",
      "hitAutoRedirect": false,
      "muteAllHit": false,
      "muteAllHitEffect": false,
      "muteAllHitText": false
    },
    "die": {
      "hasAnimatorDie": false,
      "dieDisappearEffect": "",
      "dieDisappearEffectDelay": 1.0,
      "dieEndTime": 1,
      "dieForceDisappearTime": 4,
      "muteHitBox": true,
      "dieDenyLockOn": true,
      "dieIsGhostToEnemy": true,
      "dieIgnoreTriggerBullet": true,
      "muteBillboard": true,
      "mutePushCollider": true
    },
    "animEvents": {
      "AtkL01": {
        "attackPattern": {
          "$type": "ConfigAttackCircle",
          "duration": 0.0,
          "height": 5,
          "triggerType": "TriggerNoRepeat",
          "fanAngle": 180.0,
          "radius": 7,
          "born": {
            "$type": "ConfigBornBySelf",
            "offset": {
              "x": 0.0,
              "y": 0.0,
              "z": 0.0
            }
          }
        },
        "attackInfo": {
          "attackProperty": {
            "damagePercentage": 1.0,
            "strikeType": "Blunt",
            "attackType": "Melee",
            "enBreak": 200.0,
            "elementDurability": 50,
            "elementType": "Electric"
          },
          "hitPattern": {
            "hitImpulseType": "LV5",
            "reboundRatio": 0,
            "hitHaltTime": 0.0,
            "hitHaltTimeScale": 0.01,
            "muteHitText": false
          },
          "forceCameraShake": true,
          "cameraShake": {
            "shakeType": "Center",
            "shakeRange": 1,
            "shakeTime": 0.3,
            "shakeDistance": 30.0
          }
        }
      },
      "AtkL02": {
        "attackPattern": {
          "$type": "ConfigAttackBox",
          "triggerType": "TriggerNoRepeat",
          "size": {
            "x": 5,
            "y": 5,
            "z": 13
          },
          "born": {
            "$type": "ConfigBornBySelf",
            "offset": {
              "x": 0.5, // + means up, - means down
              "y": 2.5, // + means left, - means right
              "z": 3 // + means forward, - means backward
            }
          }
        },
        "attackInfo": {
          "attackTag": "Effigy_Electric_MultiAtk1",
          "attackProperty": {
            "damagePercentage": 0.7,
            "strikeType": "Blunt",
            "attackType": "Melee",
            "enBreak": 200.0,
            "elementDurability": 50,
            "elementType": "Electric"
          },
          "hitPattern": {
            "overrideHitImpulse": {
              "hitLevel": "Air",
              "hitImpulseX": 900,
              "hitImpulseY": 600
            },
            "reboundRatio": 0,
            "hitHaltTime": 0.0,
            "hitHaltTimeScale": 0.01,
            "muteHitText": false,
            "retreatType": "ByHitDirection"
          }
        }
      },
      "AtkL03": {
        "attackPattern": {
          "$type": "ConfigAttackCircle",
          "duration": 0.0,
          "height": 3,
          "triggerType": "TriggerNoRepeat",
          "fanAngle": 150.0,
          "radius": 6,
          "born": {
            "$type": "ConfigBornBySelf",
            "offset": {
              "x": 0.0,
              "y": 0.0,
              "z": 2.5
            }
          }
        },
        "attackInfo": {
          "attackTag": "Effigy_Electric_MultiAtk2",
          "attackProperty": {
            "damagePercentage": 0.7,
            "strikeType": "Blunt",
            "attackType": "Melee",
            "enBreak": 200.0,
            "elementDurability": 50,
            "elementType": "Electric"
          },
          "hitPattern": {
            "overrideHitImpulse": {
              "hitLevel": "Air",
              "hitImpulseX": 600,
              "hitImpulseY": 600
            },
            "reboundRatio": 0,
            "hitHaltTime": 0.0,
            "hitHaltTimeScale": 0.01,
            "muteHitText": false
          },
          "forceCameraShake": true,
          "cameraShake": {
            "shakeType": "Center",
            "shakeRange": 0.8,
            "shakeTime": 0.25,
            "shakeDistance": 30.0
          }
        }
      },
      "AtkL04": {
        "attackPattern": {
          "$type": "ConfigAttackSphere",
          "triggerType": "TriggerNoRepeat",
          "radius": 6,
          "born": {
            "$type": "ConfigBornBySelf",
            "offset": {
              "x": 0.0,
              "y": 0.0,
              "z": 4
            }
          }
        },
        "attackInfo": {
          "attackTag": "Effigy_Electric_MultiAtk3",
          "attackProperty": {
            "damagePercentage": 1.0,
            "strikeType": "Blunt",
            "attackType": "Melee",
            "enBreak": 200.0,
            "elementDurability": 50,
            "elementType": "Electric"
          },
          "hitPattern": {
            "overrideHitImpulse": {
              "hitLevel": "Air",
              "hitImpulseX": 1000,
              "hitImpulseY": 600
            },
            "reboundRatio": 0,
            "hitHaltTime": 0.0,
            "hitHaltTimeScale": 0.01,
            "muteHitText": false
          },
          "forceCameraShake": true,
          "cameraShake": {
            "shakeType": "CustomVector",
            "shakeRange": 1.0,
            "shakeTime": 0.25,
            "shakeDistance": 30.0
          }
        }
      },
      "AtkL05": {
        "attackPattern": {
          "$type": "ConfigAttackBox",
          "triggerType": "TriggerNoRepeat",
          "size": {
            "x": 4,
            "y": 4.5,
            "z": 7
          },
          "born": {
            "$type": "ConfigBornBySelf",
            "offset": {
              "x": 0.0, // + means up, - means down
              "y": 2.5, // + means left, - means right
              "z": -1.0 // + means forward, - means backward
            }
          }
        },
        "attackInfo": {
          "attackProperty": {
            "damagePercentage": 0.5,
            "strikeType": "Blunt",
            "attackType": "Melee",
            "enBreak": 200.0,
            "elementDurability": 50,
            "elementType": "Electric"
          },
          "hitPattern": {
            "overrideHitImpulse": {
              "hitLevel": "Air",
              "hitImpulseX": 1000,
              "hitImpulseY": 600
            },
            "reboundRatio": 0,
            "hitHaltTime": 0.0,
            "hitHaltTimeScale": 0.01,
            "muteHitText": false,
            "retreatType": "ByTangent"
          }
        }
      },
      "AtkL06": {
        "attackPattern": {
          "$type": "ConfigAttackCircle",
          "duration": 0.0,
          "triggerType": "TriggerNoRepeat",
          "fanAngle": 360.0,
          "height": 3,
          "radius": 3.5,
          "born": {
            "$type": "ConfigBornBySelf",
            "offset": {
              "x": 0.0,
              "y": 0.0,
              "z": 0.0
            }
          }
        },
        "attackInfo": {
          "attackProperty": {
            "damagePercentage": 1.0,
            "strikeType": "Blunt",
            "attackType": "Melee",
            "enBreak": 200.0,
            "elementDurability": 50,
            "elementType": "Electric"
          },
          "hitPattern": {
            "hitImpulseType": "LV5",
            "reboundRatio": 0,
            "hitHaltTime": 0.0,
            "hitHaltTimeScale": 0.01,
            "muteHitText": false
          }
        }
      },
      "AtkL07": {
        "attackPattern": {
          "$type": "ConfigAttackCircle",
          "duration": 0.0,
          "triggerType": "TriggerNoRepeat",
          "fanAngle": 360.0,
          "height": 3,
          "radius": 5,
          "born": {
            "$type": "ConfigBornBySelf",
            "offset": {
              "x": 0.0,
              "y": 0.0,
              "z": 0.0
            }
          }
        },
        "attackInfo": {
          "attackProperty": {
            "damagePercentage": 1.0,
            "strikeType": "Blunt",
            "attackType": "Melee",
            "enBreak": 200.0,
            "elementDurability": 50,
            "elementType": "Electric"
          },
          "hitPattern": {
            "overrideHitImpulse": {
              "hitLevel": "Air",
              "hitImpulseX": 1000,
              "hitImpulseY": 600
            },
            "reboundRatio": 0,
            "hitHaltTime": 0.0,
            "hitHaltTimeScale": 0.01,
            "muteHitText": false
          }
        }
      },
      "AtkL08": {
        "attackPattern": {
          "$type": "ConfigAttackCircle",
          "duration": 0.0,
          "triggerType": "TriggerNoRepeat",
          "fanAngle": 360.0,
          "height": 3,
          "radius": 5,
          "born": {
            "$type": "ConfigBornBySelf",
            "offset": {
              "x": 0.0,
              "y": 0.0,
              "z": 0.0
            },
            "direction": {
              "$type": "ConfigDirectionByDefault",
              "angleOffset": {
                "x": 0.0,
                "y": 0.0,
                "z": 0.0
              }
            }
          }
        },
        "attackInfo": {
          "attackProperty": {
            "damagePercentage": 1.0,
            "strikeType": "Blunt",
            "attackType": "Melee",
            "enBreak": 200.0,
            "elementDurability": 50,
            "elementType": "Electric"
          },
          "hitPattern": {
            "overrideHitImpulse": {
              "hitLevel": "Air",
              "hitImpulseX": 1000,
              "hitImpulseY": 600
            },
            "reboundRatio": 0,
            "hitHaltTime": 0.0,
            "hitHaltTimeScale": 0.01,
            "muteHitText": false
          },
          "forceCameraShake": true,
          "cameraShake": {
            "shakeType": "Center",
            "shakeRange": 1,
            "shakeTime": 0.3,
            "shakeDistance": 30.0
          }
        }
      }
    }
  },
  "inputKeys": [
    {
      "keyID": 201,
      "inputKeyCode": 257
    },
    {
      "keyID": 301,
      "inputKeyCode": 258
    },
    {
      "keyID": 401,
      "inputKeyCode": 259
    },
    {
      "keyID": 901,
      "inputKeyCode": 260
    },
    {
      "keyID": 602,
      "inputKeyCode": 261
    },
    {
      "keyID": 701,
      "inputKeyCode": 262
    },
    {
      "keyID": 801,
      "inputKeyCode": 263
    },
    {
      "keyID": 1101,
      "inputKeyCode": 264
    },
    {
      "keyID": 1001,
      "inputKeyCode": 265
    }
  ],
  "stateLayers": {
    "defaultLayer": {
      "$type": "ConfigNormalStateLayer",
      "stateIDs": {
        "Born": {
          "$type": "ConfigMonsterStateIDInfo",
          "animatorStates": {
            "Born": []
          },
          "combatMove": true,
          "canDoSkill": true,
          "canSyncMove": true,
          "resetAnimatorTriggerOnEnter": ["DoSkill", "ToShaderState2"],
          "resetAnimatorTriggerOnExit": ["DoSkill", "ToShaderState1"]
        },
        "Standby_BS": {
          "$type": "ConfigMonsterStateIDInfo",
          "animatorStates": {
            "Standby_BS": []
          },
          "combatMove": true,
          "canSyncMove": true,
          "cullingModelAlwaysAnimate": true,
          "resetAnimatorTriggerOnEnter": ["DoSkill", "ToShaderState2"],
          "resetAnimatorTriggerOnExit": ["DoSkill", "ToShaderState1"]
        },
        "Standby_AS": {
          "$type": "ConfigMonsterStateIDInfo",
          "animatorStates": {
            "Standby_AS": []
          },
          "combatMove": true,
          "canDoSkill": true,
          "canSyncMove": true,
          "cullingModelAlwaysAnimate": true,
          "resetAnimatorTriggerOnEnter": ["DoSkill", "ToShaderState2"],
          "resetAnimatorTriggerOnExit": ["DoSkill", "ToShaderState1"]
        },
        "StandbyFree": {
          "$type": "ConfigMonsterStateIDInfo",
          "animatorStates": {
            "StandbyFree": []
          },
          "combatMove": true,
          "canDoSkill": true,
          "canSyncMove": true,
          "cullingModelAlwaysAnimate": true,
          "resetAnimatorTriggerOnEnter": ["DoSkill", "ToShaderState2"],
          "resetAnimatorTriggerOnExit": ["DoSkill", "ToShaderState1"]
        },
        "BeHit": {
          "$type": "ConfigMonsterStateIDInfo",
          "animatorStates": {
            "Hit_L": [],
            "Hit_H": []
          },
          "combatMove": true,
          "resetAnimatorTriggerOnEnter": ["BeHit"],
          "resetAnimatorTriggerOnExit": ["DoSkill", "ToShaderState1"]
        },
        "BeHitThrow": {
          "$type": "ConfigMonsterStateIDInfo",
          "animatorStates": {
            "HitThrow": [],
            "HitThrowDrop": [],
            "HitThrowToGround": []
          },
          "combatMove": true,
          "resetAnimatorTriggerOnEnter": ["BeHit", "HitAir2HitDrop"],
          "resetAnimatorTriggerOnExit": ["DoSkill", "ToShaderState1"]
        },
        "Die": {
          "$type": "ConfigMonsterStateIDInfo",
          "animatorStates": {
            "Die": ["Monster_Effigy_Electric_Die"],
            "SwimDie": ["Monster_Effigy_Electric_Die"]
          }
        },
        "Dying": {
          "$type": "ConfigMonsterStateIDInfo",
          "animatorStates": {
            "Dying_Blink": ["Monster_Effigy_Electric_BlinkReborn"],
            "Dying_AS": [
              "Monster_Effigy_Electric_Reborn",
              "Audio_Effigy_SingleAtk_CoreOutAS"
            ],
            "Dying_BS": []
          },
          "cullingModelAlwaysAnimate": true,
          "resetAnimatorTriggerOnExit": ["BeHit", "DoSkill"]
        },
        "Warning": {
          "$type": "ConfigMonsterStateIDInfo",
          "animatorStates": {
            "Warning": []
          },
          "combatMove": true,
          "resetAnimatorTriggerOnExit": ["BeHit", "DoSkill", "ToShaderState1"]
        },
        "ElectricRush_BS": {
          "$type": "ConfigMonsterStateIDInfo",
          "animatorStates": {
            "ElectricRush_BS": ["Monster_Effigy_Electric_ElectricRushBS"]
          },
          "combatMove": true,
          "cullingModelAlwaysAnimate": true,
          "resetAnimatorTriggerOnExit": ["BeHit", "DoSkill"]
        },
        "ElectricRush_Loop": {
          "$type": "ConfigMonsterStateIDInfo",
          "animatorStates": {
            "ElectricRush_Loop": ["Monster_Effigy_Electric_ElectricRushLoop"]
          },
          "combatMove": true,
          "cullingModelAlwaysAnimate": true,
          "resetAnimatorTriggerOnExit": ["BeHit", "DoSkill"]
        },
        "ElectricRush_AS": {
          "$type": "ConfigMonsterStateIDInfo",
          "animatorStates": {
            "ElectricRush_AS": [
              "Monster_Effigy_Electric_ElectricRushAS",
              "Audio_Effigy_ElecticRush_AS",
              "Monster_Effigy_Electric_Randomed"
            ],
            "ElectricRush_Crash": [
              "Monster_Effigy_Electric_ElectricRushAS",
              "Audio_Effigy_ElecticRush_AS",
              "Monster_Effigy_Electric_Randomed"
            ]
          },
          "combatMove": true,
          "cullingModelAlwaysAnimate": true,
          "resetAnimatorTriggerOnExit": [
            "BeHit",
            "RushCrashTrigger",
            "RushHitSceneTrigger",
            "DoSkill",
            "RushAwayTrigger"
          ]
        },
        "RushAway": {
          "$type": "ConfigMonsterStateIDInfo",
          "animatorStates": {
            "RushAway_BS": []
          },
          "combatMove": true,
          "canSyncMove": true,
          "cullingModelAlwaysAnimate": true,
          "resetAnimatorTriggerOnExit": ["BeHit", "DoSkill"]
        },
        "RushAway_AS": {
          "$type": "ConfigMonsterStateIDInfo",
          "animatorStates": {
            "RushAway_AS": ["Audio_Effigy_SingleAtk_CoreOutAS"]
          },
          "combatMove": true,
          "canSteer": true,
          "canDoSkill": true,
          "canSyncMove": true,
          "cullingModelAlwaysAnimate": true,
          "resetAnimatorTriggerOnExit": ["BeHit", "DoSkill"]
        },
        "ElectricBarrage": {
          "$type": "ConfigMonsterStateIDInfo",
          "animatorStates": {
            "ElectricBarrage_BS": ["Monster_Effigy_Electric_ElectricBarrageBS"],
            "ElectricBarrage_Loop1": [],
            "ElectricBarrage_AS1": [
              "Monster_Effigy_Electric_ElectricBarrageAS1"
            ],
            "ElectricBarrage_Loop2": [
              "Monster_Effigy_Electric_ElectricBarrageLoop2"
            ],
            "ElectricBarrage_AS2": [
              "Monster_Effigy_Electric_ElectricBarrageAS2",
              "Audio_Effigy_SingleAtk_CoreOutAS",
              "Monster_Effigy_Electric_Randomed"
            ]
          },
          "combatMove": true,
          "resetAnimatorTriggerOnExit": ["BeHit", "DoSkill", "RushAwayTrigger"],
          "cullingModelAlwaysAnimate": true
        },
        "ElectricDefence": {
          "$type": "ConfigMonsterStateIDInfo",
          "animatorStates": {
            "ElectricDefence_BS": ["Monster_Effigy_Electric_ElectricDefenceBS"],
            "ElectricDefence_Loop": [],
            "ElectricDefence_AS1": [
              "Monster_Effigy_Electric_ElectricDefenceAS1"
            ],
            "ElectricDefence_AS2": [
              "Monster_Effigy_Electric_Randomed",
              "Audio_Effigy_SingleAtk_CoreOutAS"
            ]
          },
          "combatMove": true,
          "resetAnimatorTriggerOnExit": [
            "BeHit",
            "ElectricDefenceStopTrigger",
            "DoSkill",
            "RushAwayTrigger"
          ],
          "cullingModelAlwaysAnimate": true
        },
        "SingleAtk": {
          "$type": "ConfigMonsterStateIDInfo",
          "animatorStates": {
            "SingleAtk": ["Monster_Effigy_Electric_SingleAtk"],
            "SingleAtk_CoreOutLoop": [],
            "SingleAtk_CoreOutAS": [
              "Monster_Effigy_Electric_SingleAtk_CoreOutAS",
              "Monster_Effigy_Electric_Randomed",
              "Audio_Effigy_SingleAtk_CoreOutAS"
            ]
          },
          "combatMove": true,
          "resetAnimatorTriggerOnExit": ["BeHit", "DoSkill", "RushAwayTrigger"],
          "cullingModelAlwaysAnimate": true
        },
        "SingleAtk_Rush": {
          "$type": "ConfigMonsterStateIDInfo",
          "animatorStates": {
            "SingleAtk_Rush": ["Monster_Effigy_Electric_RushMove"]
          },
          "combatMove": true,
          "canSteer": true,
          "canSyncMove": true,
          "cullingModelAlwaysAnimate": true,
          "resetAnimatorTriggerOnExit": [
            "BeHit",
            "DoSkill",
            "SingleAtk_RushStop"
          ]
        },
        "MultiAtk": {
          "$type": "ConfigMonsterStateIDInfo",
          "animatorStates": {
            "MultiAtk": [
              "Monster_Effigy_Electric_MultiAtk",
              "Audio_Effigy_MultiAtk_AS"
            ],
            "MultiAtk_CoreOutLoop": [],
            "MultiAtk_CoreOutAS": [
              "Monster_Effigy_Electric_SingleAtk_CoreOutAS",
              "Monster_Effigy_Electric_Randomed",
              "Audio_Effigy_SingleAtk_CoreOutAS"
            ]
          },
          "combatMove": true,
          "resetAnimatorTriggerOnExit": ["BeHit", "DoSkill", "RushAwayTrigger"],
          "cullingModelAlwaysAnimate": true
        },
        "MultiAtk_Rush": {
          "$type": "ConfigMonsterStateIDInfo",
          "animatorStates": {
            "MultiAtk_Rush": [
              "Monster_Effigy_Electric_RushMove",
              "Audio_Effigy_RushMove_Loop"
            ]
          },
          "combatMove": true,
          "canSteer": true,
          "canSyncMove": true,
          "cullingModelAlwaysAnimate": true,
          "resetAnimatorTriggerOnExit": [
            "BeHit",
            "DoSkill",
            "MultiAtk_RushStop"
          ]
        },
        "AreaAtk": {
          "$type": "ConfigMonsterStateIDInfo",
          "animatorStates": {
            "AreaAtk_BS": ["Monster_Effigy_Electric_AreaAtkBS"],
            "AreaAtk_Loop1": [],
            "AreaAtk_AS1": [
              "Monster_Effigy_Electric_AreaAtkAS1",
              "Audio_Effigy_AreaAtk_AS1"
            ],
            "AreaAtk_Loop2": [],
            "AreaAtk_AS2": [
              "Monster_Effigy_Electric_AreaAtkAS2",
              "Monster_Effigy_Electric_Randomed",
              "Audio_Effigy_SingleAtk_CoreOutAS"
            ]
          },
          "combatMove": true,
          "cullingModelAlwaysAnimate": true,
          "resetAnimatorTriggerOnExit": ["BeHit", "DoSkill", "RushAwayTrigger"]
        },
        "RangeAtk": {
          "$type": "ConfigMonsterStateIDInfo",
          "animatorStates": {
            "RangeAtk_BS": ["Monster_Effigy_Electric_RangeAtkBS"],
            "RangeAtk_Loop1": ["Monster_Effigy_Electric_RangeAtkLoop1"],
            "RangeAtk_Loop2": ["Monster_Effigy_Electric_RangeAtkLoop2"],
            "RangeAtk_AS": [
              "Monster_Effigy_Electric_RangeAtkAS",
              "Audio_Effigy_RangeAtk_AS",
              "Monster_Effigy_Electric_Randomed"
            ]
          },
          "combatMove": true,
          "canSteer": true,
          "resetAnimatorTriggerOnExit": ["BeHit", "DoSkill", "RushAwayTrigger"],
          "cullingModelAlwaysAnimate": true
        },
        "ElectricDefenceRush": {
          "$type": "ConfigMonsterStateIDInfo",
          "animatorStates": {
            "ElectricDefenceRush_BS": [
              "Monster_Effigy_Electric_ElectricDefenceRushBS"
            ],
            "ElectricDefenceRush_Loop": ["Audio_Effigy_RushMove_Loop"]
          },
          "combatMove": true,
          "cullingModelAlwaysAnimate": true,
          "resetAnimatorTriggerOnExit": [
            "BeHit",
            "DoSkill",
            "RushToCenterStopTrigger",
            "RushToCenterCancleTrigger",
            "ToShaderState2"
          ]
        },
        "AreaRush": {
          "$type": "ConfigMonsterStateIDInfo",
          "animatorStates": {
            "AreaAtkRush_BS": ["Monster_Effigy_Electric_ElectricDefenceRushBS"],
            "AreaAtkRush_Loop": ["Audio_Effigy_RushMove_Loop"]
          },
          "combatMove": true,
          "resetAnimatorTriggerOnExit": [
            "BeHit",
            "DoSkill",
            "RushToCenterStopTrigger",
            "RushToCenterCancleTrigger",
            "ToShaderState2"
          ],
          "cullingModelAlwaysAnimate": true
        },
        "AreaBlink": {
          "$type": "ConfigMonsterStateIDInfo",
          "animatorStates": {
            "AreaAtk_Blink": ["Monster_Effigy_Electric_BlinkAreaAtk"]
          },
          "combatMove": true,
          "resetAnimatorTriggerOnExit": [
            "BeHit",
            "DoSkill",
            "RushToCenterStopTrigger",
            "RushToCenterCancleTrigger",
            "ToShaderState2"
          ],
          "cullingModelAlwaysAnimate": true
        },
        "ElectricBarrageRush": {
          "$type": "ConfigMonsterStateIDInfo",
          "animatorStates": {
            "ElectricBarrageRush_BS": [
              "Monster_Effigy_Electric_ElectricDefenceRushBS"
            ],
            "ElectricBarrageRush_Loop": ["Audio_Effigy_RushMove_Loop"]
          },
          "combatMove": true,
          "cullingModelAlwaysAnimate": true,
          "resetAnimatorTriggerOnExit": [
            "BeHit",
            "DoSkill",
            "RushToCenterStopTrigger",
            "RushToCenterCancleTrigger",
            "ToShaderState2"
          ]
        },
        "FistAtk": {
          "$type": "ConfigMonsterStateIDInfo",
          "animatorStates": {
            "FistAtk": [
              "Monster_Effigy_Electric_FistAtk",
              "Audio_Effigy_FistAtk_AS",
              "Monster_Effigy_Electric_Randomed"
            ],
            "FistAtk_CoreOutLoop": [],
            "FistAtk_CoreOutAS": [
              "Monster_Effigy_Electric_SingleAtk_CoreOutAS",
              "Monster_Effigy_Electric_Randomed",
              "Audio_Effigy_SingleAtk_CoreOutAS"
            ]
          },
          "combatMove": true,
          "resetAnimatorTriggerOnExit": ["BeHit", "DoSkill"],
          "cullingModelAlwaysAnimate": true
        },
        "FistAtk_Rush": {
          "$type": "ConfigMonsterStateIDInfo",
          "animatorStates": {
            "FistAtk_Rush": ["Monster_Effigy_Electric_RushMove"]
          },
          "combatMove": true,
          "canSteer": true,
          "canSyncMove": true,
          "cullingModelAlwaysAnimate": true,
          "resetAnimatorTriggerOnExit": ["BeHit", "DoSkill", "FistAtk_RushStop"]
        },
        "ReturnToBorn": {
          "$type": "ConfigMonsterStateIDInfo",
          "animatorStates": {
            "ReturnToBorn": [],
            "ReturnToBorn_Blink": [
              "Monster_Effigy_Electric_ReturnToBorn",
              "Audio_Effigy_SingleAtk_CoreOutAS"
            ],
            "ReturnToBorn_AS": []
          },
          "combatMove": true,
          "canSyncMove": true,
          "resetAnimatorTriggerOnExit": ["BeHit", "DoSkill"],
          "cullingModelAlwaysAnimate": true
        },
        // Elite
        "RangeAtk_Elite": {
          "$type": "ConfigMonsterStateIDInfo",
          "animatorStates": {
            "RangeAtk_Elite_BS": [
              "Monster_Effigy_Electric_Elite_RangeAtkBS",
              "Audio_Effigy_RangeAtk_BS"
            ],
            "RangeAtk_Elite_Loop1": [
              "Monster_Effigy_Electric_Elite_RangeAtkLoop1"
            ],
            "RangeAtk_Elite_Loop2": [
              "Monster_Effigy_Electric_Elite_RangeAtkLoop2"
            ],
            "RangeAtk_Elite_Loop3": [
              "Monster_Effigy_Electric_Elite_RangeAtkLoop3"
            ],
            "RangeAtk_Elite_Loop4": [],
            "RangeAtk_Elite_AS": [
              "Monster_Effigy_Electric_Elite_RangeAtkAS",
              "Audio_Effigy_RangeAtk_AS_1",
              "Monster_Effigy_Electric_Randomed"
            ]
          },
          "combatMove": true,
          "canSteer": true,
          "resetAnimatorTriggerOnExit": ["BeHit", "DoSkill", "RushAwayTrigger"],
          "cullingModelAlwaysAnimate": true
        }
      }
    }
  },
  "abilities": [
    {
      "abilityID": "Monster_Effigy_Electric_Steer",
      "abilityName": "Monster_Effigy_Electric_Steer"
    },
    {
      "abilityID": "Monster_Effigy_Electric_StandyEffect",
      "abilityName": "Monster_Effigy_Electric_StandyEffect"
    },
    {
      "abilityID": "Monster_Effigy_Electric_ThunderRush",
      "abilityName": "Monster_Effigy_Electric_ThunderRush"
    },
    {
      "abilityID": "Monster_Effigy_Electric_RangeAtkWave1",
      "abilityName": "Monster_Effigy_Electric_RangeAtkWave1"
    },
    {
      "abilityID": "Monster_Effigy_Electric_RangeAtkWave2",
      "abilityName": "Monster_Effigy_Electric_RangeAtkWave2"
    },
    {
      "abilityID": "Monster_Effigy_Electric_RangeAtkWave3",
      "abilityName": "Monster_Effigy_Electric_RangeAtkWave3"
    },
    {
      "abilityID": "Monster_Effigy_Electric_RangeAtkWave4",
      "abilityName": "Monster_Effigy_Electric_RangeAtkWave4"
    },
    {
      "abilityID": "Monster_Effigy_Electric_RangeAtkWave5",
      "abilityName": "Monster_Effigy_Electric_RangeAtkWave5"
    },
    {
      "abilityID": "Monster_Effigy_Electric_RangeAtkWave6",
      "abilityName": "Monster_Effigy_Electric_RangeAtkWave6"
    },
    {
      "abilityID": "Monster_Effigy_Electric_RangeAtkWave7",
      "abilityName": "Monster_Effigy_Electric_RangeAtkWave7"
    },
    {
      "abilityID": "Monster_Effigy_Electric_RangeAtkWave8",
      "abilityName": "Monster_Effigy_Electric_RangeAtkWave8"
    },
    {
      "abilityID": "Monster_Effigy_Electric_RangeAtkSetRender",
      "abilityName": "Monster_Effigy_Electric_RangeAtkSetRender"
    },
    {
      "abilityID": "Monster_Effigy_ElectricBarrage_CreateEmitter",
      "abilityName": "Monster_Effigy_ElectricBarrage_CreateEmitter"
    },
    {
      "abilityID": "Monster_Effigy_ElectricBarrage_SetRender",
      "abilityName": "Monster_Effigy_ElectricBarrage_SetRender"
    },
    {
      "abilityID": "Monster_Effigy_ElectricDefence_CreateDefencePartCentre",
      "abilityName": "Monster_Effigy_ElectricDefence_CreateDefencePartCentre"
    },
    {
      "abilityID": "Monster_Effigy_Electric_SetCoreOutPose",
      "abilityName": "Monster_Effigy_Electric_SetCoreOutPose"
    },
    {
      "abilityID": "Monster_Effigy_Electric_SetCoreInPose",
      "abilityName": "Monster_Effigy_Electric_SetCoreInPose"
    },
    {
      "abilityID": "Monster_Effigy_Electric_Core",
      "abilityName": "Monster_Effigy_Electric_Core"
    },
    {
      "abilityID": "Monster_Effigy_Electric_Shield",
      "abilityName": "Monster_Effigy_Electric_Shield"
    },
    {
      "abilityID": "Monster_Effigy_Electric_KillDefencePart",
      "abilityName": "Monster_Effigy_Electric_KillDefencePart"
    },
    {
      "abilityID": "Monster_Effigy_Electric_SetSelfAttackTarget",
      "abilityName": "Monster_Effigy_Electric_SetSelfAttackTarget"
    },
    {
      "abilityID": "Monster_Effigy_Electric_RushToCenter",
      "abilityName": "Monster_Effigy_Electric_RushToCenter"
    },
    {
      "abilityID": "Monster_Effigy_Electric_AreaAtk",
      "abilityName": "Monster_Effigy_Electric_AreaAtk"
    },
    {
      "abilityID": "Monster_Effigy_Electric_ShaderState1ToState2",
      "abilityName": "Monster_Effigy_Electric_ShaderState1ToState2"
    },
    {
      "abilityID": "Monster_Effigy_Electric_ShaderState2ToState1",
      "abilityName": "Monster_Effigy_Electric_ShaderState2ToState1"
    },
    {
      "abilityID": "Monster_Effigy_Electric_RebornPose",
      "abilityName": "Monster_Effigy_Electric_RebornPose"
    },
    {
      "abilityID": "Monster_Effigy_Electric_HpDetect",
      "abilityName": "Monster_Effigy_Electric_HpDetect"
    },
    {
      "abilityID": "Monster_Effigy_Electric_CreateRebornPart",
      "abilityName": "Monster_Effigy_Electric_CreateRebornPart"
    },
    {
      "abilityID": "Monster_Effigy_Electric_CreateRebornPart1",
      "abilityName": "Monster_Effigy_Electric_CreateRebornPart1"
    },
    {
      "abilityID": "Monster_Effigy_Electric_CreateRebornPart2",
      "abilityName": "Monster_Effigy_Electric_CreateRebornPart2"
    },
    {
      "abilityID": "Monster_Effigy_Electric_CreateRebornPart3",
      "abilityName": "Monster_Effigy_Electric_CreateRebornPart3"
    },
    {
      "abilityID": "Monster_Effigy_Electric_HealHp",
      "abilityName": "Monster_Effigy_Electric_HealHp"
    },
    {
      "abilityID": "Monster_Effigy_Electric_Die",
      "abilityName": "Monster_Effigy_Electric_Die"
    },
    {
      "abilityID": "Monster_Effigy_Electric_SetDyingPose",
      "abilityName": "Monster_Effigy_Electric_SetDyingPose"
    },
    {
      "abilityID": "Monster_Effigy_Electric_SetRebornPose",
      "abilityName": "Monster_Effigy_Electric_SetRebornPose"
    },
    {
      "abilityID": "Monster_Eggify_Electric_GenerateElemball",
      "abilityName": "Monster_Eggify_Electric_GenerateElemball"
    },
    {
      "abilityID": "Monster_Effigy_Electric_RandomMove",
      "abilityName": "Monster_Effigy_Electric_RandomMove"
    },
    {
      "abilityID": "Monster_Effigy_Electric_RandomMoveStart",
      "abilityName": "Monster_Effigy_Electric_RandomMoveStart"
    },
    {
      "abilityID": "Monster_Effigy_Electric_BlinkStart",
      "abilityName": "Monster_Effigy_Electric_BlinkStart"
    },
    {
      "abilityID": "Monster_Effigy_Electric_FindBlinkPoint",
      "abilityName": "Monster_Effigy_Electric_FindBlinkPoint"
    },
    {
      "abilityID": "Monster_Effigy_Electric_Blink",
      "abilityName": "Monster_Effigy_Electric_Blink"
    },
    {
      "abilityID": "Monster_Effigy_Electric_BlinkAS",
      "abilityName": "Monster_Effigy_Electric_BlinkAS"
    },
    {
      "abilityID": "Monster_Effigy_Electric_CoreOutAS",
      "abilityName": "Monster_Effigy_Electric_CoreOutAS"
    },
    {
      "abilityID": "Monster_Common_ElecMuteHurt",
      "abilityName": "Monster_Common_ElecMuteHurt"
    },
    {
      "abilityID": "Monster_Effigy_ReturnToBorn",
      "abilityName": "Monster_Effigy_ReturnToBorn"
    },
    {
      "abilityID": "Monster_Effigy_Electric_MultiAtk_SyncPos1",
      "abilityName": "Monster_Effigy_Electric_MultiAtk_SyncPos1"
    },
    {
      "abilityID": "Monster_Effigy_Electric_MultiAtk_SyncPos2",
      "abilityName": "Monster_Effigy_Electric_MultiAtk_SyncPos2"
    },
    {
      "abilityID": "Monster_Effigy_Electric_MultiAtk_SyncPos3",
      "abilityName": "Monster_Effigy_Electric_MultiAtk_SyncPos3"
    },
    //Effigy_Elite
    {
      "abilityID": "Monster_Effigy_Electric_Elite_SetEffigyEliteFlag",
      "abilityName": "Monster_Effigy_Electric_Elite_SetEffigyEliteFlag"
    },
    {
      "abilityID": "Monster_Effigy_Electric_Elite_SingleAtkChargeBullet",
      "abilityName": "Monster_Effigy_Electric_Elite_SingleAtkChargeBullet"
    },
    {
      "abilityID": "Monster_Effigy_Electric_Elite_RangeAtk_Start",
      "abilityName": "Monster_Effigy_Electric_Elite_RangeAtk_Start"
    },
    {
      "abilityID": "Monster_Effigy_Electric_Elite_CreateRebornPart",
      "abilityName": "Monster_Effigy_Electric_Elite_CreateRebornPart"
    },
    {
      "abilityID": "Monster_Effigy_Electric_Elite_CreatePile",
      "abilityName": "Monster_Effigy_Electric_Elite_CreatePile"
    },
    {
      "abilityID": "Effigy_Electric_Elite_RangeAtk_Wave1",
      "abilityName": "Effigy_Electric_Elite_RangeAtk_Wave1"
    },
    {
      "abilityID": "Effigy_Electric_Elite_RangeAtk_Wave2",
      "abilityName": "Effigy_Electric_Elite_RangeAtk_Wave2"
    },
    {
      "abilityID": "Effigy_Electric_Elite_RangeAtk_Wave3",
      "abilityName": "Effigy_Electric_Elite_RangeAtk_Wave3"
    },
    {
      "abilityID": "Monster_Effigy_Electric_Elite_FindBlinkPoint",
      "abilityName": "Monster_Effigy_Electric_Elite_FindBlinkPoint"
    }
  ],
  "initialPoses": {
    "Default": {
      "initialPoseID": 0
    }
  },
  "aibeta": {
    "enable": true,
    "moveSetting": {
      "useNavMesh": false
    },
    "skillGCD": 0,
    "profiling": {
      "lodStrategy": "Best"
    },
    "sensing": {
      "settings": {
        "DefaultSetting": {
          "viewPanoramic": true,
          "viewRange": 15,
          "feelRange": 7.5
        }
      },
      "templates": {
        "DefaultTemplate": {
          "DefaultPoses": "DefaultSetting"
        }
      }
    },
    "defendArea": {
      "defendRange": 50.0
    },
    "threat": {
      "clearThreatTargetDistance": 70.0,
      "clearThreatEdgeDistance": 7.5,
      "clearThreatByTargetOutOfZone": true,
      "viewThreatGrow": 35.0,
      "feelThreatGrow": 500.0,
      "threatDecreaseSpeed": 100,
      "resistTauntLevel": "Monster_TauntLevel_4"
    },
    "returnToBornTactic": {
      "enable": true,
      "condition": {
        "pose": [1, 101, 201, 301]
      },
      "defaultSetting": {
        "speedLevel": 0,
        "fadeoutBeginTime": 3.0,
        "fadeoutEndTime": 3.5
      }
    },
    "skillSetting": {
      "skillEliteSet": {
        "1": [402, 901, 601],
        "2": [403, 602, 1101]
      }
    },
    "skillGroupCDConfigs": [
      { "skillGroupCDID": 0, "skillGroupCDTime": 15 },
      { "skillGroupCDID": 1, "skillGroupCDTime": 15 },
      { "skillGroupCDID": 2, "skillGroupCDTime": 15 },
      { "skillGroupCDID": 3, "skillGroupCDTime": 15 }
    ],
    "skills": {
      "100": {
        "name": "OnAlert",
        "stateIDs": ["Warning"],
        "skillType": "OnAlert",
        "skillQueryingTime": 3.5,
        "triggerGCD": false,
        "faceTarget": true,
        "castCondition": {
          "pose": [1, 101, 201]
        }
      },
      "201": {
        "cd": 15,
        "cdUpperRange": 10,
        "skillQueryingTime": 3.5,
        "flagTargetReachable": "11",
        "name": "SingleAtk",
        "stateIDs": ["SingleAtk"],
        "skillGroupCDID": 0,
        "castCondition": {
          "pickRangeMin": 0.0,
          "pickRangeMax": 7.5,
          "pose": [101]
        }
      },
      "202": {
        "cd": 30,
        "cdUpperRange": 5,
        "priority": 4,
        "skillQueryingTime": 3.5,
        "flagTargetInZone": "10",
        "name": "SingleAtk",
        "stateIDs": ["SingleAtk", "SingleAtk_Rush"],
        "skillGroupCDID": 0,
        "castCondition": {
          "pickRangeMin": 10,
          "pickRangeMax": 25,
          "pose": [101]
        }
      },
      "301": {
        "cd": 15,
        "cdUpperRange": 7.5,
        "skillQueryingTime": 3.5,
        "priority": 4,
        "flagTargetReachable": "11",
        "name": "MultiAtk",
        "stateIDs": ["MultiAtk"],
        "skillGroupCDID": 1,
        "castCondition": {
          "pickRangeMin": 5,
          "pickRangeMax": 15,
          "pose": [101]
        }
      },
      "302": {
        "cd": 15,
        "cdUpperRange": 7.5,
        "skillQueryingTime": 3.5,
        "flagTargetInZone": "10",
        "priority": 4,
        "name": "MultiAtk",
        "stateIDs": ["MultiAtk", "MultiAtk_Rush"],
        "skillGroupCDID": 1,
        "castCondition": {
          "pickRangeMin": 15,
          "pickRangeMax": 50,
          "pose": [101]
        }
      },
      "401": {
        "cd": 15,
        "cdUpperRange": 7.5,
        "skillQueryingTime": 3.5,
        "flagTargetInZone": "10",
        "priority": 4,
        "name": "ElectricRush",
        "stateIDs": [
          "ElectricRush_BS",
          "ElectricRush_Loop",
          "ElectricRush_AS",
          "MultiAtk"
        ],
        "skillGroupCDID": 2,
        "castCondition": {
          "pickRangeMin": 12.5,
          "pickRangeMax": 50.0,
          "pose": [101]
        }
      },
      "402": {
        "cd": 15,
        "cdUpperRange": 7.5,
        "skillQueryingTime": 3.5,
        "flagTargetInZone": "10",
        "name": "ElectricRush",
        "priority": 4,
        "stateIDs": [
          "ElectricRush_BS",
          "ElectricRush_Loop",
          "ElectricRush_AS",
          "RangeAtk"
        ],
        "skillGroupCDID": 2,
        "castCondition": {
          "pickRangeMin": 0,
          "pickRangeMax": 7.5,
          "pose": [101]
        }
      },
      "403": {
        "cd": 15,
        "cdUpperRange": 7.5,
        "skillQueryingTime": 3.5,
        "flagTargetInZone": "10",
        "name": "ElectricRush",
        "priority": 4,
        "stateIDs": [
          "ElectricRush_BS",
          "ElectricRush_Loop",
          "ElectricRush_AS",
          "RangeAtk_Elite"
        ],
        "skillGroupCDID": 2,
        "castCondition": {
          "pickRangeMin": 0,
          "pickRangeMax": 7.5,
          "pose": [101]
        }
      },
      "601": {
        "cd": 50.0,
        "cdUpperRange": 5.0,
        "initialCD": 45,
        "flagSelfInZone": "11",
        "flagTargetReachable": "11",
        "skillQueryingTime": 3.5,
        "name": "AreaAtk",
        "priority": 3,
        "ignoreGCD": true,
        "stateIDs": ["AreaRush", "AreaAtk"],
        "castCondition": {
          "pose": [101]
        }
      },
      // 无相活动闪现回场地中心释放激光
      "602": {
        "cd": 50.0,
        "cdUpperRange": 5.0,
        "initialCD": 45,
        "flagSelfInZone": "11",
        "flagTargetReachable": "11",
        "skillQueryingTime": 3.5,
        "name": "AreaAtk",
        "priority": 3,
        "ignoreGCD": true,
        "stateIDs": ["AreaBlink", "AreaAtk"],
        "castCondition": {
          "pose": [101]
        }
      },
      "701": {
        "cd": 95.0,
        "cdUpperRange": 5.0,
        "initialCD": 95,
        "flagSelfInZone": "11",
        "flagTargetReachable": "11",
        "skillQueryingTime": 3.5,
        "priority": 2,
        "name": "ElectricBarrage",
        "ignoreGCD": true,
        "stateIDs": ["ElectricBarrageRush", "ElectricBarrage"],
        "castCondition": {
          "pose": [101]
        }
      },
      "801": {
        "cd": 170,
        "cdUpperRange": 5.0,
        "initialCD": 170,
        "flagTargetReachable": "11",
        "flagSelfInZone": "11",
        "skillQueryingTime": 3.5,
        "ignoreGCD": true,
        "priority": 1,
        "name": "ElectricDefence",
        "stateIDs": ["ElectricDefenceRush", "ElectricDefence"],
        "castCondition": {
          "pose": [101]
        }
      },
      "901": {
        "cd": 15,
        "cdUpperRange": 7.5,
        "skillQueryingTime": 3.5,
        "flagTargetReachable": "11",
        "flagSelfInZone": "11",
        "name": "RangeAtk",
        "priority": 4,
        "stateIDs": ["RangeAtk"],
        "castCondition": {
          "pickRangeMin": 15,
          "pickRangeMax": 70.0,
          "pose": [101]
        }
      },
      "1001": {
        "cd": 20,
        "cdUpperRange": 10,
        "skillQueryingTime": 3.5,
        "flagTargetReachable": "11",
        "name": "FistAtk",
        "stateIDs": ["FistAtk"],
        "skillGroupCDID": 3,
        "castCondition": {
          "pickRangeMin": 0,
          "pickRangeMax": 10,
          "pose": [101]
        }
      },
      "1002": {
        "cd": 30,
        "cdUpperRange": 5,
        "priority": 4,
        "skillQueryingTime": 3.5,
        "flagTargetInZone": "10",
        "name": "FistAtk",
        "stateIDs": ["FistAtk", "FistAtk_Rush"],
        "skillGroupCDID": 3,
        "castCondition": {
          "pickRangeMin": 10,
          "pickRangeMax": 20,
          "pose": [101]
        }
      },
      //Elite
      "1101": {
        "cd": 30,
        "cdUpperRange": 7.5,
        "skillQueryingTime": 3.5,
        "flagTargetReachable": "11",
        "flagSelfInZone": "11",
        "name": "RangeAtk_Elite",
        "priority": 4,
        "stateIDs": ["RangeAtk_Elite"],
        "castCondition": {
          "pickRangeMin": 15,
          "pickRangeMax": 70.0,
          "pose": [101]
        }
      }
    }
  },
  "audio": {
    "$type": "ConfigMonsterAudio",
    "animAudio": {
      "onTransitionIn": [
        {
          "currentStateName": "ElectricEscape_BS",
          "audioEvent": {
            "text": "Play_sfx_monster_effigy_electricEscape_BS"
          },
          "otherStateNames": [],
          "usage": "Any"
        },
        {
          "currentStateName": "ElectricEscape_AS",
          "audioEvent": {
            "text": "Play_sfx_monster_effigy_electricEscape_AS"
          },
          "otherStateNames": [],
          "usage": "Any"
        },
        {
          "currentStateName": "ElectricRush_BS",
          "audioEvent": {
            "text": "Play_sfx_monster_effigy_electricRushBS"
          },
          "otherStateNames": [],
          "usage": "Any"
        },
        {
          "currentStateName": "ElectricRush_AS",
          "audioEvent": {
            "text": "Play_sfx_monster_effigy_electricEscape_AS"
          },
          "otherStateNames": [],
          "usage": "Any"
        },
        {
          "currentStateName": "RangeAtk_BS",
          "audioEvent": {
            "text": "Play_sfx_monster_effigy_rangeAtk_BS"
          },
          "otherStateNames": [],
          "usage": "Any"
        },
        {
          "currentStateName": "RangeAtk_Loop1",
          "audioEvent": {
            "text": "Play_sfx_monster_effigy_rangeAtk"
          },
          "otherStateNames": [],
          "usage": "Any"
        },
        {
          "currentStateName": "RangeAtk_AS",
          "audioEvent": {
            "text": "Play_sfx_monster_effigy_rangeAtk_AS"
          },
          "otherStateNames": [],
          "usage": "Any"
        },
        {
          "currentStateName": "Warning",
          "audioEvent": {
            "text": "Play_sfx_monster_effigy_electric_warning"
          },
          "otherStateNames": [],
          "usage": "Any"
        },
        {
          "currentStateName": "RushMove_BS",
          "audioEvent": {
            "text": "Play_sfx_monster_effigy_rushMove_BS"
          },
          "otherStateNames": [],
          "usage": "Any"
        },
        {
          "currentStateName": "AreaAtkRush_BS",
          "audioEvent": {
            "text": "Play_sfx_monster_effigy_rushMove_BS"
          },
          "otherStateNames": [],
          "usage": "Any"
        },
        {
          "currentStateName": "SingleAtk",
          "audioEvent": {
            "text": "Play_sfx_monster_effigy_singleAtk"
          },
          "otherStateNames": [],
          "usage": "Any"
        },
        {
          "currentStateName": "MultiAtk",
          "audioEvent": {
            "text": "Play_sfx_monster_effigy_multiAtk"
          },
          "otherStateNames": [],
          "usage": "Any"
        },
        {
          "currentStateName": "FistAtk",
          "audioEvent": {
            "text": "Play_sfx_monster_effigy_fistAtk"
          },
          "otherStateNames": [],
          "usage": "Any"
        },
        {
          "currentStateName": "AreaAtk_BS",
          "audioEvent": {
            "text": "Play_sfx_monster_effigy_areaAtk"
          },
          "otherStateNames": [],
          "usage": "Any"
        },
        {
          "currentStateName": "ElectricBarrage_BS",
          "audioEvent": {
            "text": "Play_sfx_monster_effigy_electricBarrage_BS"
          },
          "otherStateNames": [],
          "usage": "Any"
        },
        {
          "currentStateName": "ElectricBarrage_Loop1",
          "audioEvent": {
            "text": "Play_sfx_monster_effigy_electricBarrage_loop1"
          },
          "otherStateNames": [],
          "usage": "Any"
        },
        {
          "currentStateName": "ElectricBarrage_Loop2",
          "audioEvent": {
            "text": "Play_sfx_monster_effigy_electricBarrage_loop2"
          },
          "otherStateNames": [""],
          "usage": "Any"
        },
        {
          "currentStateName": "ElectricDefence_BS",
          "audioEvent": {
            "text": "Play_sfx_monster_effigy_electricDefence"
          },
          "otherStateNames": [""],
          "usage": "Any"
        },
        {
          "currentStateName": "ElectricDefence_AS2",
          "audioEvent": {
            "text": "Play_sfx_monster_effigy_electric_warning"
          },
          "otherStateNames": [""],
          "usage": "Any"
        },
        {
          "currentStateName": "FistAtk_Rush",
          "audioEvent": {
            "text": "Play_sfx_monster_effigy_electricBarrage_loop"
          },
          "otherStateNames": [""],
          "usage": "Any"
        },
        {
          "currentStateName": "SingleAtk_Rush",
          "audioEvent": {
            "text": "Play_sfx_monster_effigy_electricBarrage_loop"
          },
          "otherStateNames": [""],
          "usage": "Any"
        },
        {
          "currentStateName": "MultiAtk_Rush",
          "audioEvent": {
            "text": "Play_sfx_monster_effigy_electricBarrage_loop"
          },
          "otherStateNames": [""],
          "usage": "Any"
        }
      ],
      "onTransitionOut": [
        {
          "currentStateName": "ElectricEscape_BS",
          "audioEvent": {
            "text": "Stop_sfx_monster_effigy_electricEscape_BS"
          },
          "otherStateNames": [
            "ElectricEscape_AS",
            "ElectricEscape_Loop1",
            "ElectricEscape_Loop2"
          ],
          "usage": "Except"
        },
        {
          "currentStateName": "ElectricEscape_Loop1",
          "audioEvent": {
            "text": "Stop_sfx_monster_effigy_electricEscape_BS"
          },
          "otherStateNames": ["ElectricEscape_AS"],
          "usage": "Except"
        },
        {
          "currentStateName": "ElectricEscape_Loop2",
          "audioEvent": {
            "text": "Stop_sfx_monster_effigy_electricEscape_BS"
          },
          "otherStateNames": ["ElectricEscape_AS"],
          "usage": "Except"
        },
        {
          "currentStateName": "ElectricRush_BS",
          "audioEvent": {
            "text": "Stop_sfx_monster_effigy_electricRush_BS"
          },
          "otherStateNames": ["ElectricRush_Loop"],
          "usage": "Except"
        },
        {
          "currentStateName": "ElectricRush_Loop",
          "audioEvent": {
            "text": "Stop_sfx_monster_effigy_electricRush_BS"
          },
          "otherStateNames": ["ElectricRush_AS"],
          "usage": "Except"
        },
        {
          "currentStateName": "RangeAtk_BS",
          "audioEvent": {
            "text": "Stop_sfx_monster_effigy_rangeAtk_BS"
          },
          "otherStateNames": ["RangeAtk_Loop1", "RangeAtk_Loop2"],
          "usage": "Except"
        },
        {
          "currentStateName": "RushMove_Loop",
          "audioEvent": {
            "text": "Stop_sfx_monster_effigy_rushMove"
          },
          "otherStateNames": [""],
          "usage": "Except"
        },
        {
          "currentStateName": "AreaAtkRush_Loop",
          "audioEvent": {
            "text": "Stop_sfx_monster_effigy_rushMove"
          },
          "otherStateNames": [""],
          "usage": "Except"
        },
        {
          "currentStateName": "SingleAtk",
          "audioEvent": {
            "text": "Stop_sfx_monster_effigy_singleAtk"
          },
          "otherStateNames": [],
          "usage": "Any"
        },
        {
          "currentStateName": "MultiAtk",
          "audioEvent": {
            "text": "Stop_sfx_monster_effigy_multiAtk"
          },
          "otherStateNames": [],
          "usage": "Any"
        },
        {
          "currentStateName": "AreaAtk_BS",
          "audioEvent": {
            "text": "Stop_sfx_monster_effigy_areaAtk"
          },
          "otherStateNames": [
            "AreaAtk_Loop1",
            "AreaAtk_Loop2",
            "AreaAtk_AS1",
            "AreaAtk_AS2"
          ],
          "usage": "Except"
        },
        {
          "currentStateName": "AreaAtk_Loop1",
          "audioEvent": {
            "text": "Stop_sfx_monster_effigy_areaAtk"
          },
          "otherStateNames": ["AreaAtk_Loop2", "AreaAtk_AS1", "AreaAtk_AS2"],
          "usage": "Except"
        },
        {
          "currentStateName": "AreaAtk_Loop2",
          "audioEvent": {
            "text": "Stop_sfx_monster_effigy_areaAtk"
          },
          "otherStateNames": ["AreaAtk_AS2"],
          "usage": "Except"
        },
        {
          "currentStateName": "AreaAtk_AS1",
          "audioEvent": {
            "text": "Stop_sfx_monster_effigy_areaAtk	"
          },
          "otherStateNames": ["AreaAtk_AS2", "AreaAtk_Loop2"],
          "usage": "Except"
        },
        {
          "currentStateName": "AreaAtk_AS2",
          "audioEvent": {
            "text": "Stop_sfx_monster_effigy_areaAtk"
          },
          "otherStateNames": [""],
          "usage": "Any"
        },
        {
          "currentStateName": "RangeAtk_Loop1",
          "audioEvent": {
            "text": "Stop_sfx_monster_effigy_rangeAtk"
          },
          "otherStateNames": ["RangeAtk_Loop2"],
          "usage": "Except"
        },
        {
          "currentStateName": "RangeAtk_Loop2",
          "audioEvent": {
            "text": "Stop_sfx_monster_effigy_rangeAtk"
          },
          "otherStateNames": ["RangeAtk_AS"],
          "usage": "Except"
        },
        {
          "currentStateName": "FistAtk",
          "audioEvent": {
            "text": "Stop_sfx_monster_effigy_fistAtk"
          },
          "otherStateNames": [""],
          "usage": "Any"
        },
        {
          "currentStateName": "ElectricRush_AS",
          "audioEvent": {
            "text": "Stop_sfx_monster_effigy_electric_warning"
          },
          "otherStateNames": [""],
          "usage": "Any"
        },
        {
          "currentStateName": "MultiAtk",
          "audioEvent": {
            "text": "Stop_sfx_monster_effigy_electric_warning"
          },
          "otherStateNames": [""],
          "usage": "Any"
        },
        {
          "currentStateName": "ElectricBarrage_BS",
          "audioEvent": {
            "text": "Stop_sfx_monster_effigy_electricBarrage_BS"
          },
          "otherStateNames": ["ElectricBarrage_Loop1"],
          "usage": "Except"
        },
        {
          "currentStateName": "ElectricBarrage_Loop1",
          "audioEvent": {
            "text": "Stop_sfx_monster_effigy_electricBarrage_loop1"
          },
          "otherStateNames": ["ElectricBarrage_Loop2", "ElectricBarrage_AS1"],
          "usage": "Except"
        },
        {
          "currentStateName": "ElectricBarrage_Loop2",
          "audioEvent": {
            "text": "Stop_sfx_monster_effigy_electricBarrage_loop2"
          },
          "otherStateNames": ["ElectricBarrage_AS1"],
          "usage": "Except"
        },
        {
          "currentStateName": "ElectricDefence_BS",
          "audioEvent": {
            "text": "Stop_sfx_monster_effigy_electricDefence"
          },
          "otherStateNames": ["ElectricDefence_Loop"],
          "usage": "Except"
        },
        {
          "currentStateName": "ElectricDefence_AS2",
          "audioEvent": {
            "text": "Stop_sfx_monster_effigy_electric_warning"
          },
          "otherStateNames": [""],
          "usage": "Any"
        },
        {
          "currentStateName": "FistAtk_Rush",
          "audioEvent": {
            "text": "Stop_sfx_monster_effigy_electricBarrage_loop"
          },
          "otherStateNames": [""],
          "usage": "Any"
        },
        {
          "currentStateName": "SingleAtk_Rush",
          "audioEvent": {
            "text": "Stop_sfx_monster_effigy_electricBarrage_loop"
          },
          "otherStateNames": [""],
          "usage": "Any"
        },
        {
          "currentStateName": "MultiAtk_Rush",
          "audioEvent": {
            "text": "Stop_sfx_monster_effigy_electricBarrage_loop"
          },
          "otherStateNames": [""],
          "usage": "Any"
        }
      ]
    }
  }
}
