{
  "$type": "ConfigMonster",
  "headControl": {
    "$type": "ConfigHeadControl",
    "useHeadControl": true,
    "maxYawDegree": 45,
    "maxPitchDegree": 10,
    "animStates": [
      "NormalIdle/Standby",
      "NormalMove/WalkForward",
      "NormalMove/MoveForward",
      "Run/RunForward",
      "Run/RunBack",
      "Run/RunLeft",
      "Run/RunRight",
      "Turn/TurnLeft",
      "Turn/TurnRight",
      "SurroundTurn/WalkLToR",
      "SurroundTurn/WalkRToL"
    ]
  },
  "common": {
    "effectAttachShape": {
      "$type": "ConfigEffectAttachSkinnedMesh",
      "mesh": "EffectMesh"
    },
    "mass": 30.0,
    "useGrassDisplacement": false,
    "affectedByWorld": true,
    "checkInSurface": true,
    "scale": 1.4,
    "height": 1.3,
    "modelHeight": 0.95,
    "clearAnimatorOnSetLightDeactive": true,
    "clearAIOnSetLightDeactive": true
  },
  "move": {
    "$type": "ConfigAnimatorMove",
    "facingMove": "ForwardBackward",
    "monsterSizeType": "SlimeType",
    "handleCombatTaskImmediately": true,
    "moveOnWater": true,
    "yawSpeedRatio": 2
  },
  "model": {
    "bornEffect": "Eff_Monster_Common_Born",
    "canBakeMesh": false
  },
  "billboard": {
    "$type": "ConfigCombatBillboard",
    "offsetType": "Character",
    "offset": {
      "x": 0,
      "y": 0,
      "z": 0
    },
    "showHPBar": true,
    "radiusOffset": 0.25,
    "size": "Normal"
  },
  "combat": {
    "property": {
      "weight": 100,
      "endureType": "Monster_Grunt_Other"
    },
    "combatLock": {
      "denyLockOn": false,
      "lockType": "Avatar&Monster_Lv4"
    },
    "beHit": {
      "hitBloodEffect": "",
      "muteAllHit": false,
      "muteAllHitEffect": false,
      "muteAllHitText": false
    },
    "die": {
      "hasAnimatorDie": true,
      "dieDisappearEffect": "Eff_Death_Abyss_Common",
      "dieDisappearEffectDelay": 0.0,
      "dieEndTime": 0.4,
      "dieForceDisappearTime": 0.4,
      "dieShaderData": "MonsterDie",
      "muteHitBox": true,
      "dieDenyLockOn": true,
      "dieIsGhostToEnemy": true,
      "dieIgnoreTriggerBullet": true,
      "muteBillboard": true,
      "mutePushCollider": true
    },
    "animEvents": {
      "WavePawR": {
        "attackPattern": {
          "$type": "ConfigAttackCircle",
          "triggerType": "TriggerNoRepeat",
          "fanAngle": 200.0,
          "radius": 2.0,
          "height": 1.8,
          "born": {
            "$type": "ConfigBornBySelf",
            "offset": {
              "x": 0,
              "y": -0.3,
              "z": 0.75
            },
            "direction": {
              "$type": "ConfigDirectionByDefault",
              "angleOffset": {
                "x": 0.0,
                "y": 35.0,
                "z": 0.0
              }
            }
          }
        },
        "attackInfo": {
          "attackTag": "Hound_Corruption_Tag",
          "attackProperty": {
            "damagePercentage": 0.65,
            "strikeType": "Default",
            "attackType": "Default",
            "elementType": "Rock",
            "elementDurability": 25,
            "enBreak": 1
          },
          "hitPattern": {
            "onHitEffectName": "Eff_Monster_Riftstalker_Hit",
            "hitImpulseType": "LV2",
            "hitHaltTime": 0.0,
            "hitHaltTimeScale": 0.05,
            "muteHitText": false
          }
        }
      },
      "WavePawL": {
        "attackPattern": {
          "$type": "ConfigAttackCircle",
          "triggerType": "TriggerNoRepeat",
          "fanAngle": 220.0,
          "radius": 2.0,
          "height": 1.8,
          "born": {
            "$type": "ConfigBornBySelf",
            "offset": {
              "x": 0,
              "y": -0.3,
              "z": 0.75
            },
            "direction": {
              "$type": "ConfigDirectionByDefault",
              "angleOffset": {
                "x": 0.0,
                "y": -70.0,
                "z": 0.0
              }
            }
          }
        },
        "attackInfo": {
          "attackTag": "Hound_Corruption_Tag",
          "attackProperty": {
            "damagePercentage": 0.65,
            "strikeType": "Default",
            "attackType": "Default",
            "elementType": "Rock",
            "elementDurability": 25,
            "enBreak": 1
          },
          "hitPattern": {
            "onHitEffectName": "Eff_Monster_Riftstalker_Hit",
            "hitImpulseType": "LV2",
            "hitHaltTime": 0.0,
            "hitHaltTimeScale": 0.05,
            "muteHitText": false
          }
        }
      },
      "Biting": {
        "attackPattern": {
          "$type": "ConfigAttackBox",
          "triggerType": "TriggerNoRepeat",
          "size": {
            "x": 1.6,
            "y": 1.6,
            "z": 4.2
          },
          "born": {
            "$type": "ConfigBornBySelf",
            "offset": {
              "x": 0.0,
              "y": 0.9,
              "z": -0.5
            }
          }
        },
        "attackInfo": {
          "attackTag": "Hound_Corruption_Tag",
          "attackProperty": {
            "damagePercentage": 0.85,
            "strikeType": "Blunt",
            "attackType": "Melee",
            "elementType": "Rock",
            "enBreak": 1
          },
          "hitPattern": {
            "onHitEffectName": "Eff_Monster_Riftstalker_Hit",
            "hitImpulseType": "LV2",
            "hitHaltTime": 0,
            "hitHaltTimeScale": 0,
            "muteHitText": false
          },
          "forceCameraShake": true,
          "cameraShake": {
            "shakeType": "HitVector"
          }
        }
      }
    }
  },
  "inputKeys": [
    {
      "keyID": 101,
      "inputKeyCode": 257
    },
    {
      "keyID": 201,
      "inputKeyCode": 258
    },
    {
      "keyID": 301,
      "inputKeyCode": 259
    },
    {
      "keyID": 401,
      "inputKeyCode": 260
    },
    {
      "keyID": 501,
      "inputKeyCode": 261
    },
    {
      "keyID": 601,
      "inputKeyCode": 262
    }
  ],
  "stateLayers": {
    "defaultLayer": {
      "$type": "ConfigNormalStateLayer",
      "stateIDs": {
        "NormalIdle": {
          "$type": "ConfigMonsterStateIDInfo",
          "animatorStates": {
            "Standby": [],
            "Born": []
          },
          "canDoSkill": true,
          "canSyncMove": true,
          "canSteer": true,
          "autoSteer": true,
          "resetAnimatorTriggerOnExit": ["DoSkill"]
        },
        "Run": {
          "$type": "ConfigMonsterStateIDInfo",
          "animatorStates": {
            "RunForward": [],
            "RunBack": [],
            "RunRight": [],
            "RunLeft": []
          },
          "canDoSkill": true,
          "canSteer": true,
          "canSyncMove": true,
          "resetAnimatorTriggerOnExit": ["DoSkill"]
        },
        "NormalMove": {
          "$type": "ConfigMonsterStateIDInfo",
          "animatorStates": {
            "WalkForward": [],
            "MoveForward": []
          },
          "canDoSkill": true,
          "canSteer": true,
          "canSyncMove": true,
          "resetAnimatorTriggerOnExit": ["DoSkill"]
        },
        "Turn": {
          "$type": "ConfigMonsterStateIDInfo",
          "animatorStates": {
            "TurnLeft": [],
            "TurnRight": []
          },
          "canDoSkill": true,
          "canSteer": true,
          "canSyncMove": true,
          "resetAnimatorTriggerOnExit": ["DoSkill"]
        },
        "SurroundTurn": {
          "$type": "ConfigMonsterStateIDInfo",
          "animatorStates": {
            "WalkLToR": [],
            "WalkRToL": []
          },
          "canSteer": true,
          /* "canSyncMove" : true, */
          "resetAnimatorTriggerOnExit": ["DoSkill"],
          "followAnimRotation": true
        },
        "BeHit": {
          "$type": "ConfigMonsterStateIDInfo",
          "animatorStates": {
            "Hit_L": ["Audio_Monster_Hound_Kanis_Hit_L"],
            "Hit_H": ["Audio_Monster_Hound_Kanis_Hit_H"]
          },
          "resetAnimatorTriggerOnEnter": ["BeHit"],
          "resetAnimatorTriggerOnExit": ["DoSkill"]
        },
        "BeHitThrow": {
          "$type": "ConfigMonsterStateIDInfo",
          "animatorStates": {
            "HitThrow": ["Audio_Monster_Hound_Kanis_Hit_H"],
            "HitThrowDrop": [],
            "HitThrowToGround": ["Audio_Monster_Hound_Kanis_HitToGround"]
          },
          "resetAnimatorTriggerOnEnter": ["BeHit", "HitAir2HitDrop"],
          "resetAnimatorTriggerOnExit": ["DoSkill"]
        },
        "Die": {
          "$type": "ConfigMonsterStateIDInfo",
          "animatorStates": {
            "Die": ["Audio_Monster_Hound_Kanis_Die"]
          }
        },
        "Alert": {
          "$type": "ConfigMonsterStateIDInfo",
          "animatorStates": {
            "Alert": ["Audio_Monster_Hound_Kanis_Alert"]
          },
          "resetAnimatorTriggerOnExit": ["BeHit", "DoSkill"]
        },
        "WavePaw": {
          "$type": "ConfigMonsterStateIDInfo",
          "animatorStates": {
            "WavePaw": [
              "Monster_Hound_Kanis_Rock_WavePaw",
              "Audio_Monster_Hound_Kanis_WavePaw"
            ]
          },
          "canSteer": true,
          "canSyncMove": true,
          "resetAnimatorTriggerOnExit": ["BeHit", "DoSkill"]
        },
        "Strike_BS": {
          "$type": "ConfigMonsterStateIDInfo",
          "animatorStates": {
            "Strike_BS": ["Audio_Monster_Hound_Kanis_Strike_BS"]
          },
          "canSteer": true,
          "resetAnimatorTriggerOnExit": ["BeHit", "DoSkill"]
        },
        "Strike_Loop": {
          "$type": "ConfigMonsterStateIDInfo",
          "animatorStates": {
            "Strike_Loop": []
          },
          "canSteer": true,
          "canSyncMove": true,
          "resetAnimatorTriggerOnExit": ["BeHit", "DoSkill"]
        },
        "Strike_AS": {
          "$type": "ConfigMonsterStateIDInfo",
          "animatorStates": {
            "Strike_AS": [
              "Monster_Hound_Kanis_Rock_Strike_AS",
              "Audio_Monster_Hound_Kanis_Strike_AS"
            ]
          },
          "canSteer": true,
          "resetAnimatorTriggerOnExit": ["BeHit", "DoSkill"]
        },
        "Biting_BS": {
          "$type": "ConfigMonsterStateIDInfo",
          "animatorStates": {
            "Biting_BS": ["Audio_Monster_Hound_Kanis_Biting_BS"]
          },
          "canSteer": true,
          "resetAnimatorTriggerOnExit": ["BeHit", "DoSkill"]
        },
        "Biting": {
          "$type": "ConfigMonsterStateIDInfo",
          "animatorStates": {
            "Biting": [
              "Monster_Hound_Kanis_Rock_Biting",
              "Audio_Monster_Hound_Kanis_Biting"
            ]
          },
          "canSteer": true,
          "resetAnimatorTriggerOnExit": ["BeHit", "DoSkill"]
        },
        "Biting_AS": {
          "$type": "ConfigMonsterStateIDInfo",
          "animatorStates": {
            "Biting_AS": []
          },
          "canSteer": true,
          "resetAnimatorTriggerOnExit": ["BeHit", "DoSkill"]
        },
        "JumpBack_BS": {
          "$type": "ConfigMonsterStateIDInfo",
          "animatorStates": {
            "JumpBack_BS": ["Audio_Monster_Hound_Kanis_JumpBack_BS"]
          },
          "canSteer": true,
          "resetAnimatorTriggerOnExit": ["BeHit", "DoSkill"]
        },
        "JumpBack_AS": {
          "$type": "ConfigMonsterStateIDInfo",
          "animatorStates": {
            "JumpBack_AS": []
          },
          "canSteer": true,
          "resetAnimatorTriggerOnExit": ["BeHit", "DoSkill"]
        },
        "Activated": {
          "$type": "ConfigMonsterStateIDInfo",
          "animatorStates": {
            "Activated": [
              "Monster_Hound_Kanis_Rock_Activated",
              "Audio_Monster_Hound_Kanis_Activated"
            ]
          },
          "resetAnimatorTriggerOnExit": ["BeHit", "DoSkill"]
        }
      }
    }
  },
  "abilities": [
    //////////////////////////////////////////////////
    //	Pose
    //////////////////////////////////////////////////
    {
      "abilityName": "Monster_Hound_Kanis_Rock_Pose"
    },
    //////////////////////////////////////////////////
    //	Eye Effect
    //////////////////////////////////////////////////
    {
      "abilityName": "Monster_Hound_Kanis_Rock_EyeEff_Add"
    },
    {
      "abilityName": "Monster_Hound_Kanis_Rock_EyeEff_Remove"
    },
    //////////////////////////////////////////////////
    //	Steer
    //////////////////////////////////////////////////
    {
      "abilityName": "Monster_Hound_Kanis_Rock_Steer"
    },
    //////////////////////////////////////////////////
    //	Biting
    //////////////////////////////////////////////////
    {
      "abilityName": "Monster_Hound_Kanis_Biting"
    },
    //////////////////////////////////////////////////
    //	WavePaw
    //////////////////////////////////////////////////
    {
      "abilityName": "Monster_Hound_Kanis_WavePaw"
    },
    //////////////////////////////////////////////////
    //	Strike
    //////////////////////////////////////////////////
    {
      "abilityName": "Monster_Hound_Kanis_Rock_Strike_State"
    },
    {
      "abilityName": "Monster_Hound_Kanis_Rock_Strike_FindBlinkPoint"
    },
    {
      "abilityName": "Monster_Hound_Kanis_Rock_Strike_DoBlink"
    },
    {
      "abilityName": "Monster_Hound_Kanis_Rock_Strike_Attack"
    },
    //////////////////////////////////////////////////
    //	Biting
    //////////////////////////////////////////////////
    {
      "abilityName": "Monster_Hound_Kanis_Rock_Biting"
    },
    //////////////////////////////////////////////////
    //	Activated
    //////////////////////////////////////////////////
    {
      "abilityName": "Monster_Hound_Kanis_Rock_Acitvated"
    },
    //////////////////////////////////////////////////
    //	LoseHP
    //////////////////////////////////////////////////
    {
      "abilityName": "Monster_Hound_Corruption_LoseHP"
    },
    //////////////////////////////////////////////////
    //	Kanis Tag
    //////////////////////////////////////////////////
    {
      "abilityName": "Monster_Hound_Kanis_KanisTag"
    },
    //////////////////////////////////////////////////
    //	ExitBattle
    //////////////////////////////////////////////////
    {
      "abilityName": "Monster_Hound_Kanis_ExitBattle"
    }
  ],
  "initialPoses": {
    "Default": {
      "initialPoseID": 101
    }
  },
  "aibeta": {
    "enable": true,
    "skillGCD": 1.0,
    "skillSetting": {
      "skillEliteSet": {}
    },
    "neurons": {
      "DefaultSetting": ["HIT"]
    },
    "sensing": {
      "settings": {
        "DefaultSetting": {
          "viewRange": 30.0,
          "feelRange": 20.0
        }
      }
    },
    "defendArea": {
      "enable": true,
      "defendRange": 50
    },
    "threat": {
      "clearThreatTimerByDistance": 5.0,
      "clearThreatByLostPath": true,
      "clearThreatTimerByLostPath": 10,
      "viewAttenuation": [
        { "x": 10.0, "y": 2.0 },
        { "x": 15.0, "y": 1.2 },
        { "x": 20.0, "y": 0.8 },
        { "x": 25.0, "y": 0.5 },
        { "x": 30.0, "y": 0.3 }
      ]
    },
    "returnToBornTactic": {
      "enable": true,
      "defaultSetting": {
        "speedLevel": 2
      }
    },
    "wanderTactic": {
      "enable": true,
      "condition": {
        "pose": [101]
      },
      "defaultSetting": {
        "speedLevel": 1,
        "cdMin": 2.0,
        "cdMax": 5.0,
        "distanceFromBorn": 15.0,
        "distanceFromCurrentMin": 5.0,
        "distanceFromCurrentMax": 7.5
      }
    },
    "meleeChargeTactic": {
      "enable": true,
      "condition": {
        "pose": [201, 401]
      },
      "defaultSetting": {
        "speedLevel": 2,
        "speedLevelInner": 0,
        "innerDistance": 0,
        "stopDistance": 5.0,
        "startDistanceMin": 7.5,
        "startDistanceMax": 50
      }
    },
    /* "groupSurroundTactic":
		{
			"enable": true,
			"condition":
			{
				"pose": [201, 401],
			},
			"defaultSetting":
			{
				"speedLevel": 1,
				"turnSpeedOverride": 0.3,
				"startDistance": 4.5,
				"surroundRadius": 6.0,
				"turningStates": ["SurroundTurn"],
				"detectFrontDistance": 3.0,
				"detectFrontOffsetUp": 1.0,
				"exitDistanceMin": 3.0,
				"exitDistanceMax": 14.5,
				"clockWiseWeight": 0.35,
				"detectCollisionRadius": 1.5,
				"cd": 6.0,
			},
			"specification":
			{
				"401":
				{
					"speedLevel": 1,
					"turnSpeedOverride": 0.3,
					"startDistance": 5.5,
					"surroundRadius": 5.0,
					"turningStates": ["SurroundTurn"],
					"detectFrontDistance": 3.0,
					"detectFrontOffsetUp": 1.0,
					"exitDistanceMin": 3.0,
					"exitDistanceMax": 10.0,
					"clockWiseWeight": 0.35,
					"detectCollisionRadius": 1.5,
					"cd": 10.0,
				},
			},
		}, */
    "skillGroupCDConfigs": [
      {
        "skillGroupCDID": 1,
        "skillGroupCDTime": 5.0
      },
      {
        "skillGroupCDID": 2,
        "skillGroupCDTime": 15.0
      },
      {
        "skillGroupCDID": 3,
        "skillGroupCDTime": 10.0
      }
    ],
    "skills": {
      //////////////////////////////////////////////////
      //	Alert
      //////////////////////////////////////////////////
      "101": {
        "name": "OnAlert",
        "stateIDs": ["Alert"],
        "skillType": "OnAlert",
        "skillQueryingTime": 3,
        "triggerGCD": false,
        "ignoreGCD": true,
        "faceTarget": true
      },
      //////////////////////////////////////////////////
      //	Skills
      //////////////////////////////////////////////////
      "201": {
        "cd": 7.5,
        "cdUpperRange": 1.0,
        "priority": 2,
        "name": "WavePaw",
        "stateIDs": ["WavePaw"],
        "faceTarget": true,
        "enableSkillPrepare": true,
        "castCondition": {
          "pickRangeYMax": 3.0,
          "pickRangeMin": 0.25,
          "pickRangeMax": 3.25,
          "castRangeMin": 0.0,
          "castRangeMax": 3.0,
          "pose": [201]
        }
      },
      "202": {
        "cd": 5.5,
        "cdUpperRange": 2.0,
        "priority": 2,
        "name": "WavePaw",
        "stateIDs": ["WavePaw"],
        "faceTarget": true,
        "enableSkillPrepare": true,
        "castCondition": {
          "pickRangeYMax": 3.0,
          "pickRangeMin": 0.25,
          "pickRangeMax": 3.25,
          "castRangeMin": 0.0,
          "castRangeMax": 3.0,
          "pose": [401]
        }
      },
      "301": {
        "cd": 15.5,
        "cdUpperRange": 2.0,
        "initialCD": 3.0,
        "initialCDUpperRange": 5.0,
        "priority": 2,
        "name": "Strike",
        "stateIDs": ["Strike_BS", "Strike_Loop", "Strike_AS"],
        "flagTargetReachable": "11",
        "flagTargetInZone": "10",
        "publicCDGroup": "Hound_Strike",
        "skillGroupCDID": 2,
        "castCondition": {
          "maxTargetAngleY": 30.0,
          "pickRangeYMax": 5.5,
          "pickRangeMin": 3.5,
          "pickRangeMax": 14.5,
          "pose": [201]
        }
      },
      "302": {
        "cd": 10.5,
        "cdUpperRange": 2.0,
        "initialCD": 3.0,
        "initialCDUpperRange": 5.0,
        "priority": 2,
        "name": "Strike",
        "stateIDs": ["Strike_BS", "Strike_Loop", "Strike_AS"],
        "flagTargetReachable": "11",
        "flagTargetInZone": "10",
        "publicCDGroup": "Hound_Strike",
        "skillGroupCDID": 3,
        "castCondition": {
          "maxTargetAngleY": 30.0,
          "pickRangeYMax": 5.5,
          "pickRangeMin": 3.5,
          "pickRangeMax": 14.5,
          "pose": [401]
        }
      },
      // 距离过远时追击
      "303": {
        "cd": 20.5,
        "cdUpperRange": 5.0,
        "initialCD": 3.0,
        "initialCDUpperRange": 7.5,
        "priority": 1,
        "name": "Strike",
        "stateIDs": ["Strike_BS", "Strike_Loop", "Strike_AS"],
        "flagTargetReachable": "11",
        "flagTargetInZone": "10",
        "skillGroupCDID": 2,
        "castCondition": {
          "maxTargetAngleY": 30.0,
          "pickRangeYMax": 5.5,
          "pickRangeMin": 18.5,
          "pickRangeMax": 25.0,
          "pose": [201, 401]
        }
      },
      // 用来被大狗重置
      "304": {
        "cd": 999999.0,
        "initialCD": 2.0,
        "initialCDUpperRange": 3.0,
        "priority": 1,
        "name": "Strike",
        "stateIDs": ["Strike_BS", "Strike_Loop", "Strike_AS"],
        "flagTargetReachable": "11",
        "flagTargetInZone": "10",
        "publicCDGroup": "Hound_Strike",
        "castCondition": {
          "maxTargetAngleY": 30.0,
          "pickRangeYMax": 5.5,
          "pickRangeMin": 1.5,
          "pickRangeMax": 20.0,
          "pose": [201, 401]
        }
      },
      "401": {
        "cd": 7.5,
        "cdUpperRange": 2.0,
        "priority": 2,
        "name": "Biting",
        "stateIDs": ["Biting_BS", "Biting", "Biting_AS"],
        "faceTarget": true,
        "flagSelfInZone": "11",
        "flagTargetReachable": "11",
        "castCondition": {
          "pickRangeYMax": 3.0,
          "pickRangeMin": 0.0,
          "pickRangeMax": 5.5,
          "castRangeMin": 0.0,
          "castRangeMax": 5.5,
          "pose": [201]
        }
      },
      "402": {
        "cd": 5.5,
        "cdUpperRange": 2.0,
        "priority": 2,
        "name": "Biting",
        "stateIDs": ["Biting_BS", "Biting", "Biting_AS"],
        "faceTarget": true,
        "flagSelfInZone": "11",
        "flagTargetReachable": "11",
        "castCondition": {
          "pickRangeYMax": 3.0,
          "pickRangeMin": 0.0,
          "pickRangeMax": 5.5,
          "castRangeMin": 0.0,
          "castRangeMax": 5.5,
          "pose": [401]
        }
      },
      /* "501":
			{
				"cd": 5.0,
				"cdUpperRange": 3.0,
				"priority": 3,
				"name": "JumpBack",
				"stateIDs": ["JumpBack_BS","JumpBack_AS"],
				"faceTarget": true,
				"flagSelfInZone": "11",
				"flagTargetReachable": "11",
				"skillGroupCDID":1,
				"castCondition":
				{
					"pickRangeMin": 0,
					"pickRangeMax": 3.5,
					"pose": [201],
				},
			},
			"502":
			{
				"cd": 99999.0,
				"cdUpperRange": 3.0,
				"priority": 1,
				"name": "JumpBack",
				"stateIDs": ["JumpBack_BS","JumpBack_AS"],
				"faceTarget": true,
				"flagSelfInZone": "11",
				"flagTargetReachable": "11",
				"skillGroupCDID":1,
				"castCondition":
				{
					"pickRangeMin": 0,
					"pickRangeMax": 3.5,
					"pose": [201],
				},
			},
			"503":
			{
				"cd": 7.5,
				"cdUpperRange": 3.0,
				"priority": 3,
				"name": "JumpBack",
				"stateIDs": ["JumpBack_BS","JumpBack_AS"],
				"faceTarget": true,
				"flagSelfInZone": "11",
				"flagTargetReachable": "11",
				"skillGroupCDID":1,
				"castCondition":
				{
					"pickRangeMin": 0,
					"pickRangeMax": 3.5,
					"pose": [401],
				},
			},
			"504":
			{
				"cd": 99999.0,
				"cdUpperRange": 3.0,
				"priority": 1,
				"name": "JumpBack",
				"stateIDs": ["JumpBack_BS","JumpBack_AS"],
				"faceTarget": true,
				"flagSelfInZone": "11",
				"flagTargetReachable": "11",
				"skillGroupCDID":1,
				"castCondition":
				{
					"pickRangeMin": 0,
					"pickRangeMax": 3.5,
					"pose": [401],
				},
			}, */
      "601": {
        "cd": 999999.0,
        "initialCD": 0.0,
        "name": "Activated",
        "stateIDs": ["Activated"],
        "ignoreGCD": true,
        "triggerGCD": false,
        "triggerCDOnStart": true,
        "triggerCDOnFail": false,
        "flagSelfInZone": "11",
        "flagSelfOnTemplateCollider": "11",
        "castCondition": {
          "pose": [301]
        }
      }
    }
  },
  "audio": {
    "$type": "ConfigMonsterAudio",
    "animAudio": {
      "onTransitionOut": [
        {
          "currentStateName": "BombCreate",
          "audioEvent": { "text": "Stop_sfx_monster_hili_build" },
          "otherStateNames": [""],
          "usage": "Any"
        },
        {
          "currentStateName": "Make",
          "audioEvent": { "text": "Stop_sfx_monster_hili_build" },
          "otherStateNames": [""],
          "usage": "Any"
        },
        {
          "currentStateName": "Build",
          "audioEvent": { "text": "Stop_sfx_monster_hili_build" },
          "otherStateNames": [""],
          "usage": "Any"
        },
        {
          "currentStateName": "Practice_Sword",
          "audioEvent": { "text": "Stop_sfx_monster_hili_practice_sword" },
          "otherStateNames": [""],
          "usage": "Any"
        },
        {
          "currentStateName": "Practice_NoWeapon",
          "audioEvent": { "text": "Stop_sfx_monster_hili_practice_sword" },
          "otherStateNames": [""],
          "usage": "Any"
        },
        {
          "currentStateName": "Practice_Sword_Back",
          "audioEvent": { "text": "Stop_sfx_monster_hili_practice_back" },
          "otherStateNames": [""],
          "usage": "Any"
        },
        {
          "currentStateName": "Practice_NoWeapon_Back",
          "audioEvent": { "text": "Stop_sfx_monster_hili_practice_back" },
          "otherStateNames": [""],
          "usage": "Any"
        },
        {
          "currentStateName": "Practice_Shoot_Aim",
          "audioEvent": { "text": "Stop_sfx_monster_hili_practice_shoot_aim" },
          "otherStateNames": ["Practice_Shoot_Attack"],
          "usage": "Except"
        },
        {
          "currentStateName": "Practice_Shoot_Attack",
          "audioEvent": { "text": "Stop_sfx_monster_hili_practice_shoot_aim" },
          "otherStateNames": [""],
          "usage": "Any"
        },
        {
          "currentStateName": "Dance",
          "audioEvent": { "text": "Stop_sfx_monster_hili_dance" },
          "otherStateNames": [""],
          "usage": "Any"
        },
        {
          "currentStateName": "SurroundFree01_Club",
          "audioEvent": { "text": "Stop_sfx_monster_hili_dance" },
          "otherStateNames": [""],
          "usage": "Any"
        },
        {
          "currentStateName": "SurroundFree01_NoWeapon",
          "audioEvent": { "text": "Stop_sfx_monster_hili_dance" },
          "otherStateNames": [""],
          "usage": "Any"
        },
        {
          "currentStateName": "ThreatFree01_NoWeapon",
          "audioEvent": { "text": "Stop_sfx_monster_hili_dance" },
          "otherStateNames": [""],
          "usage": "Any"
        },
        {
          "currentStateName": "ThreatFree02_NoWeapon",
          "audioEvent": { "text": "Stop_sfx_monster_hili_dance" },
          "otherStateNames": [""],
          "usage": "Any"
        },
        {
          "currentStateName": "ThreatFree01_Club",
          "audioEvent": { "text": "Stop_sfx_monster_hili_dance" },
          "otherStateNames": [""],
          "usage": "Any"
        },
        {
          "currentStateName": "ThreatFree02_Club",
          "audioEvent": { "text": "Stop_sfx_monster_hili_dance" },
          "otherStateNames": [""],
          "usage": "Any"
        }
      ],
      "onTransitionIn": [
        {
          "currentStateName": "OutOfBuild",
          "audioEvent": { "text": "Stop_sfx_monster_hili_build" },
          "otherStateNames": [],
          "usage": "Any"
        },
        {
          "currentStateName": "Alert",
          "audioEvent": { "text": "Stop_sfx_monster_hili_build" },
          "otherStateNames": [],
          "usage": "Any"
        },
        {
          "currentStateName": "BeHit",
          "audioEvent": { "text": "Stop_sfx_monster_hili_build" },
          "otherStateNames": [],
          "usage": "Any"
        },
        {
          "currentStateName": "Die",
          "audioEvent": { "text": "Stop_sfx_monster_hili_build" },
          "otherStateNames": [],
          "usage": "Any"
        },
        {
          "currentStateName": "Die1",
          "audioEvent": { "text": "Stop_sfx_monster_hili_build" },
          "otherStateNames": [],
          "usage": "Any"
        },
        {
          "currentStateName": "Die2",
          "audioEvent": { "text": "Stop_sfx_monster_hili_build" },
          "otherStateNames": [],
          "usage": "Any"
        },
        {
          "currentStateName": "OutOfMake",
          "audioEvent": { "text": "Stop_sfx_monster_hili_build" },
          "otherStateNames": [""],
          "usage": "Any"
        },
        {
          "currentStateName": "Practice_Sword_Back",
          "audioEvent": { "text": "Play_sfx_monster_hili_practice_back" },
          "otherStateNames": [""],
          "usage": "Any"
        },
        {
          "currentStateName": "Practice_NoWeapon_Back",
          "audioEvent": { "text": "Play_sfx_monster_hili_practice_back" },
          "otherStateNames": [""],
          "usage": "Any"
        },
        {
          "currentStateName": "Practice_Shoot_Aim",
          "audioEvent": { "text": "Play_sfx_monster_hili_practice_shoot_aim" },
          "otherStateNames": [""],
          "usage": "Any"
        },
        {
          "currentStateName": "Dance",
          "audioEvent": { "text": "Play_sfx_monster_hili_dance" },
          "otherStateNames": [""],
          "usage": "Any"
        },
        {
          "currentStateName": "OutOfDance",
          "audioEvent": { "text": "Stop_sfx_monster_hili_dance" },
          "otherStateNames": [""],
          "usage": "Any"
        },
        {
          "currentStateName": "SurroundFree01_Club",
          "audioEvent": { "text": "Play_sfx_monster_hili_dance" },
          "otherStateNames": [""],
          "usage": "Any"
        },
        {
          "currentStateName": "SurroundFree01_NoWeapon",
          "audioEvent": { "text": "Play_sfx_monster_hili_dance" },
          "otherStateNames": [""],
          "usage": "Any"
        },
        {
          "currentStateName": "OutOfSurround",
          "audioEvent": { "text": "Stop_sfx_monster_hili_dance" },
          "otherStateNames": [""],
          "usage": "Any"
        },
        {
          "currentStateName": "Alert",
          "audioEvent": { "text": "Stop_sfx_monster_hili_dance" },
          "otherStateNames": [],
          "usage": "Any"
        },
        {
          "currentStateName": "BeHit",
          "audioEvent": { "text": "Stop_sfx_monster_hili_dance" },
          "otherStateNames": [],
          "usage": "Any"
        },
        {
          "currentStateName": "Die",
          "audioEvent": { "text": "Stop_sfx_monster_hili_dance" },
          "otherStateNames": [],
          "usage": "Any"
        },
        {
          "currentStateName": "Die1",
          "audioEvent": { "text": "Stop_sfx_monster_hili_dance" },
          "otherStateNames": [],
          "usage": "Any"
        },
        {
          "currentStateName": "Die2",
          "audioEvent": { "text": "Stop_sfx_monster_hili_dance" },
          "otherStateNames": [],
          "usage": "Any"
        },
        {
          "currentStateName": "ThreatFree01_NoWeapon",
          "audioEvent": { "text": "Play_sfx_monster_hili_dance" },
          "otherStateNames": [""],
          "usage": "Any"
        },
        {
          "currentStateName": "ThreatFree02_NoWeapon",
          "audioEvent": { "text": "Play_sfx_monster_hili_dance" },
          "otherStateNames": [""],
          "usage": "Any"
        },
        {
          "currentStateName": "ThreatFree01_Club",
          "audioEvent": { "text": "Play_sfx_monster_hili_dance" },
          "otherStateNames": [""],
          "usage": "Any"
        },
        {
          "currentStateName": "ThreatFree02_Club",
          "audioEvent": { "text": "Play_sfx_monster_hili_dance" },
          "otherStateNames": [""],
          "usage": "Any"
        },
        {
          "currentStateName": "OutOfThreat",
          "audioEvent": { "text": "Stop_sfx_monster_hili_dance" },
          "otherStateNames": [""],
          "usage": "Any"
        }
      ]
    },
    "disableEvent": {
      "text": "Stop_sfx_monster_hili_dance"
    },
    "destroyEvent": {
      "text": "Stop_sfx_monster_hili_dance"
    }
  }
}
